﻿
DisplayName "MS Fish Middle Deck"



EVENT   1
 PAGE   1
  281(0)
  If(6,-1,8)
   250(bytes(0x04,0x08,0x6f,0x3a,0x0c,0x52,0x50,0x47,0x3a,0x3a,0x53,0x45,0x08,0x3a,0x0a,0x40,0x6e,0x61,0x6d,0x65,0x49,0x22,0x09,0x4d,0x6f,0x76,0x65,0x06,0x3a,0x06,0x45,0x54,0x3a,0x0b,0x40,0x70,0x69,0x74,0x63,0x68,0x69,0x69,0x3a,0x0c,0x40,0x76,0x6f,0x6c,0x75,0x6d,0x65,0x69,0x55))
   TeleportPlayer(0,724,13,27,0,0)
   0()
  EndIf()
  0()



EVENT   2
 PAGE   1
  281(0)
  If(6,-1,8)
   250(bytes(0x04,0x08,0x6f,0x3a,0x0c,0x52,0x50,0x47,0x3a,0x3a,0x53,0x45,0x08,0x3a,0x0a,0x40,0x6e,0x61,0x6d,0x65,0x49,0x22,0x09,0x4d,0x6f,0x76,0x65,0x06,0x3a,0x06,0x45,0x54,0x3a,0x0b,0x40,0x70,0x69,0x74,0x63,0x68,0x69,0x69,0x3a,0x0c,0x40,0x76,0x6f,0x6c,0x75,0x6d,0x65,0x69,0x55))
   TeleportPlayer(0,724,13,27,0,0)
   0()
  EndIf()
  0()



EVENT   3
 PAGE   1
  281(0)
  If(6,-1,2)
   250(bytes(0x04,0x08,0x6f,0x3a,0x0c,0x52,0x50,0x47,0x3a,0x3a,0x53,0x45,0x08,0x3a,0x0a,0x40,0x6e,0x61,0x6d,0x65,0x49,0x22,0x09,0x4d,0x6f,0x76,0x65,0x06,0x3a,0x06,0x45,0x54,0x3a,0x0b,0x40,0x70,0x69,0x74,0x63,0x68,0x69,0x69,0x3a,0x0c,0x40,0x76,0x6f,0x6c,0x75,0x6d,0x65,0x69,0x55))
   TeleportPlayer(0,744,20,16,0,0)
   0()
  EndIf()
  0()



EVENT   4
 PAGE   1
  281(0)
  If(6,-1,2)
   250(bytes(0x04,0x08,0x6f,0x3a,0x0c,0x52,0x50,0x47,0x3a,0x3a,0x53,0x45,0x08,0x3a,0x0a,0x40,0x6e,0x61,0x6d,0x65,0x49,0x22,0x09,0x4d,0x6f,0x76,0x65,0x06,0x3a,0x06,0x45,0x54,0x3a,0x0b,0x40,0x70,0x69,0x74,0x63,0x68,0x69,0x69,0x3a,0x0c,0x40,0x76,0x6f,0x6c,0x75,0x6d,0x65,0x69,0x55))
   TeleportPlayer(0,744,20,16,0,0)
   0()
  EndIf()
  0()



EVENT   5
 PAGE   1
  ShowMessageFace("",0,0,2,1)
  ShowMessage("\\n<Cow>Moo~!")
  0()



EVENT   6
 PAGE   1
  // condition: switch 1202 is ON
  PictureDisplay(5,"80_bonny_st01",0,0,0,0,100,100,0,0)
  PictureMove(5,null,0,0,0,0,100,100,255,0,30,true)
  If(1,3202,0,100,1)
   If(1,4202,0,0,0)
    ChangeVariable(4202,4202,0,0,1)
    ShowMessageFace("bonny_fc1",1,0,2,1)
    ShowMessage("\\n<Bonnie (Affection:\\V[3202])>これをゲットしたぞ！")
    250(bytes(0x04,0x08,0x6f,0x3a,0x0c,0x52,0x50,0x47,0x3a,0x3a,0x53,0x45,0x08,0x3a,0x0a,0x40,0x6e,0x61,0x6d,0x65,0x49,0x22,0x0a,0x49,0x74,0x65,0x6d,0x31,0x06,0x3a,0x06,0x45,0x54,0x3a,0x0b,0x40,0x70,0x69,0x74,0x63,0x68,0x69,0x69,0x3a,0x0c,0x40,0x76,0x6f,0x6c,0x75,0x6d,0x65,0x69,0x55))
    ChangeInventoryArmor(1706,0,0,1,false)
    0()
   EndIf()
   0()
  EndIf()
  If(1,3202,0,500,1)
   If(1,4202,0,1,0)
    ChangeVariable(4202,4202,0,0,2)
    ShowMessageFace("bonny_fc1",1,0,2,2)
    ShowMessage("\\n<Bonnie (Affection:\\V[3202])>これをゲットしたぞ！")
    250(bytes(0x04,0x08,0x6f,0x3a,0x0c,0x52,0x50,0x47,0x3a,0x3a,0x53,0x45,0x08,0x3a,0x0a,0x40,0x6e,0x61,0x6d,0x65,0x49,0x22,0x0a,0x49,0x74,0x65,0x6d,0x31,0x06,0x3a,0x06,0x45,0x54,0x3a,0x0b,0x40,0x70,0x69,0x74,0x63,0x68,0x69,0x69,0x3a,0x0c,0x40,0x76,0x6f,0x6c,0x75,0x6d,0x65,0x69,0x55))
    ChangeInventoryArmor(1707,0,0,1,false)
    0()
   EndIf()
   0()
  EndIf()
  If(1,3202,0,2000,1)
   If(1,4202,0,2,0)
    ChangeVariable(4202,4202,0,0,3)
    ShowMessageFace("bonny_fc1",1,0,2,3)
    ShowMessage("\\n<Bonnie (Affection:\\V[3202])>これをゲットしたぞ！")
    250(bytes(0x04,0x08,0x6f,0x3a,0x0c,0x52,0x50,0x47,0x3a,0x3a,0x53,0x45,0x08,0x3a,0x0a,0x40,0x6e,0x61,0x6d,0x65,0x49,0x22,0x0a,0x49,0x74,0x65,0x6d,0x31,0x06,0x3a,0x06,0x45,0x54,0x3a,0x0b,0x40,0x70,0x69,0x74,0x63,0x68,0x69,0x69,0x3a,0x0c,0x40,0x76,0x6f,0x6c,0x75,0x6d,0x65,0x69,0x55))
    ChangeInventoryArmor(1161,0,0,1,false)
    0()
   EndIf()
   0()
  EndIf()
  If(1,3202,0,4000,1)
   If(1,4202,0,3,0)
    ChangeVariable(4202,4202,0,0,4)
    ShowMessageFace("bonny_fc1",1,0,2,4)
    ShowMessage("\\n<Bonnie (Affection:\\V[3202])>これをゲットしたぞ！")
    250(bytes(0x04,0x08,0x6f,0x3a,0x0c,0x52,0x50,0x47,0x3a,0x3a,0x53,0x45,0x08,0x3a,0x0a,0x40,0x6e,0x61,0x6d,0x65,0x49,0x22,0x0a,0x49,0x74,0x65,0x6d,0x31,0x06,0x3a,0x06,0x45,0x54,0x3a,0x0b,0x40,0x70,0x69,0x74,0x63,0x68,0x69,0x69,0x3a,0x0c,0x40,0x76,0x6f,0x6c,0x75,0x6d,0x65,0x69,0x55))
    ChangeInventoryArmor(1259,0,0,1,false)
    0()
   EndIf()
   0()
  EndIf()
  355("actor_label_jump")
  ShowMessageFace("bonny_fc1",1,0,2,5)
  ShowMessage("\\n<Bonnie (Affection:\\V[3202])>おさかな海賊団、行くぞっ！")
  ShowMessage("……行くんだよな？")
  JumpToLabel("メニュー")
  DefineLabel("53")
  ShowMessageFace("slime_fc1",0,0,2,6)
  ShowMessage("\\n<Lime (Affection:\\V[3053])>おかしら～！　よ～そろ～！")
  ShowMessageFace("bonny_fc1",1,0,2,7)
  ShowMessage("\\n<Bonnie (Affection:\\V[3202])>うむ、ライムはいつも気合いが入っているな！")
  ShowMessage("感心、感心！")
  ShowMessageFace("slime_fc1",0,0,2,8)
  ShowMessage("\\n<Lime (Affection:\\V[3053])>わ～い！")
  ShowMessageFace("bonny_fc1",1,0,2,9)
  ShowMessage("\\n<Bonnie (Affection:\\V[3202])>他の団員も、もっとあたしに敬意を払うべきだぞ。")
  ShowMessage("特に、あのガミガミ副団長が……")
  ShowMessageFace("ashel_fc1",0,0,2,10)
  ShowMessage("\\n<Ashel (Affection:\\V[3201])>お嬢……ガミガミ副団長って誰の事です？")
  ShowMessageFace("bonny_fc1",0,0,2,11)
  ShowMessage("\\n<Bonnie (Affection:\\V[3202])>わぁっ！　逃げろ～！")
  ShowMessageFace("slime_fc1",0,0,2,12)
  ShowMessage("\\n<Lime (Affection:\\V[3053])>にげろ～！")
  ShowMessageFace("ashel_fc1",1,0,2,13)
  ShowMessage("\\n<Ashel (Affection:\\V[3201])>やれやれ、まったく……")
  JumpToLabel("メニュー")
  DefineLabel("197")
  ShowMessageFace("k_mermaid_fc1",0,0,2,14)
  ShowMessage("\\n<ロリッタ (Affection:\\V[3197])>おかしら！　よーそろー！")
  ShowMessageFace("bonny_fc1",0,0,2,15)
  ShowMessage("\\n<Bonnie (Affection:\\V[3202])>うむ、おつとめご苦労！")
  ShowMessage("ところで、おやつの時間はまだか？")
  ShowMessageFace("k_mermaid_fc1",0,0,2,16)
  ShowMessage("\\n<ロリッタ (Affection:\\V[3197])>アシェルの姉御から伝言ね。")
  ShowMessage("「またつまみ食いしたから、おやつは抜き」だってさ。")
  ShowMessageFace("bonny_fc1",2,0,2,17)
  ShowMessage("\\n<Bonnie (Affection:\\V[3202])>うう～！")
  JumpToLabel("メニュー")
  DefineLabel("201")
  ShowMessageFace("ashel_fc1",0,0,2,18)
  ShowMessage("\\n<Ashel (Affection:\\V[3201])>お嬢……また、非常食を盗み食いしたでしょう？")
  ShowMessageFace("bonny_fc1",0,0,2,19)
  ShowMessage("\\n<Bonnie (Affection:\\V[3202])>あたしは知らん。")
  ShowMessage("ネズミの仕業ではないか……？")
  If(4,70,0)
   ShowMessageFace("nezumi_fc1",2,0,2,20)
   ShowMessage("\\n<Ratty>あたしじゃないよー！")
   0()
  EndIf()
  ShowMessageFace("ashel_fc1",0,0,2,21)
  ShowMessage("\\n<Ashel (Affection:\\V[3201])>そういうわけでお嬢、今日のおやつは抜きです。")
  ShowMessageFace("bonny_fc1",2,0,2,22)
  ShowMessage("\\n<Bonnie (Affection:\\V[3202])>ううー！！")
  JumpToLabel("メニュー")
  DefineLabel("203")
  ShowMessageFace("tatunoko_k_fc1",1,0,2,23)
  ShowMessage("\\n<Tatsuko (Affection:\\V[3203])>おさかな海賊団団長ボニー、逮捕するのです！")
  ShowMessageFace("bonny_fc1",0,0,2,24)
  ShowMessage("\\n<Bonnie (Affection:\\V[3202])>ここでは、我々は仲間ではないか……")
  ShowMessage("見逃してはくれんか？")
  ShowMessageFace("tatunoko_k_fc1",1,0,2,25)
  ShowMessage("\\n<Tatsuko (Affection:\\V[3203])>海兵には鉄の規律があるのです！")
  ShowMessage("手配犯を見逃す事はできないのです！")
  ShowMessageFace("bonny_fc1",0,0,2,26)
  ShowMessage("\\n<Bonnie (Affection:\\V[3202])>ほれ、めざしをやろう。")
  ShowMessageFace("tatunoko_k_fc1",1,0,2,27)
  ShowMessage("\\n<Tatsuko (Affection:\\V[3203])>我々は仲間なのです！")
  ShowMessage("組織を超えた絆で結ばれているのです！")
  JumpToLabel("メニュー")
  DefineLabel("205")
  ShowMessageFace("levia_fc1",0,0,2,28)
  ShowMessage("\\n<リヴィア (Affection:\\V[3205])>おさかな海賊団団長、ボニーか……")
  ShowMessageFace("bonny_fc1",0,0,2,29)
  ShowMessage("\\n<Bonnie (Affection:\\V[3202])>ぬおっ、海軍大将リヴァイアサン！")
  ShowMessage("まさか、あたしをここで逮捕しようというのか！？")
  ShowMessageFace("levia_fc1",0,0,2,30)
  ShowMessage("\\n<リヴィア (Affection:\\V[3205])>我々が直面している世界的危機に比べれば、お前など小物。")
  ShowMessage("少なくとも私達がルカの元にいる間は、見なかった事にしてやる。")
  ShowMessageFace("bonny_fc1",0,0,2,31)
  ShowMessage("\\n<Bonnie (Affection:\\V[3202])>見逃してくれるのは嬉しいが……")
  ShowMessage("小物と言われると、悔しいな……")
  JumpToLabel("メニュー")
  DefineLabel("372")
  ShowMessageFace("bonny_fc1",1,0,2,32)
  ShowMessage("\\n<Bonnie (Affection:\\V[3202])>伝説の海賊女王ロザ！")
  ShowMessage("あなたは、我が祖先にして憧れです！")
  ShowMessageFace("cirqueb_fc3",0,0,2,33)
  ShowMessage("\\n<ロザ (Affection:\\V[3372])>悪いけど……")
  ShowMessage("生きていた頃の事は、細かくは覚えていないの。")
  ShowMessageFace("bonny_fc1",1,0,2,34)
  ShowMessage("\\n<Bonnie (Affection:\\V[3202])>わくわく、どきどき……")
  ShowMessageFace("cirqueb_fc3",1,0,2,35)
  ShowMessage("\\n<ロザ (Affection:\\V[3372])>キラキラした目で見られても……")
  ShowMessage("困るわね……")
  JumpToLabel("メニュー")
  DefineLabel("536")
  ShowMessageFace("bonny_fc1",1,0,2,36)
  ShowMessage("\\n<Bonnie (Affection:\\V[3202])>おお、偉大なるキャプテン・セレーネ！")
  ShowMessage("団長としての心掛けを教えてもらいたいです！")
  ShowMessageFace("serene_fc1",4,0,2,37)
  ShowMessage("\\n<Selene (Affection:\\V[3536])>大切なのは……余裕と空元気ね。")
  ShowMessageFace("bonny_fc1",0,0,2,38)
  ShowMessage("\\n<Bonnie (Affection:\\V[3202])>余裕と空元気……！？")
  ShowMessage("どちらも得意技だけど、そんなんでいいのですか？")
  ShowMessageFace("serene_fc1",3,0,2,39)
  ShowMessage("\\n<Selene (Affection:\\V[3536])>武力も知恵も、あるに越した事はないけど……")
  ShowMessage("それがなくても、立派に団長を務めた者はいくらでもいるわ。")
  ShowMessageFace("serene_fc1",3,0,2,40)
  ShowMessage("\\n<Selene (Affection:\\V[3536])>でも、上に立つ者は余裕の態度が絶対に必要よ。")
  ShowMessage("これ無しには下はついて来ないわ。")
  ShowMessageFace("bonny_fc1",1,0,2,41)
  ShowMessage("\\n<Bonnie (Affection:\\V[3202])>なるほど……勉強になりました！")
  JumpToLabel("メニュー")
  DefineLabel("メニュー")
  StartLoop()
   355("unlimited_choices(11, [\"Give presents\",")
   655("\"Add to party\",")
   655("\"View present list\",\"Request\",")
   655("\"Never mind\"])")
   If(1,11,0,0,0)
    355("present_start(202)")
    0()
   EndIf()
   If(1,11,0,1,0)
    PictureClear(5)
    355("move_actor_ex(202)")
    EndEventProcessing()
    0()
   EndIf()
   If(1,11,0,2,0)
    ShowMessageFace("",0,0,2,42)
    ShowMessage("Affection       100:\\ia[1706]")
    ShowMessage("Affection       500:\\ia[1707]")
    ShowMessage("Affection     2000:\\ia[1161]")
    ShowMessage("Affection     4000:\\ia[1259]")
    0()
   EndIf()
   If(1,11,0,3,0)
    PictureClear(5)
    ShowMessageFace("",0,0,2,43)
    ShowMessage("Ask her for what? (Affection:\\V[3202])")
    ShowChoices(strings("Paizuri(Affection:10)","Reverse Rape(Affection:100)","Never mind"),3)
    IfPlayerPicksChoice(0,null)
     If(1,3202,0,10,1)
      355("call_novel_scene(4821)")
      EndEventProcessing()
      0()
     Else()
      ShowMessageFace("bonny_fc1",0,0,2,44)
      ShowMessage("\\n<Bonnie (Affection:\\V[3202])>それは、まだだ……")
      0()
     EndIf()
     0()
    IfPlayerPicksChoice(1,null)
     If(1,3202,0,100,1)
      355("call_novel_scene(4822)")
      EndEventProcessing()
      0()
     Else()
      ShowMessageFace("bonny_fc1",0,0,2,45)
      ShowMessage("\\n<Bonnie (Affection:\\V[3202])>それは、まだだ……")
      0()
     EndIf()
     0()
    IfPlayerPicksChoice(2,null)
     0()
    404()
    0()
   EndIf()
   If(1,11,0,4,1)
    PictureClear(5)
    EndEventProcessing()
    0()
   EndIf()
   0()
  EndLoop()
  0()
 PAGE   2
  // condition: party contains actor #202
  0()



EVENT   7
 PAGE   1
  281(0)
  250(bytes(0x04,0x08,0x6f,0x3a,0x0c,0x52,0x50,0x47,0x3a,0x3a,0x53,0x45,0x08,0x3a,0x0a,0x40,0x6e,0x61,0x6d,0x65,0x49,0x22,0x09,0x4d,0x6f,0x76,0x65,0x06,0x3a,0x06,0x45,0x54,0x3a,0x0b,0x40,0x70,0x69,0x74,0x63,0x68,0x69,0x69,0x3a,0x0c,0x40,0x76,0x6f,0x6c,0x75,0x6d,0x65,0x69,0x55))
  TeleportPlayer(0,724,7,43,0,0)
  0()



EVENT   8
 PAGE   1
  281(0)
  250(bytes(0x04,0x08,0x6f,0x3a,0x0c,0x52,0x50,0x47,0x3a,0x3a,0x53,0x45,0x08,0x3a,0x0a,0x40,0x6e,0x61,0x6d,0x65,0x49,0x22,0x09,0x4d,0x6f,0x76,0x65,0x06,0x3a,0x06,0x45,0x54,0x3a,0x0b,0x40,0x70,0x69,0x74,0x63,0x68,0x69,0x69,0x3a,0x0c,0x40,0x76,0x6f,0x6c,0x75,0x6d,0x65,0x69,0x55))
  TeleportPlayer(0,724,7,43,0,0)
  0()



EVENT   9
 PAGE   1
  // condition: switch 1201 is ON
  PictureDisplay(5,"80_ashel_st01",0,0,0,0,100,100,0,0)
  PictureMove(5,null,0,0,0,0,100,100,255,0,30,true)
  If(1,3201,0,100,1)
   If(1,4201,0,0,0)
    ChangeVariable(4201,4201,0,0,1)
    ShowMessageFace("ashel_fc1",1,0,2,1)
    ShowMessage("\\n<Ashel (Affection:\\V[3201])>ほら、今日の成果だよ！")
    250(bytes(0x04,0x08,0x6f,0x3a,0x0c,0x52,0x50,0x47,0x3a,0x3a,0x53,0x45,0x08,0x3a,0x0a,0x40,0x6e,0x61,0x6d,0x65,0x49,0x22,0x0a,0x49,0x74,0x65,0x6d,0x31,0x06,0x3a,0x06,0x45,0x54,0x3a,0x0b,0x40,0x70,0x69,0x74,0x63,0x68,0x69,0x69,0x3a,0x0c,0x40,0x76,0x6f,0x6c,0x75,0x6d,0x65,0x69,0x55))
    ChangeInventoryArmor(1171,0,0,1,false)
    0()
   EndIf()
   0()
  EndIf()
  If(1,3201,0,500,1)
   If(1,4201,0,1,0)
    ChangeVariable(4201,4201,0,0,2)
    ShowMessageFace("ashel_fc1",1,0,2,2)
    ShowMessage("\\n<Ashel (Affection:\\V[3201])>ほら、今日の成果だよ！")
    250(bytes(0x04,0x08,0x6f,0x3a,0x0c,0x52,0x50,0x47,0x3a,0x3a,0x53,0x45,0x08,0x3a,0x0a,0x40,0x6e,0x61,0x6d,0x65,0x49,0x22,0x0a,0x49,0x74,0x65,0x6d,0x31,0x06,0x3a,0x06,0x45,0x54,0x3a,0x0b,0x40,0x70,0x69,0x74,0x63,0x68,0x69,0x69,0x3a,0x0c,0x40,0x76,0x6f,0x6c,0x75,0x6d,0x65,0x69,0x55))
    ChangeInventoryArmor(1369,0,0,1,false)
    0()
   EndIf()
   0()
  EndIf()
  If(1,3201,0,2000,1)
   If(1,4201,0,2,0)
    ChangeVariable(4201,4201,0,0,3)
    ShowMessageFace("ashel_fc1",1,0,2,3)
    ShowMessage("\\n<Ashel (Affection:\\V[3201])>ほら、今日の成果だよ！")
    250(bytes(0x04,0x08,0x6f,0x3a,0x0c,0x52,0x50,0x47,0x3a,0x3a,0x53,0x45,0x08,0x3a,0x0a,0x40,0x6e,0x61,0x6d,0x65,0x49,0x22,0x0a,0x49,0x74,0x65,0x6d,0x31,0x06,0x3a,0x06,0x45,0x54,0x3a,0x0b,0x40,0x70,0x69,0x74,0x63,0x68,0x69,0x69,0x3a,0x0c,0x40,0x76,0x6f,0x6c,0x75,0x6d,0x65,0x69,0x55))
    ChangeInventoryArmor(1183,0,0,1,false)
    0()
   EndIf()
   0()
  EndIf()
  If(1,3201,0,4000,1)
   If(1,4201,0,3,0)
    ChangeVariable(4201,4201,0,0,4)
    ShowMessageFace("ashel_fc1",1,0,2,4)
    ShowMessage("\\n<Ashel (Affection:\\V[3201])>ほら、今日の成果だよ！")
    250(bytes(0x04,0x08,0x6f,0x3a,0x0c,0x52,0x50,0x47,0x3a,0x3a,0x53,0x45,0x08,0x3a,0x0a,0x40,0x6e,0x61,0x6d,0x65,0x49,0x22,0x0a,0x49,0x74,0x65,0x6d,0x31,0x06,0x3a,0x06,0x45,0x54,0x3a,0x0b,0x40,0x70,0x69,0x74,0x63,0x68,0x69,0x69,0x3a,0x0c,0x40,0x76,0x6f,0x6c,0x75,0x6d,0x65,0x69,0x55))
    ChangeInventoryArmor(1614,0,0,1,false)
    0()
   EndIf()
   0()
  EndIf()
  355("actor_label_jump")
  ShowMessageFace("ashel_fc1",1,0,2,5)
  ShowMessage("\\n<Ashel (Affection:\\V[3201])>稼ぎに行くかい？")
  ShowMessage("皿洗いも済んだ事だし、連れて行ってくれよ。")
  JumpToLabel("メニュー")
  DefineLabel("196")
  ShowMessageFace("s_mermaid_fc1",0,0,2,6)
  ShowMessage("\\n<ミンク (Affection:\\V[3196])>アシェルの姉御、調子はどうでっか？")
  ShowMessageFace("ashel_fc1",1,0,2,7)
  ShowMessage("\\n<Ashel (Affection:\\V[3201])>絶好調さ、おさかな号も大活躍だよ。")
  ShowMessage("いつもの取引に、カンヅメ150食分も追加しといてくれ。")
  ShowMessageFace("s_mermaid_fc1",1,0,2,8)
  ShowMessage("\\n<ミンク (Affection:\\V[3196])>毎度あり～！")
  ShowMessage("おさかな団さんが景気いいと、うちまで景気良くなりますわ。")
  ShowMessageFace("ashel_fc1",1,0,2,9)
  ShowMessage("\\n<Ashel (Affection:\\V[3201])>あと、砲弾60発と……団長用の浮き輪も頼むよ。")
  ShowMessageFace("s_mermaid_fc1",0,0,2,10)
  ShowMessage("\\n<ミンク (Affection:\\V[3196])>ボニー団長、まだ泳げるようにならんのでっか……")
  ShowMessage("こりゃ、浮き輪も定例の納入品になるな。")
  JumpToLabel("メニュー")
  DefineLabel("197")
  ShowMessageFace("k_mermaid_fc1",0,0,2,11)
  ShowMessage("\\n<ロリッタ (Affection:\\V[3197])>アシェルの姉御！")
  ShowMessage("航海長が呼んでたよ！")
  ShowMessageFace("ashel_fc1",0,0,2,12)
  ShowMessage("\\n<Ashel (Affection:\\V[3201])>ん……分かった、後で行くよ。")
  ShowMessageFace("k_mermaid_fc1",0,0,2,13)
  ShowMessage("\\n<ロリッタ (Affection:\\V[3197])>あと、操舵手と砲術長と作戦長と料理長と団長が呼んでたよ！")
  ShowMessageFace("ashel_fc1",2,0,2,14)
  ShowMessage("\\n<Ashel (Affection:\\V[3201])>まったく、忙しいね……")
  ShowMessage("体がいくつあっても、足りやしないよ。")
  JumpToLabel("メニュー")
  DefineLabel("202")
  ShowMessageFace("ashel_fc1",0,0,2,15)
  ShowMessage("\\n<Ashel (Affection:\\V[3201])>お嬢……また、非常食を盗み食いしたでしょう？")
  ShowMessageFace("bonny_fc1",0,0,2,16)
  ShowMessage("\\n<Bonnie (Affection:\\V[3202])>あたしは知らん。")
  ShowMessage("ネズミの仕業ではないか……？")
  If(4,70,0)
   ShowMessageFace("nezumi_fc1",2,0,2,17)
   ShowMessage("\\n<Ratty>あたしじゃないよー！")
   0()
  EndIf()
  ShowMessageFace("ashel_fc1",0,0,2,18)
  ShowMessage("\\n<Ashel (Affection:\\V[3201])>そういうわけでお嬢、今日のおやつは抜きです。")
  ShowMessageFace("bonny_fc1",2,0,2,19)
  ShowMessage("\\n<Bonnie (Affection:\\V[3202])>ううー！！")
  JumpToLabel("メニュー")
  DefineLabel("372")
  ShowMessageFace("ashel_fc1",0,0,2,20)
  ShowMessage("\\n<Ashel (Affection:\\V[3201])>海賊女王ロザ……")
  ShowMessage("こうしてお会いできて、光栄です。")
  ShowMessageFace("cirqueb_fc3",0,0,2,21)
  ShowMessage("\\n<ロザ (Affection:\\V[3372])>生きていた頃の事は、あまり覚えていないわ……")
  ShowMessage("あなたの主は、私の末裔なのよね？")
  ShowMessageFace("ashel_fc1",0,0,2,22)
  ShowMessage("\\n<Ashel (Affection:\\V[3201])>そういう血筋という話ですが……")
  ShowMessage("事実かどうかは、ちょっと何とも。")
  ShowMessageFace("cirqueb_fc3",0,0,2,23)
  ShowMessage("\\n<ロザ (Affection:\\V[3372])>まあ、血縁が重要なわけではないわ……")
  ShowMessage("あなたも分かっているでしょう。")
  JumpToLabel("メニュー")
  DefineLabel("536")
  ShowMessageFace("ashel_fc1",0,0,2,24)
  ShowMessage("\\n<Ashel (Affection:\\V[3201])>あなたが、伝説のキャプテン・セレーネ……")
  ShowMessage("どうか、海賊女王を育てる秘訣を教えてもらえませんか？")
  ShowMessageFace("serene_fc1",3,0,2,25)
  ShowMessage("\\n<Selene (Affection:\\V[3536])>そんな秘訣は、多分ないわね……")
  ShowMessage("資質と努力、そして当人の自覚次第よ。")
  ShowMessageFace("ashel_fc1",0,0,2,26)
  ShowMessage("\\n<Ashel (Affection:\\V[3201])>そうですか……")
  ShowMessageFace("serene_fc1",4,0,2,27)
  ShowMessage("\\n<Selene (Affection:\\V[3536])>面白みのない答えで、ごめんなさいね。")
  ShowMessage("でも、ボニーちゃんは確かに資質があるわよ。")
  ShowMessageFace("ashel_fc1",0,0,2,28)
  ShowMessage("\\n<Ashel (Affection:\\V[3201])>後は努力と自覚ですか……")
  ShowMessage("やれやれ、道のりは長そうですね。")
  JumpToLabel("メニュー")
  DefineLabel("メニュー")
  StartLoop()
   355("unlimited_choices(11, [\"Give presents\",")
   655("\"Add to party\",")
   655("\"View present list\",\"Request\",")
   655("\"Never mind\"])")
   If(1,11,0,0,0)
    355("present_start(201)")
    0()
   EndIf()
   If(1,11,0,1,0)
    PictureClear(5)
    355("move_actor_ex(201)")
    EndEventProcessing()
    0()
   EndIf()
   If(1,11,0,2,0)
    ShowMessageFace("",0,0,2,29)
    ShowMessage("Affection       100:\\ia[1171]")
    ShowMessage("Affection       500:\\ia[1369]")
    ShowMessage("Affection     2000:\\ia[1183]")
    ShowMessage("Affection     4000:\\ia[1614]")
    0()
   EndIf()
   If(1,11,0,3,0)
    PictureClear(5)
    ShowMessageFace("",0,0,2,30)
    ShowMessage("Ask her for what? (Affection:\\V[3201])")
    ShowChoices(strings("Paizuri(Affection:10)","Reverse Rape(Affection:100)","Never mind"),3)
    IfPlayerPicksChoice(0,null)
     If(1,3201,0,10,1)
      355("call_novel_scene(4816)")
      EndEventProcessing()
      0()
     Else()
      ShowMessageFace("ashel_fc1",0,0,2,31)
      ShowMessage("\\n<Ashel (Affection:\\V[3201])>そういうのは、また今度さ。")
      0()
     EndIf()
     0()
    IfPlayerPicksChoice(1,null)
     If(1,3201,0,100,1)
      355("call_novel_scene(4817)")
      EndEventProcessing()
      0()
     Else()
      ShowMessageFace("ashel_fc1",0,0,2,32)
      ShowMessage("\\n<Ashel (Affection:\\V[3201])>そういうのは、また今度さ。")
      0()
     EndIf()
     0()
    IfPlayerPicksChoice(2,null)
     0()
    404()
    0()
   EndIf()
   If(1,11,0,4,1)
    PictureClear(5)
    EndEventProcessing()
    0()
   EndIf()
   0()
  EndLoop()
  0()
 PAGE   2
  // condition: party contains actor #201
  0()



EVENT   10
 PAGE   1
  // condition: switch 1203 is ON
  PictureDisplay(5,"80_tatunoko_k_st01",0,0,0,0,100,100,0,0)
  PictureMove(5,null,0,0,0,0,100,100,255,0,30,true)
  If(1,3203,0,100,1)
   If(1,4203,0,0,0)
    ChangeVariable(4203,4203,0,0,1)
    ShowMessageFace("tatunoko_k_fc1",1,0,2,1)
    ShowMessage("\\n<Tatsuko (Affection:\\V[3203])>砂浜で拾ったのです！")
    250(bytes(0x04,0x08,0x6f,0x3a,0x0c,0x52,0x50,0x47,0x3a,0x3a,0x53,0x45,0x08,0x3a,0x0a,0x40,0x6e,0x61,0x6d,0x65,0x49,0x22,0x0a,0x49,0x74,0x65,0x6d,0x31,0x06,0x3a,0x06,0x45,0x54,0x3a,0x0b,0x40,0x70,0x69,0x74,0x63,0x68,0x69,0x69,0x3a,0x0c,0x40,0x76,0x6f,0x6c,0x75,0x6d,0x65,0x69,0x55))
    ChangeInventoryArmor(1147,0,0,1,false)
    0()
   EndIf()
   0()
  EndIf()
  If(1,3203,0,500,1)
   If(1,4203,0,1,0)
    ChangeVariable(4203,4203,0,0,2)
    ShowMessageFace("tatunoko_k_fc1",1,0,2,2)
    ShowMessage("\\n<Tatsuko (Affection:\\V[3203])>砂浜で拾ったのです！")
    250(bytes(0x04,0x08,0x6f,0x3a,0x0c,0x52,0x50,0x47,0x3a,0x3a,0x53,0x45,0x08,0x3a,0x0a,0x40,0x6e,0x61,0x6d,0x65,0x49,0x22,0x0a,0x49,0x74,0x65,0x6d,0x31,0x06,0x3a,0x06,0x45,0x54,0x3a,0x0b,0x40,0x70,0x69,0x74,0x63,0x68,0x69,0x69,0x3a,0x0c,0x40,0x76,0x6f,0x6c,0x75,0x6d,0x65,0x69,0x55))
    ChangeInventoryArmor(1249,0,0,1,false)
    0()
   EndIf()
   0()
  EndIf()
  If(1,3203,0,2000,1)
   If(1,4203,0,2,0)
    ChangeVariable(4203,4203,0,0,3)
    ShowMessageFace("tatunoko_k_fc1",1,0,2,3)
    ShowMessage("\\n<Tatsuko (Affection:\\V[3203])>砂浜で拾ったのです！")
    250(bytes(0x04,0x08,0x6f,0x3a,0x0c,0x52,0x50,0x47,0x3a,0x3a,0x53,0x45,0x08,0x3a,0x0a,0x40,0x6e,0x61,0x6d,0x65,0x49,0x22,0x0a,0x49,0x74,0x65,0x6d,0x31,0x06,0x3a,0x06,0x45,0x54,0x3a,0x0b,0x40,0x70,0x69,0x74,0x63,0x68,0x69,0x69,0x3a,0x0c,0x40,0x76,0x6f,0x6c,0x75,0x6d,0x65,0x69,0x55))
    ChangeInventoryArmor(1501,0,0,1,false)
    0()
   EndIf()
   0()
  EndIf()
  If(1,3203,0,4000,1)
   If(1,4203,0,3,0)
    ChangeVariable(4203,4203,0,0,4)
    ShowMessageFace("tatunoko_k_fc1",1,0,2,4)
    ShowMessage("\\n<Tatsuko (Affection:\\V[3203])>砂浜で拾ったのです！")
    250(bytes(0x04,0x08,0x6f,0x3a,0x0c,0x52,0x50,0x47,0x3a,0x3a,0x53,0x45,0x08,0x3a,0x0a,0x40,0x6e,0x61,0x6d,0x65,0x49,0x22,0x0a,0x49,0x74,0x65,0x6d,0x31,0x06,0x3a,0x06,0x45,0x54,0x3a,0x0b,0x40,0x70,0x69,0x74,0x63,0x68,0x69,0x69,0x3a,0x0c,0x40,0x76,0x6f,0x6c,0x75,0x6d,0x65,0x69,0x55))
    ChangeInventoryArmor(1217,0,0,1,false)
    0()
   EndIf()
   0()
  EndIf()
  355("actor_label_jump")
  ShowMessageFace("tatunoko_k_fc1",1,0,2,5)
  ShowMessage("\\n<Tatsuko (Affection:\\V[3203])>出動ですか？　がんばるのです！")
  JumpToLabel("メニュー")
  DefineLabel("68")
  ShowMessageFace("dragonp_fc1",0,0,2,6)
  ShowMessage("\\n<Papi (Affection:\\V[3068])>お前は、ちっちゃな海のドラゴンなのだな！")
  ShowMessage("あたしは、ちっちゃな陸のドラゴンなのだ！")
  ShowMessageFace("tatunoko_k_fc1",1,0,2,7)
  ShowMessage("\\n<Tatsuko (Affection:\\V[3203])>ドラゴン同士、契りを結ぶのです！")
  ShowMessage("一緒に、海軍で賊と戦いませんか？")
  ShowMessageFace("dragonp_fc1",6,0,2,8)
  ShowMessage("\\n<Papi (Affection:\\V[3068])>賊って……山賊も、賊に入るのか？")
  ShowMessageFace("tatunoko_k_fc1",1,0,2,9)
  ShowMessage("\\n<Tatsuko (Affection:\\V[3203])>もちろんです！")
  ShowMessageFace("dragonp_fc1",6,0,2,10)
  ShowMessage("\\n<Papi (Affection:\\V[3068])>むむっ、陸と海は相容れんのだぞ……")
  JumpToLabel("メニュー")
  DefineLabel("202")
  ShowMessageFace("tatunoko_k_fc1",1,0,2,11)
  ShowMessage("\\n<Tatsuko (Affection:\\V[3203])>おさかな海賊団団長ボニー、逮捕するのです！")
  ShowMessageFace("bonny_fc1",0,0,2,12)
  ShowMessage("\\n<Bonnie (Affection:\\V[3202])>ここでは、我々は仲間ではないか……")
  ShowMessage("見逃してはくれんか？")
  ShowMessageFace("tatunoko_k_fc1",1,0,2,13)
  ShowMessage("\\n<Tatsuko (Affection:\\V[3203])>海兵には鉄の規律があるのです！")
  ShowMessage("手配犯を見逃す事はできないのです！")
  ShowMessageFace("bonny_fc1",0,0,2,14)
  ShowMessage("\\n<Bonnie (Affection:\\V[3202])>ほれ、めざしをやろう。")
  ShowMessageFace("tatunoko_k_fc1",1,0,2,15)
  ShowMessage("\\n<Tatsuko (Affection:\\V[3203])>我々は仲間なのです！")
  ShowMessage("組織を超えた絆で結ばれているのです！")
  JumpToLabel("メニュー")
  DefineLabel("203")
  ShowMessageFace("dragonp_fc1",0,0,2,16)
  ShowMessage("\\n<Papi (Affection:\\V[3068])>お前は、ちっちゃな海のドラゴンなのだな！")
  ShowMessage("あたしは、ちっちゃな陸のドラゴンなのだ！")
  ShowMessageFace("tatunoko_k_fc1",1,0,2,17)
  ShowMessage("\\n<Tatsuko (Affection:\\V[3203])>ドラゴン同士、契りを結ぶのです！")
  ShowMessage("一緒に、海軍で賊と戦いませんか？")
  ShowMessageFace("dragonp_fc1",6,0,2,18)
  ShowMessage("\\n<Papi (Affection:\\V[3068])>賊って……山賊も、賊に入るのか？")
  ShowMessageFace("tatunoko_k_fc1",1,0,2,19)
  ShowMessage("\\n<Tatsuko (Affection:\\V[3203])>もちろんです！")
  ShowMessageFace("dragonp_fc1",6,0,2,20)
  ShowMessage("\\n<Papi (Affection:\\V[3068])>むむっ、陸と海は相容れんのだぞ……")
  JumpToLabel("メニュー")
  DefineLabel("204")
  ShowMessageFace("umiusi_k_fc1",0,0,2,21)
  ShowMessage("\\n<Stacy (Affection:\\V[3204])>たつこちゃん、がんばってますか？")
  ShowMessageFace("tatunoko_k_fc1",0,0,2,22)
  ShowMessage("\\n<Tatsuko (Affection:\\V[3203])>上官殿！　ちゃんと働いているのです！")
  ShowMessageFace("umiusi_k_fc1",1,0,2,23)
  ShowMessage("\\n<Stacy (Affection:\\V[3204])>いい子ですね……")
  ShowMessage("はい、ご褒美にめざしをあげましょう。")
  ShowMessageFace("tatunoko_k_fc1",1,0,2,24)
  ShowMessage("\\n<Tatsuko (Affection:\\V[3203])>わ～い！　これだから、軍隊暮らしはやめられないのです！")
  If(0,6,0)
   ShowMessageFace("sonia_fc4",0,0,2,25)
   ShowMessage("\\n<Sonya>それ、軍隊暮らしって言うの……？")
   0()
  EndIf()
  JumpToLabel("メニュー")
  DefineLabel("205")
  ShowMessageFace("tatunoko_k_fc1",1,0,2,26)
  ShowMessage("\\n<Tatsuko (Affection:\\V[3203])>大将殿！　お疲れ様なのです！")
  ShowMessageFace("levia_fc1",0,0,2,27)
  ShowMessage("\\n<リヴィア (Affection:\\V[3205])>うむ……えっと、お前は確か……")
  ShowMessageFace("tatunoko_k_fc1",1,0,2,28)
  ShowMessage("\\n<Tatsuko (Affection:\\V[3203])>お忘れですか、大将殿？")
  ShowMessage("あたしは、たつこなのです！")
  ShowMessageFace("levia_fc1",0,0,2,29)
  ShowMessage("\\n<リヴィア (Affection:\\V[3205])>（たつこという名の海兵も、200人以上……")
  ShowMessage("　おまけに、みんな同じ顔……どう覚えろというのだ）")
  JumpToLabel("メニュー")
  DefineLabel("308")
  ShowMessageFace("tatunoko_k_fc1",1,0,2,30)
  ShowMessage("\\n<Tatsuko (Affection:\\V[3203])>海のドラゴンなのです！")
  ShowMessage("格好良いのです！")
  ShowMessageFace("suiryu_fc1",1,0,2,31)
  ShowMessage("\\n<みお (Affection:\\V[3308])>くくく、龍の子か……")
  ShowMessage("海龍たる我を崇めるが良い。")
  ShowMessageFace("tatunoko_k_fc1",0,0,2,32)
  ShowMessage("\\n<Tatsuko (Affection:\\V[3203])>そんなに、年は変わりませんよね？")
  ShowMessageFace("suiryu_fc1",0,0,2,33)
  ShowMessage("\\n<みお (Affection:\\V[3308])>……バレた？")
  JumpToLabel("メニュー")
  DefineLabel("メニュー")
  StartLoop()
   355("unlimited_choices(11, [\"Give presents\",")
   655("\"Add to party\",")
   655("\"View present list\",\"Request\",")
   655("\"Never mind\"])")
   If(1,11,0,0,0)
    355("present_start(203)")
    0()
   EndIf()
   If(1,11,0,1,0)
    PictureClear(5)
    355("move_actor_ex(203)")
    EndEventProcessing()
    0()
   EndIf()
   If(1,11,0,2,0)
    ShowMessageFace("",0,0,2,34)
    ShowMessage("Affection       100:\\ia[1147]")
    ShowMessage("Affection       500:\\ia[1249]")
    ShowMessage("Affection     2000:\\ia[1501]")
    ShowMessage("Affection     4000:\\ia[1217]")
    0()
   EndIf()
   If(1,11,0,3,0)
    PictureClear(5)
    ShowMessageFace("",0,0,2,35)
    ShowMessage("Ask her for what? (Affection:\\V[3203])")
    ShowChoices(strings("Paizuri(Affection:10)","Reverse Rape(Affection:100)","Never mind"),3)
    IfPlayerPicksChoice(0,null)
     If(1,3203,0,10,1)
      355("call_novel_scene(4826)")
      EndEventProcessing()
      0()
     Else()
      ShowMessageFace("tatunoko_k_fc1",2,0,2,36)
      ShowMessage("\\n<Tatsuko (Affection:\\V[3203])>むにゅ～。")
      0()
     EndIf()
     0()
    IfPlayerPicksChoice(1,null)
     If(1,3203,0,100,1)
      355("call_novel_scene(4827)")
      EndEventProcessing()
      0()
     Else()
      ShowMessageFace("tatunoko_k_fc1",2,0,2,37)
      ShowMessage("\\n<Tatsuko (Affection:\\V[3203])>むにゅ～。")
      0()
     EndIf()
     0()
    IfPlayerPicksChoice(2,null)
     0()
    404()
    0()
   EndIf()
   If(1,11,0,4,1)
    PictureClear(5)
    EndEventProcessing()
    0()
   EndIf()
   0()
  EndLoop()
  0()
 PAGE   2
  // condition: party contains actor #203
  0()



EVENT   11
 PAGE   1
  // condition: switch 1204 is ON
  PictureDisplay(5,"80_umiusi_k_st01",0,0,0,0,100,100,0,0)
  PictureMove(5,null,0,0,0,0,100,100,255,0,30,true)
  If(1,3204,0,100,1)
   If(1,4204,0,0,0)
    ChangeVariable(4204,4204,0,0,1)
    ShowMessageFace("umiusi_k_fc1",1,0,2,1)
    ShowMessage("\\n<Stacy (Affection:\\V[3204])>今月の給料で、買ったんですよ♪")
    250(bytes(0x04,0x08,0x6f,0x3a,0x0c,0x52,0x50,0x47,0x3a,0x3a,0x53,0x45,0x08,0x3a,0x0a,0x40,0x6e,0x61,0x6d,0x65,0x49,0x22,0x0a,0x49,0x74,0x65,0x6d,0x31,0x06,0x3a,0x06,0x45,0x54,0x3a,0x0b,0x40,0x70,0x69,0x74,0x63,0x68,0x69,0x69,0x3a,0x0c,0x40,0x76,0x6f,0x6c,0x75,0x6d,0x65,0x69,0x55))
    ChangeInventoryArmor(1011,0,0,1,false)
    0()
   EndIf()
   0()
  EndIf()
  If(1,3204,0,500,1)
   If(1,4204,0,1,0)
    ChangeVariable(4204,4204,0,0,2)
    ShowMessageFace("umiusi_k_fc1",1,0,2,2)
    ShowMessage("\\n<Stacy (Affection:\\V[3204])>今月の給料で、買ったんですよ♪")
    250(bytes(0x04,0x08,0x6f,0x3a,0x0c,0x52,0x50,0x47,0x3a,0x3a,0x53,0x45,0x08,0x3a,0x0a,0x40,0x6e,0x61,0x6d,0x65,0x49,0x22,0x0a,0x49,0x74,0x65,0x6d,0x31,0x06,0x3a,0x06,0x45,0x54,0x3a,0x0b,0x40,0x70,0x69,0x74,0x63,0x68,0x69,0x69,0x3a,0x0c,0x40,0x76,0x6f,0x6c,0x75,0x6d,0x65,0x69,0x55))
    ChangeInventoryArmor(1564,0,0,1,false)
    0()
   EndIf()
   0()
  EndIf()
  If(1,3204,0,2000,1)
   If(1,4204,0,2,0)
    ChangeVariable(4204,4204,0,0,3)
    ShowMessageFace("umiusi_k_fc1",1,0,2,3)
    ShowMessage("\\n<Stacy (Affection:\\V[3204])>今月の給料で、買ったんですよ♪")
    250(bytes(0x04,0x08,0x6f,0x3a,0x0c,0x52,0x50,0x47,0x3a,0x3a,0x53,0x45,0x08,0x3a,0x0a,0x40,0x6e,0x61,0x6d,0x65,0x49,0x22,0x0a,0x49,0x74,0x65,0x6d,0x31,0x06,0x3a,0x06,0x45,0x54,0x3a,0x0b,0x40,0x70,0x69,0x74,0x63,0x68,0x69,0x69,0x3a,0x0c,0x40,0x76,0x6f,0x6c,0x75,0x6d,0x65,0x69,0x55))
    ChangeInventoryArmor(1207,0,0,1,false)
    0()
   EndIf()
   0()
  EndIf()
  If(1,3204,0,4000,1)
   If(1,4204,0,3,0)
    ChangeVariable(4204,4204,0,0,4)
    ShowMessageFace("umiusi_k_fc1",1,0,2,4)
    ShowMessage("\\n<Stacy (Affection:\\V[3204])>今月の給料で、買ったんですよ♪")
    250(bytes(0x04,0x08,0x6f,0x3a,0x0c,0x52,0x50,0x47,0x3a,0x3a,0x53,0x45,0x08,0x3a,0x0a,0x40,0x6e,0x61,0x6d,0x65,0x49,0x22,0x0a,0x49,0x74,0x65,0x6d,0x31,0x06,0x3a,0x06,0x45,0x54,0x3a,0x0b,0x40,0x70,0x69,0x74,0x63,0x68,0x69,0x69,0x3a,0x0c,0x40,0x76,0x6f,0x6c,0x75,0x6d,0x65,0x69,0x55))
    ChangeInventoryArmor(1593,0,0,1,false)
    0()
   EndIf()
   0()
  EndIf()
  355("actor_label_jump")
  ShowMessageFace("umiusi_k_fc1",0,0,2,5)
  ShowMessage("\\n<Stacy (Affection:\\V[3204])>うみうしは、海の牛ではありませんよ～♪")
  ShowMessage("……たぶん。")
  JumpToLabel("メニュー")
  DefineLabel("203")
  ShowMessageFace("umiusi_k_fc1",0,0,2,6)
  ShowMessage("\\n<Stacy (Affection:\\V[3204])>たつこちゃん、がんばってますか？")
  ShowMessageFace("tatunoko_k_fc1",0,0,2,7)
  ShowMessage("\\n<Tatsuko (Affection:\\V[3203])>上官殿！　ちゃんと働いているのです！")
  ShowMessageFace("umiusi_k_fc1",1,0,2,8)
  ShowMessage("\\n<Stacy (Affection:\\V[3204])>いい子ですね……")
  ShowMessage("はい、ご褒美にめざしをあげましょう。")
  ShowMessageFace("tatunoko_k_fc1",1,0,2,9)
  ShowMessage("\\n<Tatsuko (Affection:\\V[3203])>わ～い！　これだから、軍隊暮らしはやめられないのです！")
  If(0,6,0)
   ShowMessageFace("sonia_fc4",0,0,2,10)
   ShowMessage("\\n<Sonya>それ、軍隊暮らしって言うの……？")
   0()
  EndIf()
  JumpToLabel("メニュー")
  DefineLabel("205")
  ShowMessageFace("levia_fc1",0,0,2,11)
  ShowMessage("\\n<リヴィア (Affection:\\V[3205])>ウミウシ海兵、トワナ号の臨検報告はどうなった？")
  ShowMessage("報告書が出ていないようだが……")
  ShowMessageFace("umiusi_k_fc1",1,0,2,12)
  ShowMessage("\\n<Stacy (Affection:\\V[3204])>ああ、あの報告書ですか？")
  ShowMessage("粘液でヌルヌルになったから、捨てちゃいました♪")
  ShowMessageFace("levia_fc1",0,0,2,13)
  ShowMessage("\\n<リヴィア (Affection:\\V[3205])>ヌルヌルになったなら仕方ないな……")
  ShowMessage("さて、今月分の報酬であるメザシをやろう。")
  ShowMessageFace("umiusi_k_fc1",0,0,2,14)
  ShowMessage("\\n<Stacy (Affection:\\V[3204])>大将殿……あたしはたつのこちゃんではないですよ。")
  ShowMessage("メザシではなく、給料をもらいたいんですけど。")
  If(0,6,0)
   ShowMessageFace("sonia_fc4",0,0,2,15)
   ShowMessage("\\n<Sonya>こんなので、海の治安は大丈夫なの……？")
   0()
  EndIf()
  JumpToLabel("メニュー")
  DefineLabel("274")
  ShowMessageFace("hitode_fc1",0,0,2,16)
  ShowMessage("\\n<アスタ (Affection:\\V[3274])>このサンゴ、おいしいわね……むしゃむしゃ。")
  ShowMessageFace("umiusi_k_fc1",0,0,2,17)
  ShowMessage("\\n<Stacy (Affection:\\V[3204])>ちょっと、そこのヒトデさん！")
  ShowMessage("そのサンゴは保護種なので、捕食は禁じられていますよ！")
  ShowMessageFace("hitode_fc1",2,0,2,18)
  ShowMessage("\\n<アスタ (Affection:\\V[3274])>もう、面倒くさいわね……")
  ShowMessage("なんでこんな場所にまで、海兵がいるのよ。")
  ShowMessageFace("umiusi_k_fc1",0,0,2,19)
  ShowMessage("\\n<Stacy (Affection:\\V[3204])>海軍の目は、いかなるところにも光っているのです！")
  JumpToLabel("メニュー")
  DefineLabel("メニュー")
  StartLoop()
   355("unlimited_choices(11, [\"Give presents\",")
   655("\"Add to party\",")
   655("\"View present list\",\"Request\",")
   655("\"Never mind\"])")
   If(1,11,0,0,0)
    355("present_start(204)")
    0()
   EndIf()
   If(1,11,0,1,0)
    PictureClear(5)
    355("move_actor_ex(204)")
    EndEventProcessing()
    0()
   EndIf()
   If(1,11,0,2,0)
    ShowMessageFace("",0,0,2,20)
    ShowMessage("Affection       100:\\ia[1011]")
    ShowMessage("Affection       500:\\ia[1564]")
    ShowMessage("Affection     2000:\\ia[1207]")
    ShowMessage("Affection     4000:\\ia[1593]")
    0()
   EndIf()
   If(1,11,0,3,0)
    PictureClear(5)
    ShowMessageFace("",0,0,2,21)
    ShowMessage("Ask her for what? (Affection:\\V[3204])")
    ShowChoices(strings("軟体コキ(Affection:10)","Reverse Rape(Affection:100)","Never mind"),3)
    IfPlayerPicksChoice(0,null)
     If(1,3204,0,10,1)
      355("call_novel_scene(4831)")
      EndEventProcessing()
      0()
     Else()
      ShowMessageFace("umiusi_k_fc1",0,0,2,22)
      ShowMessage("\\n<Stacy (Affection:\\V[3204])>今度にしませんか……？")
      0()
     EndIf()
     0()
    IfPlayerPicksChoice(1,null)
     If(1,3204,0,100,1)
      355("call_novel_scene(4832)")
      EndEventProcessing()
      0()
     Else()
      ShowMessageFace("umiusi_k_fc1",0,0,2,23)
      ShowMessage("\\n<Stacy (Affection:\\V[3204])>今度にしませんか……？")
      0()
     EndIf()
     0()
    IfPlayerPicksChoice(2,null)
     0()
    404()
    0()
   EndIf()
   If(1,11,0,4,1)
    PictureClear(5)
    EndEventProcessing()
    0()
   EndIf()
   0()
  EndLoop()
  0()
 PAGE   2
  // condition: party contains actor #204
  0()



EVENT   12
 PAGE   1
  // condition: switch 1252 is ON
  PictureDisplay(5,"80_scylla_st01",0,0,0,0,100,100,0,0)
  PictureMove(5,null,0,0,0,0,100,100,255,0,30,true)
  If(1,3252,0,100,1)
   If(1,4252,0,0,0)
    ChangeVariable(4252,4252,0,0,1)
    ShowMessageFace("scylla_fc1",0,0,2,1)
    ShowMessage("\\n<キューラ (Affection:\\V[3252])>はいどうぞ、受け取りなさい。")
    250(bytes(0x04,0x08,0x6f,0x3a,0x0c,0x52,0x50,0x47,0x3a,0x3a,0x53,0x45,0x08,0x3a,0x0a,0x40,0x6e,0x61,0x6d,0x65,0x49,0x22,0x0a,0x49,0x74,0x65,0x6d,0x31,0x06,0x3a,0x06,0x45,0x54,0x3a,0x0b,0x40,0x70,0x69,0x74,0x63,0x68,0x69,0x69,0x3a,0x0c,0x40,0x76,0x6f,0x6c,0x75,0x6d,0x65,0x69,0x55))
    ChangeInventoryArmor(1041,0,0,1,false)
    0()
   EndIf()
   0()
  EndIf()
  If(1,3252,0,500,1)
   If(1,4252,0,1,0)
    ChangeVariable(4252,4252,0,0,2)
    ShowMessageFace("scylla_fc1",0,0,2,2)
    ShowMessage("\\n<キューラ (Affection:\\V[3252])>はいどうぞ、受け取りなさい。")
    250(bytes(0x04,0x08,0x6f,0x3a,0x0c,0x52,0x50,0x47,0x3a,0x3a,0x53,0x45,0x08,0x3a,0x0a,0x40,0x6e,0x61,0x6d,0x65,0x49,0x22,0x0a,0x49,0x74,0x65,0x6d,0x31,0x06,0x3a,0x06,0x45,0x54,0x3a,0x0b,0x40,0x70,0x69,0x74,0x63,0x68,0x69,0x69,0x3a,0x0c,0x40,0x76,0x6f,0x6c,0x75,0x6d,0x65,0x69,0x55))
    ChangeInventoryArmor(1384,0,0,1,false)
    0()
   EndIf()
   0()
  EndIf()
  If(1,3252,0,2000,1)
   If(1,4252,0,2,0)
    ChangeVariable(4252,4252,0,0,3)
    ShowMessageFace("scylla_fc1",0,0,2,3)
    ShowMessage("\\n<キューラ (Affection:\\V[3252])>はいどうぞ、受け取りなさい。")
    250(bytes(0x04,0x08,0x6f,0x3a,0x0c,0x52,0x50,0x47,0x3a,0x3a,0x53,0x45,0x08,0x3a,0x0a,0x40,0x6e,0x61,0x6d,0x65,0x49,0x22,0x0a,0x49,0x74,0x65,0x6d,0x31,0x06,0x3a,0x06,0x45,0x54,0x3a,0x0b,0x40,0x70,0x69,0x74,0x63,0x68,0x69,0x69,0x3a,0x0c,0x40,0x76,0x6f,0x6c,0x75,0x6d,0x65,0x69,0x55))
    ChangeInventoryArmor(1043,0,0,1,false)
    0()
   EndIf()
   0()
  EndIf()
  If(1,3252,0,4000,1)
   If(1,4252,0,3,0)
    ChangeVariable(4252,4252,0,0,4)
    ShowMessageFace("scylla_fc1",0,0,2,4)
    ShowMessage("\\n<キューラ (Affection:\\V[3252])>はいどうぞ、受け取りなさい。")
    250(bytes(0x04,0x08,0x6f,0x3a,0x0c,0x52,0x50,0x47,0x3a,0x3a,0x53,0x45,0x08,0x3a,0x0a,0x40,0x6e,0x61,0x6d,0x65,0x49,0x22,0x0a,0x49,0x74,0x65,0x6d,0x31,0x06,0x3a,0x06,0x45,0x54,0x3a,0x0b,0x40,0x70,0x69,0x74,0x63,0x68,0x69,0x69,0x3a,0x0c,0x40,0x76,0x6f,0x6c,0x75,0x6d,0x65,0x69,0x55))
    ChangeInventoryArmor(1223,0,0,1,false)
    0()
   EndIf()
   0()
  EndIf()
  355("actor_label_jump")
  ShowMessageFace("scylla_fc1",0,0,2,5)
  ShowMessage("\\n<キューラ (Affection:\\V[3252])>触手が退屈よ……")
  ShowMessage("ねぇ、何か楽しい事はないの？")
  JumpToLabel("メニュー")
  DefineLabel("113")
  ShowMessageFace("lamia_fc1",2,0,2,6)
  ShowMessage("\\n<アナスタシア (Affection:\\V[3113])>スキュラは嫌いよ……")
  ShowMessageFace("scylla_fc1",2,0,2,7)
  ShowMessage("\\n<キューラ (Affection:\\V[3252])>ラミアなんて、最悪ね……")
  ShowMessageFace("lamia_fc1",2,0,2,8)
  ShowMessage("\\n<アナスタシア (Affection:\\V[3113])>にゅるにゅるしていて、気持ち悪いわ……")
  ShowMessageFace("scylla_fc1",2,0,2,9)
  ShowMessage("\\n<キューラ (Affection:\\V[3252])>あんたこそ、にゅるにゅるしてて不気味ね……")
  JumpToLabel("メニュー")
  DefineLabel("193")
  ShowMessageFace("scylla_fc1",2,0,2,10)
  ShowMessage("\\n<キューラ (Affection:\\V[3252])>下半身から、オオカミが生えてるじゃない……")
  ShowMessage("あなた、変わったスキュラね。")
  ShowMessageFace("u_scylla_fc1",0,0,2,11)
  ShowMessage("\\n<フリル (Affection:\\V[3193])>スキュラは元々、こういう魔物だったんだって。")
  ShowMessage("私の種族は、オリジナルのスキュラに近いのよ。")
  ShowMessageFace("scylla_fc1",2,0,2,12)
  ShowMessage("\\n<キューラ (Affection:\\V[3252])>そのオオカミ……あなたの触手をかじってるわよ……？")
  ShowMessageFace("u_scylla_fc1",0,0,2,13)
  ShowMessage("\\n<フリル (Affection:\\V[3193])>ああ、これ？")
  ShowMessage("お腹が減ると、触手を食べるのよ。")
  ShowMessageFace("scylla_fc1",2,0,2,14)
  ShowMessage("\\n<キューラ (Affection:\\V[3252])>ありえないわ……")
  JumpToLabel("メニュー")
  DefineLabel("199")
  ShowMessageFace("dagon_fc1",0,0,2,15)
  ShowMessage("\\n<セラフィ (Affection:\\V[3199])>タコです！")
  ShowMessageFace("scylla_fc1",2,0,2,16)
  ShowMessage("\\n<キューラ (Affection:\\V[3252])>私は、イカじゃないわよ……")
  ShowMessageFace("dagon_fc1",0,0,2,17)
  ShowMessage("\\n<セラフィ (Affection:\\V[3199])>なぜ素直に認めないんですかぁ……？")
  ShowMessageFace("scylla_fc1",2,0,2,18)
  ShowMessage("\\n<キューラ (Affection:\\V[3252])>だから、イカじゃないって言ってるでしょ！")
  JumpToLabel("メニュー")
  DefineLabel("279")
  ShowMessageFace("scylla_fc1",0,0,2,19)
  ShowMessage("\\n<キューラ (Affection:\\V[3252])>あなたは、海棲タイプのスキュラなのね。")
  ShowMessageFace("e_scylla_fc1",0,0,2,20)
  ShowMessage("\\n<オーマ (Affection:\\V[3279])>そうよ……")
  ShowMessage("深海をこの触手で泳ぐの。")
  ShowMessageFace("scylla_fc1",0,0,2,21)
  ShowMessage("\\n<キューラ (Affection:\\V[3252])>でも、イカじゃないわね……")
  ShowMessageFace("e_scylla_fc1",0,0,2,22)
  ShowMessage("\\n<オーマ (Affection:\\V[3279])>ええ、イカじゃないわね……")
  ShowMessageFace("sonia_fc4",0,0,2,23)
  ShowMessage("\\n<Sonya>スキュラって、イカじゃないのにこだわるわね……")
  JumpToLabel("メニュー")
  DefineLabel("メニュー")
  StartLoop()
   355("unlimited_choices(11, [\"Give presents\",")
   655("\"Add to party\",")
   655("\"View present list\",\"Request\",")
   655("\"Never mind\"])")
   If(1,11,0,0,0)
    355("present_start(252)")
    0()
   EndIf()
   If(1,11,0,1,0)
    PictureClear(5)
    355("move_actor_ex(252)")
    EndEventProcessing()
    0()
   EndIf()
   If(1,11,0,2,0)
    ShowMessageFace("",0,0,2,24)
    ShowMessage("Affection       100:\\ia[1041]")
    ShowMessage("Affection       500:\\ia[1384]")
    ShowMessage("Affection     2000:\\ia[1043]")
    ShowMessage("Affection     4000:\\ia[1223]")
    0()
   EndIf()
   If(1,11,0,3,0)
    PictureClear(5)
    ShowMessageFace("",0,0,2,25)
    ShowMessage("Ask her for what? (Affection:\\V[3252])")
    ShowChoices(strings("Reverse Rape(Affection:10)","Never mind"),2)
    IfPlayerPicksChoice(0,null)
     If(1,3252,0,10,1)
      355("call_novel_scene(5071)")
      EndEventProcessing()
      0()
     Else()
      ShowMessageFace("scylla_fc1",0,0,2,26)
      ShowMessage("\\n<キューラ (Affection:\\V[3252])>もう少し、おあずけよ……")
      0()
     EndIf()
     0()
    IfPlayerPicksChoice(1,null)
     0()
    404()
    0()
   EndIf()
   If(1,11,0,4,1)
    PictureClear(5)
    EndEventProcessing()
    0()
   EndIf()
   0()
  EndLoop()
  0()
 PAGE   2
  // condition: party contains actor #252
  0()



EVENT   13
 PAGE   1
  // condition: switch 1253 is ON
  PictureDisplay(5,"80_medusa_st01",0,0,0,0,100,100,0,0)
  PictureMove(5,null,0,0,0,0,100,100,255,0,30,true)
  If(1,3253,0,100,1)
   If(1,4253,0,0,0)
    ChangeVariable(4253,4253,0,0,1)
    ShowMessageFace("medusa_fc1",1,0,2,1)
    ShowMessage("\\n<デューサ (Affection:\\V[3253])>蛇達が、拾ってきたわ……")
    250(bytes(0x04,0x08,0x6f,0x3a,0x0c,0x52,0x50,0x47,0x3a,0x3a,0x53,0x45,0x08,0x3a,0x0a,0x40,0x6e,0x61,0x6d,0x65,0x49,0x22,0x0a,0x49,0x74,0x65,0x6d,0x31,0x06,0x3a,0x06,0x45,0x54,0x3a,0x0b,0x40,0x70,0x69,0x74,0x63,0x68,0x69,0x69,0x3a,0x0c,0x40,0x76,0x6f,0x6c,0x75,0x6d,0x65,0x69,0x55))
    ChangeInventoryArmor(1026,0,0,1,false)
    0()
   EndIf()
   0()
  EndIf()
  If(1,3253,0,500,1)
   If(1,4253,0,1,0)
    ChangeVariable(4253,4253,0,0,2)
    ShowMessageFace("medusa_fc1",1,0,2,2)
    ShowMessage("\\n<デューサ (Affection:\\V[3253])>蛇達が、拾ってきたわ……")
    250(bytes(0x04,0x08,0x6f,0x3a,0x0c,0x52,0x50,0x47,0x3a,0x3a,0x53,0x45,0x08,0x3a,0x0a,0x40,0x6e,0x61,0x6d,0x65,0x49,0x22,0x0a,0x49,0x74,0x65,0x6d,0x31,0x06,0x3a,0x06,0x45,0x54,0x3a,0x0b,0x40,0x70,0x69,0x74,0x63,0x68,0x69,0x69,0x3a,0x0c,0x40,0x76,0x6f,0x6c,0x75,0x6d,0x65,0x69,0x55))
    ChangeInventoryArmor(1381,0,0,1,false)
    0()
   EndIf()
   0()
  EndIf()
  If(1,3253,0,2000,1)
   If(1,4253,0,2,0)
    ChangeVariable(4253,4253,0,0,3)
    ShowMessageFace("medusa_fc1",1,0,2,3)
    ShowMessage("\\n<デューサ (Affection:\\V[3253])>蛇達が、拾ってきたわ……")
    250(bytes(0x04,0x08,0x6f,0x3a,0x0c,0x52,0x50,0x47,0x3a,0x3a,0x53,0x45,0x08,0x3a,0x0a,0x40,0x6e,0x61,0x6d,0x65,0x49,0x22,0x0a,0x49,0x74,0x65,0x6d,0x31,0x06,0x3a,0x06,0x45,0x54,0x3a,0x0b,0x40,0x70,0x69,0x74,0x63,0x68,0x69,0x69,0x3a,0x0c,0x40,0x76,0x6f,0x6c,0x75,0x6d,0x65,0x69,0x55))
    ChangeInventoryArmor(1473,0,0,1,false)
    0()
   EndIf()
   0()
  EndIf()
  If(1,3253,0,4000,1)
   If(1,4253,0,3,0)
    ChangeVariable(4253,4253,0,0,4)
    ShowMessageFace("medusa_fc1",1,0,2,4)
    ShowMessage("\\n<デューサ (Affection:\\V[3253])>蛇達が、拾ってきたわ……")
    250(bytes(0x04,0x08,0x6f,0x3a,0x0c,0x52,0x50,0x47,0x3a,0x3a,0x53,0x45,0x08,0x3a,0x0a,0x40,0x6e,0x61,0x6d,0x65,0x49,0x22,0x0a,0x49,0x74,0x65,0x6d,0x31,0x06,0x3a,0x06,0x45,0x54,0x3a,0x0b,0x40,0x70,0x69,0x74,0x63,0x68,0x69,0x69,0x3a,0x0c,0x40,0x76,0x6f,0x6c,0x75,0x6d,0x65,0x69,0x55))
    ChangeInventoryArmor(1575,0,0,1,false)
    0()
   EndIf()
   0()
  EndIf()
  355("actor_label_jump")
  ShowMessageFace("medusa_fc1",0,0,2,5)
  ShowMessage("\\n<デューサ (Affection:\\V[3253])>頭の蛇が、また一匹迷子になったわ……")
  ShowMessage("またネズミ採りを仕掛けなくちゃ。")
  JumpToLabel("メニュー")
  DefineLabel("214")
  ShowMessageFace("medusa_fc1",0,0,2,6)
  ShowMessage("\\n<デューサ (Affection:\\V[3253])>あなたは、ラミアかメデューサか分からないわね……")
  ShowMessageFace("nureonnna_fc1",0,0,2,7)
  ShowMessage("\\n<白波 (Affection:\\V[3214])>濡れ女……妖怪の一種よ。")
  ShowMessage("濡れているけど、いちおうラミアかしら？")
  ShowMessageFace("medusa_fc1",1,0,2,8)
  ShowMessage("\\n<デューサ (Affection:\\V[3253])>濡れ女……いやらしい名前ね。")
  ShowMessageFace("nureonnna_fc1",0,0,2,9)
  ShowMessage("\\n<白波 (Affection:\\V[3214])>ふふっ……私の蛇も、いやらしいわよ。")
  JumpToLabel("メニュー")
  DefineLabel("297")
  ShowMessageFace("medusa_fc1",1,0,2,10)
  ShowMessage("\\n<デューサ (Affection:\\V[3253])>あなたも、獲物を石にするのが好きと見たわ……")
  ShowMessageFace("basilisk_fc1",0,0,2,11)
  ShowMessage("\\n<バージリン (Affection:\\V[3297])>いかにもその通りだ、メデューサよ。")
  ShowMessageFace("medusa_fc1",0,0,2,12)
  ShowMessage("\\n<デューサ (Affection:\\V[3253])>私もそうなのよ……")
  ShowMessage("……えっと、ニワトリ娘？")
  ShowMessageFace("basilisk_fc1",0,0,2,13)
  ShowMessage("\\n<バージリン (Affection:\\V[3297])>バジリスクだ！　コケーッ！！")
  JumpToLabel("メニュー")
  DefineLabel("345")
  ShowMessageFace("medusa_fc1",1,0,2,14)
  ShowMessage("\\n<デューサ (Affection:\\V[3253])>お互い、蛇の世話は大変よね……")
  ShowMessageFace("zyakotuonna_fc1",0,0,2,15)
  ShowMessage("\\n<蛇骨殿 (Affection:\\V[3345])>お主の蛇は小さいが、数が多いな……")
  ShowMessage("餌は少なく済んでも、世話が大変だろう。")
  ShowMessageFace("medusa_fc1",0,0,2,16)
  ShowMessage("\\n<デューサ (Affection:\\V[3253])>ええ、確かに……")
  ShowMessage("こら蛇！　ケンカしないの！")
  ShowMessageFace("zyakotuonna_fc1",0,0,2,17)
  ShowMessage("\\n<蛇骨殿 (Affection:\\V[3345])>おうおう、我が蛇まで荒ぶって……")
  ShowMessage("やはり、蛇同士は相性が悪いと見える。")
  JumpToLabel("メニュー")
  DefineLabel("メニュー")
  StartLoop()
   355("unlimited_choices(11, [\"Give presents\",")
   655("\"Add to party\",")
   655("\"View present list\",\"Request\",")
   655("\"Never mind\"])")
   If(1,11,0,0,0)
    355("present_start(253)")
    0()
   EndIf()
   If(1,11,0,1,0)
    PictureClear(5)
    355("move_actor_ex(253)")
    EndEventProcessing()
    0()
   EndIf()
   If(1,11,0,2,0)
    ShowMessageFace("",0,0,2,18)
    ShowMessage("Affection       100:\\ia[1026]")
    ShowMessage("Affection       500:\\ia[1381]")
    ShowMessage("Affection     2000:\\ia[1473]")
    ShowMessage("Affection     4000:\\ia[1575]")
    0()
   EndIf()
   If(1,11,0,3,0)
    PictureClear(5)
    ShowMessageFace("",0,0,2,19)
    ShowMessage("Ask her for what? (Affection:\\V[3253])")
    ShowChoices(strings("Lewd Snake's Hair(Affection:10)","Never mind"),2)
    IfPlayerPicksChoice(0,null)
     If(1,3253,0,10,1)
      355("call_novel_scene(5076)")
      EndEventProcessing()
      0()
     Else()
      ShowMessageFace("medusa_fc1",0,0,2,20)
      ShowMessage("\\n<デューサ (Affection:\\V[3253])>仲良くないじゃない……")
      0()
     EndIf()
     0()
    IfPlayerPicksChoice(1,null)
     0()
    404()
    0()
   EndIf()
   If(1,11,0,4,1)
    PictureClear(5)
    EndEventProcessing()
    0()
   EndIf()
   0()
  EndLoop()
  0()
 PAGE   2
  // condition: party contains actor #253
  0()



EVENT   14
 PAGE   1
  // condition: switch 1258 is ON
  PictureDisplay(5,"80_fakejelly_st01",0,0,0,0,100,100,0,0)
  PictureMove(5,null,0,0,0,0,100,100,255,0,30,true)
  If(1,3258,0,100,1)
   If(1,4258,0,0,0)
    ChangeVariable(4258,4258,0,0,1)
    ShowMessageFace("fakejelly_fc1",0,0,2,1)
    ShowMessage("\\n<アルネ (Affection:\\V[3258])>はい、どうぞ♪")
    250(bytes(0x04,0x08,0x6f,0x3a,0x0c,0x52,0x50,0x47,0x3a,0x3a,0x53,0x45,0x08,0x3a,0x0a,0x40,0x6e,0x61,0x6d,0x65,0x49,0x22,0x0a,0x49,0x74,0x65,0x6d,0x31,0x06,0x3a,0x06,0x45,0x54,0x3a,0x0b,0x40,0x70,0x69,0x74,0x63,0x68,0x69,0x69,0x3a,0x0c,0x40,0x76,0x6f,0x6c,0x75,0x6d,0x65,0x69,0x55))
    ChangeInventoryArmor(1735,0,0,1,false)
    0()
   EndIf()
   0()
  EndIf()
  If(1,3258,0,500,1)
   If(1,4258,0,1,0)
    ChangeVariable(4258,4258,0,0,2)
    ShowMessageFace("fakejelly_fc1",0,0,2,2)
    ShowMessage("\\n<アルネ (Affection:\\V[3258])>はい、どうぞ♪")
    250(bytes(0x04,0x08,0x6f,0x3a,0x0c,0x52,0x50,0x47,0x3a,0x3a,0x53,0x45,0x08,0x3a,0x0a,0x40,0x6e,0x61,0x6d,0x65,0x49,0x22,0x0a,0x49,0x74,0x65,0x6d,0x31,0x06,0x3a,0x06,0x45,0x54,0x3a,0x0b,0x40,0x70,0x69,0x74,0x63,0x68,0x69,0x69,0x3a,0x0c,0x40,0x76,0x6f,0x6c,0x75,0x6d,0x65,0x69,0x55))
    ChangeInventoryArmor(1558,0,0,1,false)
    0()
   EndIf()
   0()
  EndIf()
  If(1,3258,0,2000,1)
   If(1,4258,0,2,0)
    ChangeVariable(4258,4258,0,0,3)
    ShowMessageFace("fakejelly_fc1",0,0,2,3)
    ShowMessage("\\n<アルネ (Affection:\\V[3258])>はい、どうぞ♪")
    250(bytes(0x04,0x08,0x6f,0x3a,0x0c,0x52,0x50,0x47,0x3a,0x3a,0x53,0x45,0x08,0x3a,0x0a,0x40,0x6e,0x61,0x6d,0x65,0x49,0x22,0x0a,0x49,0x74,0x65,0x6d,0x31,0x06,0x3a,0x06,0x45,0x54,0x3a,0x0b,0x40,0x70,0x69,0x74,0x63,0x68,0x69,0x69,0x3a,0x0c,0x40,0x76,0x6f,0x6c,0x75,0x6d,0x65,0x69,0x55))
    ChangeInventoryArmor(1437,0,0,1,false)
    0()
   EndIf()
   0()
  EndIf()
  If(1,3258,0,4000,1)
   If(1,4258,0,3,0)
    ChangeVariable(4258,4258,0,0,4)
    ShowMessageFace("fakejelly_fc1",0,0,2,4)
    ShowMessage("\\n<アルネ (Affection:\\V[3258])>はい、どうぞ♪")
    250(bytes(0x04,0x08,0x6f,0x3a,0x0c,0x52,0x50,0x47,0x3a,0x3a,0x53,0x45,0x08,0x3a,0x0a,0x40,0x6e,0x61,0x6d,0x65,0x49,0x22,0x0a,0x49,0x74,0x65,0x6d,0x31,0x06,0x3a,0x06,0x45,0x54,0x3a,0x0b,0x40,0x70,0x69,0x74,0x63,0x68,0x69,0x69,0x3a,0x0c,0x40,0x76,0x6f,0x6c,0x75,0x6d,0x65,0x69,0x55))
    ChangeInventoryArmor(1250,0,0,1,false)
    0()
   EndIf()
   0()
  EndIf()
  355("actor_label_jump")
  ShowMessageFace("fakejelly_fc1",0,0,2,5)
  ShowMessage("\\n<アルネ (Affection:\\V[3258])>町に行きたいです。")
  ShowMessage("人間に化けてるから、大丈夫ですよね。")
  JumpToLabel("メニュー")
  DefineLabel("115")
  ShowMessageFace("kurage_fc1",0,0,2,6)
  ShowMessage("\\n<くらげ (Affection:\\V[3115])>くらげ、ゆらゆら……")
  ShowMessageFace("fakejelly_fc1",0,0,2,7)
  ShowMessage("\\n<アルネ (Affection:\\V[3258])>あっ、仲間ですね！")
  ShowMessage("あたしもくらげです♪")
  ShowMessageFace("kurage_fc1",0,0,2,8)
  ShowMessage("\\n<くらげ (Affection:\\V[3115])>くらげ……？")
  ShowMessage("でも、似てないね……")
  ShowMessageFace("fakejelly_fc1",0,0,2,9)
  ShowMessage("\\n<アルネ (Affection:\\V[3258])>あたし、人間に擬態してますから……")
  ShowMessage("でも、体はぷるんぷるんですよ♪")
  JumpToLabel("メニュー")
  DefineLabel("199")
  ShowMessageFace("dagon_fc1",0,0,2,10)
  ShowMessage("\\n<セラフィ (Affection:\\V[3199])>ふらふら～。")
  ShowMessage("私、人魚に化けてるんですよ。")
  ShowMessageFace("fakejelly_fc1",0,0,2,11)
  ShowMessage("\\n<アルネ (Affection:\\V[3258])>私も、人間に化けているんです。")
  ShowMessage("お互い、変装が得意なんですね……")
  ShowMessageFace("dagon_fc1",0,0,2,12)
  ShowMessage("\\n<セラフィ (Affection:\\V[3199])>（でも、体が透けてちゃバレバレですよね……）")
  ShowMessageFace("fakejelly_fc1",0,0,2,13)
  ShowMessage("\\n<アルネ (Affection:\\V[3258])>（人魚に見えないし、騙される人はいないんじゃ……）")
  JumpToLabel("メニュー")
  DefineLabel("278")
  ShowMessageFace("arkjelly_fc1",0,0,2,14)
  ShowMessage("\\n<サマンサ (Affection:\\V[3278])>くらげ、ふらふら……")
  ShowMessageFace("fakejelly_fc1",0,0,2,15)
  ShowMessage("\\n<アルネ (Affection:\\V[3258])>あっ、仲間ですね！")
  ShowMessage("あたしもくらげです♪")
  ShowMessageFace("arkjelly_fc1",0,0,2,16)
  ShowMessage("\\n<サマンサ (Affection:\\V[3278])>くらげなのに、服を着てる……")
  ShowMessage("窮屈じゃない……？")
  ShowMessageFace("fakejelly_fc1",0,0,2,17)
  ShowMessage("\\n<アルネ (Affection:\\V[3258])>ちょっと窮屈だけど、オシャレは好きですよ♪")
  JumpToLabel("メニュー")
  DefineLabel("メニュー")
  StartLoop()
   355("unlimited_choices(11, [\"Give presents\",")
   655("\"Add to party\",")
   655("\"View present list\",\"Request\",")
   655("\"Never mind\"])")
   If(1,11,0,0,0)
    355("present_start(258)")
    0()
   EndIf()
   If(1,11,0,1,0)
    PictureClear(5)
    355("move_actor_ex(258)")
    EndEventProcessing()
    0()
   EndIf()
   If(1,11,0,2,0)
    ShowMessageFace("",0,0,2,18)
    ShowMessage("Affection       100:\\ia[1735]")
    ShowMessage("Affection       500:\\ia[1558]")
    ShowMessage("Affection     2000:\\ia[1437]")
    ShowMessage("Affection     4000:\\ia[1250]")
    0()
   EndIf()
   If(1,11,0,3,0)
    PictureClear(5)
    ShowMessageFace("",0,0,2,19)
    ShowMessage("Ask her for what? (Affection:\\V[3258])")
    ShowChoices(strings("軟体搾精腔(Affection:10)","Never mind"),2)
    IfPlayerPicksChoice(0,null)
     If(1,3258,0,10,1)
      355("call_novel_scene(5101)")
      EndEventProcessing()
      0()
     Else()
      ShowMessageFace("fakejelly_fc1",0,0,2,20)
      ShowMessage("\\n<アルネ (Affection:\\V[3258])>今日は用事がありますので……")
      0()
     EndIf()
     0()
    IfPlayerPicksChoice(1,null)
     0()
    404()
    0()
   EndIf()
   If(1,11,0,4,1)
    PictureClear(5)
    EndEventProcessing()
    0()
   EndIf()
   0()
  EndLoop()
  0()
 PAGE   2
  // condition: party contains actor #258
  0()



EVENT   15
 PAGE   1
  // condition: switch 1284 is ON
  PictureDisplay(5,"80_minccubus_st21",0,0,0,0,100,100,0,0)
  PictureMove(5,null,0,0,0,0,100,100,255,0,30,true)
  If(1,3284,0,100,1)
   If(1,4284,0,0,0)
    ChangeVariable(4284,4284,0,0,1)
    ShowMessageFace("minccubus_fc1",1,0,2,1)
    ShowMessage("\\n<セーラ (Affection:\\V[3284])>これ、あげるねっ♪")
    250(bytes(0x04,0x08,0x6f,0x3a,0x0c,0x52,0x50,0x47,0x3a,0x3a,0x53,0x45,0x08,0x3a,0x0a,0x40,0x6e,0x61,0x6d,0x65,0x49,0x22,0x0a,0x49,0x74,0x65,0x6d,0x31,0x06,0x3a,0x06,0x45,0x54,0x3a,0x0b,0x40,0x70,0x69,0x74,0x63,0x68,0x69,0x69,0x3a,0x0c,0x40,0x76,0x6f,0x6c,0x75,0x6d,0x65,0x69,0x55))
    ChangeInventoryArmor(1061,0,0,1,false)
    0()
   EndIf()
   0()
  EndIf()
  If(1,3284,0,500,1)
   If(1,4284,0,1,0)
    ChangeVariable(4284,4284,0,0,2)
    ShowMessageFace("minccubus_fc1",1,0,2,2)
    ShowMessage("\\n<セーラ (Affection:\\V[3284])>これ、あげるねっ♪")
    250(bytes(0x04,0x08,0x6f,0x3a,0x0c,0x52,0x50,0x47,0x3a,0x3a,0x53,0x45,0x08,0x3a,0x0a,0x40,0x6e,0x61,0x6d,0x65,0x49,0x22,0x0a,0x49,0x74,0x65,0x6d,0x31,0x06,0x3a,0x06,0x45,0x54,0x3a,0x0b,0x40,0x70,0x69,0x74,0x63,0x68,0x69,0x69,0x3a,0x0c,0x40,0x76,0x6f,0x6c,0x75,0x6d,0x65,0x69,0x55))
    ChangeInventoryArmor(1348,0,0,1,false)
    0()
   EndIf()
   0()
  EndIf()
  If(1,3284,0,2000,1)
   If(1,4284,0,2,0)
    ChangeVariable(4284,4284,0,0,3)
    ShowMessageFace("minccubus_fc1",1,0,2,3)
    ShowMessage("\\n<セーラ (Affection:\\V[3284])>これ、あげるねっ♪")
    250(bytes(0x04,0x08,0x6f,0x3a,0x0c,0x52,0x50,0x47,0x3a,0x3a,0x53,0x45,0x08,0x3a,0x0a,0x40,0x6e,0x61,0x6d,0x65,0x49,0x22,0x0a,0x49,0x74,0x65,0x6d,0x31,0x06,0x3a,0x06,0x45,0x54,0x3a,0x0b,0x40,0x70,0x69,0x74,0x63,0x68,0x69,0x69,0x3a,0x0c,0x40,0x76,0x6f,0x6c,0x75,0x6d,0x65,0x69,0x55))
    ChangeInventoryArmor(1008,0,0,1,false)
    0()
   EndIf()
   0()
  EndIf()
  If(1,3284,0,4000,1)
   If(1,4284,0,3,0)
    ChangeVariable(4284,4284,0,0,4)
    ShowMessageFace("minccubus_fc1",1,0,2,4)
    ShowMessage("\\n<セーラ (Affection:\\V[3284])>これ、あげるねっ♪")
    250(bytes(0x04,0x08,0x6f,0x3a,0x0c,0x52,0x50,0x47,0x3a,0x3a,0x53,0x45,0x08,0x3a,0x0a,0x40,0x6e,0x61,0x6d,0x65,0x49,0x22,0x0a,0x49,0x74,0x65,0x6d,0x31,0x06,0x3a,0x06,0x45,0x54,0x3a,0x0b,0x40,0x70,0x69,0x74,0x63,0x68,0x69,0x69,0x3a,0x0c,0x40,0x76,0x6f,0x6c,0x75,0x6d,0x65,0x69,0x55))
    ChangeInventoryArmor(1583,0,0,1,false)
    0()
   EndIf()
   0()
  EndIf()
  355("actor_label_jump")
  ShowMessageFace("minccubus_fc1",1,0,2,5)
  ShowMessage("\\n<セーラ (Affection:\\V[3284])>町に遊びに行きたいな～♪")
  ShowMessage("服着なきゃ、ダメだよね……？")
  JumpToLabel("メニュー")
  DefineLabel("249")
  ShowMessageFace("minccubus_fc1",1,0,2,6)
  ShowMessage("\\n<セーラ (Affection:\\V[3284])>アリさんだ！　一緒に遊ぼうよ♪")
  ShowMessageFace("ant_fc1",0,0,2,7)
  ShowMessage("\\n<アント (Affection:\\V[3249])>仕事デ忙シイ……マタ今度。")
  ShowMessageFace("minccubus_fc1",1,0,2,8)
  ShowMessage("\\n<セーラ (Affection:\\V[3284])>アリさんは、働き者だなぁ……")
  ShowMessage("……あたしも、牧場の手伝いしよっと。")
  JumpToLabel("メニュー")
  DefineLabel("285")
  ShowMessageFace("minccubus_fc1",2,0,2,9)
  ShowMessage("\\n<セーラ (Affection:\\V[3284])>おねぇちゃ～ん！")
  ShowMessage("今日もいっぱい、ミルク搾ったよっ♪")
  ShowMessageFace("renccubus_fc1",2,0,2,10)
  ShowMessage("\\n<ニーナ (Affection:\\V[3285])>あたしも、たくさんミルク搾りをしました。")
  ShowMessage("今日もどっぷりですよ……")
  ShowMessageFace("minccubus_fc1",2,0,2,11)
  ShowMessage("\\n<セーラ (Affection:\\V[3284])>姉妹ふれあい牧場、当分安泰だねっ♪")
  ShowMessageFace("renccubus_fc1",3,0,2,12)
  ShowMessage("\\n<ニーナ (Affection:\\V[3285])>大牧場も夢じゃないですね、ふふふっ……")
  JumpToLabel("メニュー")
  DefineLabel("287")
  ShowMessageFace("succubus_fc1",0,0,2,13)
  ShowMessage("\\n<サキュバス (Affection:\\V[3287])>はい、イモをどうぞ……")
  ShowMessageFace("minccubus_fc1",3,0,2,14)
  ShowMessage("\\n<セーラ (Affection:\\V[3284])>ワーイ！　アタシ、オイモダイスキー！")
  ShowMessageFace("succubus_fc1",1,0,2,15)
  ShowMessage("\\n<サキュバス (Affection:\\V[3287])>うふふっ、おかわりもありますよ……")
  ShowMessageFace("minccubus_fc1",3,0,2,16)
  ShowMessage("\\n<セーラ (Affection:\\V[3284])>○×△□◇※☆◇！！")
  JumpToLabel("メニュー")
  DefineLabel("メニュー")
  StartLoop()
   355("unlimited_choices(11, [\"Give presents\",")
   655("\"Add to party\",")
   655("\"View present list\",\"Request\",")
   655("\"Never mind\"])")
   If(1,11,0,0,0)
    355("present_start(284)")
    0()
   EndIf()
   If(1,11,0,1,0)
    PictureClear(5)
    355("move_actor_ex(284)")
    EndEventProcessing()
    0()
   EndIf()
   If(1,11,0,2,0)
    ShowMessageFace("",0,0,2,17)
    ShowMessage("Affection       100:\\ia[1061]")
    ShowMessage("Affection       500:\\ia[1348]")
    ShowMessage("Affection     2000:\\ia[1008]")
    ShowMessage("Affection     4000:\\ia[1583]")
    0()
   EndIf()
   If(1,11,0,3,0)
    PictureClear(5)
    ShowMessageFace("",0,0,2,18)
    ShowMessage("Ask her for what? (Affection:\\V[3284])")
    355("unlimited_choices(12,")
    655(" [\"Sock Stroke(Affection:10)\",")
    655("\"Panty Stroke(Affection:30)\",")
    655("\"Silky Hairjob(Affection:50)\",")
    655("\"Wet Blowjob(Affection:100)\",")
    655("\"Never mind\"])")
    If(1,12,0,0,0)
     If(1,3284,0,10,1)
      355("call_novel_scene(5231)")
      EndEventProcessing()
      0()
     Else()
      ShowMessageFace("minccubus_fc1",1,0,2,19)
      ShowMessage("\\n<セーラ (Affection:\\V[3284])>あたしが大きくなってからね♪")
      0()
     EndIf()
     0()
    EndIf()
    If(1,12,0,1,0)
     If(1,3284,0,30,1)
      355("call_novel_scene(5232)")
      EndEventProcessing()
      0()
     Else()
      ShowMessageFace("minccubus_fc1",1,0,2,20)
      ShowMessage("\\n<セーラ (Affection:\\V[3284])>あたしが大きくなってからね♪")
      0()
     EndIf()
     0()
    EndIf()
    If(1,12,0,2,0)
     If(1,3284,0,50,1)
      355("call_novel_scene(5233)")
      EndEventProcessing()
      0()
     Else()
      ShowMessageFace("minccubus_fc1",1,0,2,21)
      ShowMessage("\\n<セーラ (Affection:\\V[3284])>あたしが大きくなってからね♪")
      0()
     EndIf()
     0()
    EndIf()
    If(1,12,0,3,0)
     If(1,3284,0,100,1)
      355("call_novel_scene(5234)")
      EndEventProcessing()
      0()
     Else()
      ShowMessageFace("minccubus_fc1",1,0,2,22)
      ShowMessage("\\n<セーラ (Affection:\\V[3284])>あたしが大きくなってからね♪")
      0()
     EndIf()
     0()
    EndIf()
    0()
   EndIf()
   If(1,11,0,4,1)
    PictureClear(5)
    EndEventProcessing()
    0()
   EndIf()
   0()
  EndLoop()
  0()
 PAGE   2
  // condition: party contains actor #284
  0()



EVENT   16
 PAGE   1
  // condition: switch 1285 is ON
  PictureDisplay(5,"80_renccubus_st21",0,0,0,0,100,100,0,0)
  PictureMove(5,null,0,0,0,0,100,100,255,0,30,true)
  If(1,3285,0,100,1)
   If(1,4285,0,0,0)
    ChangeVariable(4285,4285,0,0,1)
    ShowMessageFace("renccubus_fc1",1,0,2,1)
    ShowMessage("\\n<ニーナ (Affection:\\V[3285])>これ、使って下さい。")
    250(bytes(0x04,0x08,0x6f,0x3a,0x0c,0x52,0x50,0x47,0x3a,0x3a,0x53,0x45,0x08,0x3a,0x0a,0x40,0x6e,0x61,0x6d,0x65,0x49,0x22,0x0a,0x49,0x74,0x65,0x6d,0x31,0x06,0x3a,0x06,0x45,0x54,0x3a,0x0b,0x40,0x70,0x69,0x74,0x63,0x68,0x69,0x69,0x3a,0x0c,0x40,0x76,0x6f,0x6c,0x75,0x6d,0x65,0x69,0x55))
    ChangeInventoryArmor(1113,0,0,1,false)
    0()
   EndIf()
   0()
  EndIf()
  If(1,3285,0,500,1)
   If(1,4285,0,1,0)
    ChangeVariable(4285,4285,0,0,2)
    ShowMessageFace("renccubus_fc1",1,0,2,2)
    ShowMessage("\\n<ニーナ (Affection:\\V[3285])>これ、使って下さい。")
    250(bytes(0x04,0x08,0x6f,0x3a,0x0c,0x52,0x50,0x47,0x3a,0x3a,0x53,0x45,0x08,0x3a,0x0a,0x40,0x6e,0x61,0x6d,0x65,0x49,0x22,0x0a,0x49,0x74,0x65,0x6d,0x31,0x06,0x3a,0x06,0x45,0x54,0x3a,0x0b,0x40,0x70,0x69,0x74,0x63,0x68,0x69,0x69,0x3a,0x0c,0x40,0x76,0x6f,0x6c,0x75,0x6d,0x65,0x69,0x55))
    ChangeInventoryArmor(1582,0,0,1,false)
    0()
   EndIf()
   0()
  EndIf()
  If(1,3285,0,2000,1)
   If(1,4285,0,2,0)
    ChangeVariable(4285,4285,0,0,3)
    ShowMessageFace("renccubus_fc1",1,0,2,3)
    ShowMessage("\\n<ニーナ (Affection:\\V[3285])>これ、使って下さい。")
    250(bytes(0x04,0x08,0x6f,0x3a,0x0c,0x52,0x50,0x47,0x3a,0x3a,0x53,0x45,0x08,0x3a,0x0a,0x40,0x6e,0x61,0x6d,0x65,0x49,0x22,0x0a,0x49,0x74,0x65,0x6d,0x31,0x06,0x3a,0x06,0x45,0x54,0x3a,0x0b,0x40,0x70,0x69,0x74,0x63,0x68,0x69,0x69,0x3a,0x0c,0x40,0x76,0x6f,0x6c,0x75,0x6d,0x65,0x69,0x55))
    ChangeInventoryArmor(1434,0,0,1,false)
    0()
   EndIf()
   0()
  EndIf()
  If(1,3285,0,4000,1)
   If(1,4285,0,3,0)
    ChangeVariable(4285,4285,0,0,4)
    ShowMessageFace("renccubus_fc1",1,0,2,4)
    ShowMessage("\\n<ニーナ (Affection:\\V[3285])>これ、使って下さい。")
    250(bytes(0x04,0x08,0x6f,0x3a,0x0c,0x52,0x50,0x47,0x3a,0x3a,0x53,0x45,0x08,0x3a,0x0a,0x40,0x6e,0x61,0x6d,0x65,0x49,0x22,0x0a,0x49,0x74,0x65,0x6d,0x31,0x06,0x3a,0x06,0x45,0x54,0x3a,0x0b,0x40,0x70,0x69,0x74,0x63,0x68,0x69,0x69,0x3a,0x0c,0x40,0x76,0x6f,0x6c,0x75,0x6d,0x65,0x69,0x55))
    ChangeInventoryArmor(1048,0,0,1,false)
    0()
   EndIf()
   0()
  EndIf()
  355("actor_label_jump")
  ShowMessageFace("renccubus_fc1",1,0,2,5)
  ShowMessage("\\n<ニーナ (Affection:\\V[3285])>このお城でも、牧場を開きたいな……")
  ShowMessage("牛かヒトを飼ってもいいですよね？")
  JumpToLabel("メニュー")
  DefineLabel("284")
  ShowMessageFace("minccubus_fc1",2,0,2,6)
  ShowMessage("\\n<セーラ (Affection:\\V[3284])>おねぇちゃ～ん！")
  ShowMessage("今日もいっぱい、ミルク搾ったよっ♪")
  ShowMessageFace("renccubus_fc1",2,0,2,7)
  ShowMessage("\\n<ニーナ (Affection:\\V[3285])>あたしも、たくさんミルク搾りをしました。")
  ShowMessage("今日もどっぷりですよ……")
  ShowMessageFace("minccubus_fc1",2,0,2,8)
  ShowMessage("\\n<セーラ (Affection:\\V[3284])>姉妹ふれあい牧場、当分安泰だねっ♪")
  ShowMessageFace("renccubus_fc1",3,0,2,9)
  ShowMessage("\\n<ニーナ (Affection:\\V[3285])>大牧場も夢じゃないですね、ふふふっ……")
  JumpToLabel("メニュー")
  DefineLabel("285")
  ShowMessageFace("succubus_fc1",0,0,2,10)
  ShowMessage("\\n<サキュバス (Affection:\\V[3287])>はい、イモをどうぞ……")
  ShowMessageFace("renccubus_fc1",4,0,2,11)
  ShowMessage("\\n<ニーナ (Affection:\\V[3285])>その……たまには、他のものも食べたいと思いません？")
  ShowMessageFace("succubus_fc1",0,0,2,12)
  ShowMessage("\\n<サキュバス (Affection:\\V[3287])>イモは美味しくて、栄養があるのですよ。")
  ShowMessageFace("renccubus_fc1",4,0,2,13)
  ShowMessage("\\n<ニーナ (Affection:\\V[3285])>はぅぅ……")
  ShowMessage("これさえなければ、良い村長さんなのに……")
  JumpToLabel("メニュー")
  DefineLabel("287")
  ShowMessageFace("succubus_fc1",0,0,2,14)
  ShowMessage("\\n<サキュバス (Affection:\\V[3287])>はい、イモをどうぞ……")
  ShowMessageFace("renccubus_fc1",4,0,2,15)
  ShowMessage("\\n<ニーナ (Affection:\\V[3285])>その……たまには、他のものも食べたいと思いません？")
  ShowMessageFace("succubus_fc1",0,0,2,16)
  ShowMessage("\\n<サキュバス (Affection:\\V[3287])>イモは美味しくて、栄養があるのですよ。")
  ShowMessageFace("renccubus_fc1",4,0,2,17)
  ShowMessage("\\n<ニーナ (Affection:\\V[3285])>はぅぅ……")
  ShowMessage("これさえなければ、良い村長さんなのに……")
  JumpToLabel("メニュー")
  DefineLabel("メニュー")
  StartLoop()
   355("unlimited_choices(11, [\"Give presents\",")
   655("\"Add to party\",")
   655("\"View present list\",\"Request\",")
   655("\"Never mind\"])")
   If(1,11,0,0,0)
    355("present_start(285)")
    0()
   EndIf()
   If(1,11,0,1,0)
    PictureClear(5)
    355("move_actor_ex(285)")
    EndEventProcessing()
    0()
   EndIf()
   If(1,11,0,2,0)
    ShowMessageFace("",0,0,2,18)
    ShowMessage("Affection       100:\\ia[1113]")
    ShowMessage("Affection       500:\\ia[1582]")
    ShowMessage("Affection     2000:\\ia[1434]")
    ShowMessage("Affection     4000:\\ia[1048]")
    0()
   EndIf()
   If(1,11,0,3,0)
    PictureClear(5)
    ShowMessageFace("",0,0,2,19)
    ShowMessage("Ask her for what? (Affection:\\V[3285])")
    ShowChoices(strings("Reverse Rape(Affection:10)","Never mind"),2)
    IfPlayerPicksChoice(0,null)
     If(1,3285,0,10,1)
      355("call_novel_scene(5236)")
      EndEventProcessing()
      0()
     Else()
      ShowMessageFace("renccubus_fc1",1,0,2,20)
      ShowMessage("\\n<ニーナ (Affection:\\V[3285])>明日でもいいですか……？")
      0()
     EndIf()
     0()
    IfPlayerPicksChoice(1,null)
     0()
    404()
    0()
   EndIf()
   If(1,11,0,4,1)
    PictureClear(5)
    EndEventProcessing()
    0()
   EndIf()
   0()
  EndLoop()
  0()
 PAGE   2
  // condition: party contains actor #285
  0()



EVENT   17
 PAGE   1
  ShowMessageFace("",0,0,2,1)
  ShowMessage("[GALLEY: CAPTAIN KEEP OUT] is written here...")
  0()



EVENT   18
 PAGE   1
  ShowMessageFace("",0,0,2,1)
  ShowMessage("[FOOD STORAGE: CAPTAIN KEEP OUT] is written here...")
  0()



EVENT   19
 PAGE   1
  // condition: switch 1270 is ON
  PictureDisplay(5,"80_lamiad_st01",0,0,0,0,100,100,0,0)
  PictureMove(5,null,0,0,0,0,100,100,255,0,30,true)
  If(1,3270,0,100,1)
   If(1,4270,0,0,0)
    ChangeVariable(4270,4270,0,0,1)
    ShowMessageFace("lamiad_fc1",1,0,2,1)
    ShowMessage("\\n<アルビーナ (Affection:\\V[3270])>ほら、受け取ってよ！")
    250(bytes(0x04,0x08,0x6f,0x3a,0x0c,0x52,0x50,0x47,0x3a,0x3a,0x53,0x45,0x08,0x3a,0x0a,0x40,0x6e,0x61,0x6d,0x65,0x49,0x22,0x0a,0x49,0x74,0x65,0x6d,0x31,0x06,0x3a,0x06,0x45,0x54,0x3a,0x0b,0x40,0x70,0x69,0x74,0x63,0x68,0x69,0x69,0x3a,0x0c,0x40,0x76,0x6f,0x6c,0x75,0x6d,0x65,0x69,0x55))
    ChangeInventoryArmor(1054,0,0,1,false)
    0()
   EndIf()
   0()
  EndIf()
  If(1,3270,0,500,1)
   If(1,4270,0,1,0)
    ChangeVariable(4270,4270,0,0,2)
    ShowMessageFace("lamiad_fc1",1,0,2,2)
    ShowMessage("\\n<アルビーナ (Affection:\\V[3270])>ほら、受け取ってよ！")
    250(bytes(0x04,0x08,0x6f,0x3a,0x0c,0x52,0x50,0x47,0x3a,0x3a,0x53,0x45,0x08,0x3a,0x0a,0x40,0x6e,0x61,0x6d,0x65,0x49,0x22,0x0a,0x49,0x74,0x65,0x6d,0x31,0x06,0x3a,0x06,0x45,0x54,0x3a,0x0b,0x40,0x70,0x69,0x74,0x63,0x68,0x69,0x69,0x3a,0x0c,0x40,0x76,0x6f,0x6c,0x75,0x6d,0x65,0x69,0x55))
    ChangeInventoryArmor(1366,0,0,1,false)
    0()
   EndIf()
   0()
  EndIf()
  If(1,3270,0,2000,1)
   If(1,4270,0,2,0)
    ChangeVariable(4270,4270,0,0,3)
    ShowMessageFace("lamiad_fc1",1,0,2,3)
    ShowMessage("\\n<アルビーナ (Affection:\\V[3270])>ほら、受け取ってよ！")
    250(bytes(0x04,0x08,0x6f,0x3a,0x0c,0x52,0x50,0x47,0x3a,0x3a,0x53,0x45,0x08,0x3a,0x0a,0x40,0x6e,0x61,0x6d,0x65,0x49,0x22,0x0a,0x49,0x74,0x65,0x6d,0x31,0x06,0x3a,0x06,0x45,0x54,0x3a,0x0b,0x40,0x70,0x69,0x74,0x63,0x68,0x69,0x69,0x3a,0x0c,0x40,0x76,0x6f,0x6c,0x75,0x6d,0x65,0x69,0x55))
    ChangeInventoryArmor(1422,0,0,1,false)
    0()
   EndIf()
   0()
  EndIf()
  If(1,3270,0,4000,1)
   If(1,4270,0,3,0)
    ChangeVariable(4270,4270,0,0,4)
    ShowMessageFace("lamiad_fc1",1,0,2,4)
    ShowMessage("\\n<アルビーナ (Affection:\\V[3270])>ほら、受け取ってよ！")
    250(bytes(0x04,0x08,0x6f,0x3a,0x0c,0x52,0x50,0x47,0x3a,0x3a,0x53,0x45,0x08,0x3a,0x0a,0x40,0x6e,0x61,0x6d,0x65,0x49,0x22,0x0a,0x49,0x74,0x65,0x6d,0x31,0x06,0x3a,0x06,0x45,0x54,0x3a,0x0b,0x40,0x70,0x69,0x74,0x63,0x68,0x69,0x69,0x3a,0x0c,0x40,0x76,0x6f,0x6c,0x75,0x6d,0x65,0x69,0x55))
    ChangeInventoryArmor(1224,0,0,1,false)
    0()
   EndIf()
   0()
  EndIf()
  355("actor_label_jump")
  ShowMessageFace("lamiad_fc1",0,0,2,5)
  ShowMessage("\\n<アルビーナ (Affection:\\V[3270])>今日もスキュラに闇討ちしないと……")
  ShowMessage("それはともかく、私に用事？")
  JumpToLabel("メニュー")
  DefineLabel("113")
  ShowMessageFace("lamia_fc1",2,0,2,6)
  ShowMessage("\\n<アナスタシア (Affection:\\V[3113])>あなた……なんだか悪そうなラミアよねぇ。")
  ShowMessageFace("lamiad_fc1",0,0,2,7)
  ShowMessage("\\n<アルビーナ (Affection:\\V[3270])>だって、デーモンラミアだもんね。")
  ShowMessage("デーモンだから、とっても悪いよ♪")
  ShowMessageFace("lamia_fc1",0,0,2,8)
  ShowMessage("\\n<アナスタシア (Affection:\\V[3113])>具体的に、どう悪いの？")
  ShowMessageFace("lamiad_fc1",0,0,2,9)
  ShowMessage("\\n<アルビーナ (Affection:\\V[3270])>ほら……えっと、体の色が紫だったり……")
  ShowMessage("変な模様があったり……")
  ShowMessageFace("lamia_fc1",2,0,2,10)
  ShowMessage("\\n<アナスタシア (Affection:\\V[3113])>別に悪くないわね……")
  JumpToLabel("メニュー")
  DefineLabel("227")
  ShowMessageFace("lamiad_fc1",0,0,2,11)
  ShowMessage("\\n<アルビーナ (Affection:\\V[3270])>巫女なんてやってて、よく禁欲できるよね。")
  ShowMessage("本当は、欲望を解放したいでしょ？")
  ShowMessageFace("mikolamia_fc1",2,0,2,12)
  ShowMessage("\\n<魅月 (Affection:\\V[3227])>そ、そんな事はありません……")
  ShowMessageFace("lamiad_fc1",1,0,2,13)
  ShowMessage("\\n<アルビーナ (Affection:\\V[3270])>煩悩解放しちゃえ～♪")
  ShowMessage("欲にまみれちゃえ～♪")
  ShowMessageFace("mikolamia_fc1",2,0,2,14)
  ShowMessage("\\n<魅月 (Affection:\\V[3227])>あぅぅっ……！　や、やめて下さい……！")
  JumpToLabel("メニュー")
  DefineLabel("271")
  ShowMessageFace("lamiad_fc1",0,0,2,15)
  ShowMessage("\\n<アルビーナ (Affection:\\V[3270])>デーモンスキュラ……")
  ShowMessage("同じデーモンといえど、スキュラとラミアは敵同士よ。")
  ShowMessageFace("scyllad_fc1",0,0,2,16)
  ShowMessage("\\n<ミリアム (Affection:\\V[3271])>こちらこそ、ラミアは嫌いです。")
  ShowMessage("しかし私達は、同じ脅威と戦う味方同士ではありませんか。")
  ShowMessageFace("lamiad_fc1",0,0,2,17)
  ShowMessage("\\n<アルビーナ (Affection:\\V[3270])>デーモン同士、力を合わせろって事ね……面白いじゃない。")
  ShowMessageFace("scyllad_fc1",0,0,2,18)
  ShowMessage("\\n<ミリアム (Affection:\\V[3271])>ええ、デーモンが世界を救います。")
  ShowMessage("はりきって行きますよ～♪")
  JumpToLabel("メニュー")
  DefineLabel("メニュー")
  StartLoop()
   355("unlimited_choices(11, [\"Give presents\",")
   655("\"Add to party\",")
   655("\"View present list\",\"Request\",")
   655("\"Never mind\"])")
   If(1,11,0,0,0)
    355("present_start(270)")
    0()
   EndIf()
   If(1,11,0,1,0)
    PictureClear(5)
    355("move_actor_ex(270)")
    EndEventProcessing()
    0()
   EndIf()
   If(1,11,0,2,0)
    ShowMessageFace("",0,0,2,19)
    ShowMessage("Affection       100:\\ia[1054]")
    ShowMessage("Affection       500:\\ia[1366]")
    ShowMessage("Affection     2000:\\ia[1422]")
    ShowMessage("Affection     4000:\\ia[1224]")
    0()
   EndIf()
   If(1,11,0,3,0)
    PictureClear(5)
    ShowMessageFace("",0,0,2,20)
    ShowMessage("Ask her for what? (Affection:\\V[3270])")
    ShowChoices(strings("Tailjob(Affection:10)","Reverse Rape(Affection:100)","Never mind"),3)
    IfPlayerPicksChoice(0,null)
     If(1,3270,0,10,1)
      355("call_novel_scene(5161)")
      EndEventProcessing()
      0()
     Else()
      ShowMessageFace("lamiad_fc1",0,0,2,21)
      ShowMessage("\\n<アルビーナ (Affection:\\V[3270])>まだ、イヤだな……")
      0()
     EndIf()
     0()
    IfPlayerPicksChoice(1,null)
     If(1,3270,0,100,1)
      355("call_novel_scene(5162)")
      EndEventProcessing()
      0()
     Else()
      ShowMessageFace("lamiad_fc1",0,0,2,22)
      ShowMessage("\\n<アルビーナ (Affection:\\V[3270])>まだ、イヤだな……")
      0()
     EndIf()
     0()
    IfPlayerPicksChoice(2,null)
     0()
    404()
    0()
   EndIf()
   If(1,11,0,4,1)
    PictureClear(5)
    EndEventProcessing()
    0()
   EndIf()
   0()
  EndLoop()
  0()
 PAGE   2
  // condition: party contains actor #270
  0()



EVENT   20
 PAGE   1
  // condition: switch 1271 is ON
  PictureDisplay(5,"80_scyllad_st01",0,0,0,0,100,100,0,0)
  PictureMove(5,null,0,0,0,0,100,100,255,0,30,true)
  If(1,3271,0,100,1)
   If(1,4271,0,0,0)
    ChangeVariable(4271,4271,0,0,1)
    ShowMessageFace("scyllad_fc1",0,0,2,1)
    ShowMessage("\\n<ミリアム (Affection:\\V[3271])>これ、使って下さいね。")
    250(bytes(0x04,0x08,0x6f,0x3a,0x0c,0x52,0x50,0x47,0x3a,0x3a,0x53,0x45,0x08,0x3a,0x0a,0x40,0x6e,0x61,0x6d,0x65,0x49,0x22,0x0a,0x49,0x74,0x65,0x6d,0x31,0x06,0x3a,0x06,0x45,0x54,0x3a,0x0b,0x40,0x70,0x69,0x74,0x63,0x68,0x69,0x69,0x3a,0x0c,0x40,0x76,0x6f,0x6c,0x75,0x6d,0x65,0x69,0x55))
    ChangeInventoryArmor(1050,0,0,1,false)
    0()
   EndIf()
   0()
  EndIf()
  If(1,3271,0,500,1)
   If(1,4271,0,1,0)
    ChangeVariable(4271,4271,0,0,2)
    ShowMessageFace("scyllad_fc1",0,0,2,2)
    ShowMessage("\\n<ミリアム (Affection:\\V[3271])>これ、使って下さいね。")
    250(bytes(0x04,0x08,0x6f,0x3a,0x0c,0x52,0x50,0x47,0x3a,0x3a,0x53,0x45,0x08,0x3a,0x0a,0x40,0x6e,0x61,0x6d,0x65,0x49,0x22,0x0a,0x49,0x74,0x65,0x6d,0x31,0x06,0x3a,0x06,0x45,0x54,0x3a,0x0b,0x40,0x70,0x69,0x74,0x63,0x68,0x69,0x69,0x3a,0x0c,0x40,0x76,0x6f,0x6c,0x75,0x6d,0x65,0x69,0x55))
    ChangeInventoryArmor(1042,0,0,1,false)
    0()
   EndIf()
   0()
  EndIf()
  If(1,3271,0,2000,1)
   If(1,4271,0,2,0)
    ChangeVariable(4271,4271,0,0,3)
    ShowMessageFace("scyllad_fc1",0,0,2,3)
    ShowMessage("\\n<ミリアム (Affection:\\V[3271])>これ、使って下さいね。")
    250(bytes(0x04,0x08,0x6f,0x3a,0x0c,0x52,0x50,0x47,0x3a,0x3a,0x53,0x45,0x08,0x3a,0x0a,0x40,0x6e,0x61,0x6d,0x65,0x49,0x22,0x0a,0x49,0x74,0x65,0x6d,0x31,0x06,0x3a,0x06,0x45,0x54,0x3a,0x0b,0x40,0x70,0x69,0x74,0x63,0x68,0x69,0x69,0x3a,0x0c,0x40,0x76,0x6f,0x6c,0x75,0x6d,0x65,0x69,0x55))
    ChangeInventoryArmor(1431,0,0,1,false)
    0()
   EndIf()
   0()
  EndIf()
  If(1,3271,0,4000,1)
   If(1,4271,0,3,0)
    ChangeVariable(4271,4271,0,0,4)
    ShowMessageFace("scyllad_fc1",0,0,2,4)
    ShowMessage("\\n<ミリアム (Affection:\\V[3271])>これ、使って下さいね。")
    250(bytes(0x04,0x08,0x6f,0x3a,0x0c,0x52,0x50,0x47,0x3a,0x3a,0x53,0x45,0x08,0x3a,0x0a,0x40,0x6e,0x61,0x6d,0x65,0x49,0x22,0x0a,0x49,0x74,0x65,0x6d,0x31,0x06,0x3a,0x06,0x45,0x54,0x3a,0x0b,0x40,0x70,0x69,0x74,0x63,0x68,0x69,0x69,0x3a,0x0c,0x40,0x76,0x6f,0x6c,0x75,0x6d,0x65,0x69,0x55))
    ChangeInventoryArmor(1223,0,0,1,false)
    0()
   EndIf()
   0()
  EndIf()
  355("actor_label_jump")
  ShowMessageFace("scyllad_fc1",0,0,2,5)
  ShowMessage("\\n<ミリアム (Affection:\\V[3271])>今日も、ラミアを締めまくらないと……")
  ShowMessage("あっ、お勤めですか？")
  JumpToLabel("メニュー")
  DefineLabel("161")
  ShowMessageFace("ustrel_fc1",0,0,2,6)
  ShowMessage("\\n<レモン (Affection:\\V[3161])>デーモンスキュラですか……")
  ShowMessage("あなたも、スキュラの亜種のようですね。")
  ShowMessageFace("scyllad_fc1",0,0,2,7)
  ShowMessage("\\n<ミリアム (Affection:\\V[3271])>私は、デーモンですよ。")
  ShowMessage("あなたは、見たところ……魔導タイプでしょうか？")
  ShowMessageFace("ustrel_fc1",0,0,2,8)
  ShowMessage("\\n<レモン (Affection:\\V[3161])>ええ……搾精触手がたくさんあるでしょう？")
  ShowMessage("周囲に噛みつくから、少々大変ですが……")
  ShowMessageFace("scyllad_fc1",0,0,2,9)
  ShowMessage("\\n<ミリアム (Affection:\\V[3271])>私の下半身のデーモンは……正直、よく分かりません。")
  ShowMessage("あんまり話とかしないですから……")
  JumpToLabel("メニュー")
  DefineLabel("270")
  ShowMessageFace("lamiad_fc1",0,0,2,10)
  ShowMessage("\\n<アルビーナ (Affection:\\V[3270])>デーモンスキュラ……")
  ShowMessage("同じデーモンといえど、スキュラとラミアは敵同士よ。")
  ShowMessageFace("scyllad_fc1",0,0,2,11)
  ShowMessage("\\n<ミリアム (Affection:\\V[3271])>こちらこそ、ラミアは嫌いです。")
  ShowMessage("しかし私達は、同じ脅威と戦う味方同士ではありませんか。")
  ShowMessageFace("lamiad_fc1",0,0,2,12)
  ShowMessage("\\n<アルビーナ (Affection:\\V[3270])>デーモン同士、力を合わせろって事ね……面白いじゃない。")
  ShowMessageFace("scyllad_fc1",0,0,2,13)
  ShowMessage("\\n<ミリアム (Affection:\\V[3271])>ええ、デーモンが世界を救います。")
  ShowMessage("はりきって行きますよ～♪")
  JumpToLabel("メニュー")
  DefineLabel("279")
  ShowMessageFace("scyllad_fc1",0,0,2,14)
  ShowMessage("\\n<ミリアム (Affection:\\V[3271])>あっ、深海タイプのスキュラですね！")
  ShowMessage("私も、海に潜ってみた事があるんですよ……")
  ShowMessageFace("e_scylla_fc1",0,0,2,15)
  ShowMessage("\\n<オーマ (Affection:\\V[3279])>へぇ……それでどうなったの？")
  ShowMessageFace("scyllad_fc1",2,0,2,16)
  ShowMessage("\\n<ミリアム (Affection:\\V[3271])>見事に溺れて、ゴルド海岸に半死半生で打ち上げられました……")
  ShowMessageFace("e_scylla_fc1",2,0,2,17)
  ShowMessage("\\n<オーマ (Affection:\\V[3279])>むぎゅっ……")
  JumpToLabel("メニュー")
  DefineLabel("メニュー")
  StartLoop()
   355("unlimited_choices(11, [\"Give presents\",")
   655("\"Add to party\",")
   655("\"View present list\",\"Request\",")
   655("\"Never mind\"])")
   If(1,11,0,0,0)
    355("present_start(271)")
    0()
   EndIf()
   If(1,11,0,1,0)
    PictureClear(5)
    355("move_actor_ex(271)")
    EndEventProcessing()
    0()
   EndIf()
   If(1,11,0,2,0)
    ShowMessageFace("",0,0,2,18)
    ShowMessage("Affection       100:\\ia[1050]")
    ShowMessage("Affection       500:\\ia[1042]")
    ShowMessage("Affection     2000:\\ia[1431]")
    ShowMessage("Affection     4000:\\ia[1223]")
    0()
   EndIf()
   If(1,11,0,3,0)
    PictureClear(5)
    ShowMessageFace("",0,0,2,19)
    ShowMessage("Ask her for what? (Affection:\\V[3271])")
    ShowChoices(strings("Urethral Teasing(Affection:10)","Tentacle Caress(Affection:50)","Reverse Rape(Affection:100)","Never mind"),4)
    IfPlayerPicksChoice(0,null)
     If(1,3271,0,10,1)
      355("call_novel_scene(5166)")
      EndEventProcessing()
      0()
     Else()
      ShowMessageFace("scyllad_fc1",0,0,2,20)
      ShowMessage("\\n<ミリアム (Affection:\\V[3271])>もう少し先でいいですか……？")
      0()
     EndIf()
     0()
    IfPlayerPicksChoice(1,null)
     If(1,3271,0,50,1)
      355("call_novel_scene(5167)")
      EndEventProcessing()
      0()
     Else()
      ShowMessageFace("scyllad_fc1",0,0,2,21)
      ShowMessage("\\n<ミリアム (Affection:\\V[3271])>もう少し先でいいですか……？")
      0()
     EndIf()
     0()
    IfPlayerPicksChoice(2,null)
     If(1,3271,0,100,1)
      355("call_novel_scene(5168)")
      EndEventProcessing()
      0()
     Else()
      ShowMessageFace("scyllad_fc1",0,0,2,22)
      ShowMessage("\\n<ミリアム (Affection:\\V[3271])>もう少し先でいいですか……？")
      0()
     EndIf()
     0()
    IfPlayerPicksChoice(3,null)
     0()
    404()
    0()
   EndIf()
   If(1,11,0,4,1)
    PictureClear(5)
    EndEventProcessing()
    0()
   EndIf()
   0()
  EndLoop()
  0()
 PAGE   2
  // condition: party contains actor #271
  0()



EVENT   21
 PAGE   1
  // condition: switch 1279 is ON
  PictureDisplay(5,"80_e_scylla_st01",0,0,0,0,100,100,0,0)
  PictureMove(5,null,0,0,0,0,100,100,255,0,30,true)
  If(1,3279,0,100,1)
   If(1,4279,0,0,0)
    ChangeVariable(4279,4279,0,0,1)
    ShowMessageFace("e_scylla_fc1",0,0,2,1)
    ShowMessage("\\n<オーマ (Affection:\\V[3279])>これを使いなさい……")
    250(bytes(0x04,0x08,0x6f,0x3a,0x0c,0x52,0x50,0x47,0x3a,0x3a,0x53,0x45,0x08,0x3a,0x0a,0x40,0x6e,0x61,0x6d,0x65,0x49,0x22,0x0a,0x49,0x74,0x65,0x6d,0x31,0x06,0x3a,0x06,0x45,0x54,0x3a,0x0b,0x40,0x70,0x69,0x74,0x63,0x68,0x69,0x69,0x3a,0x0c,0x40,0x76,0x6f,0x6c,0x75,0x6d,0x65,0x69,0x55))
    ChangeInventoryArmor(1735,0,0,1,false)
    0()
   EndIf()
   0()
  EndIf()
  If(1,3279,0,500,1)
   If(1,4279,0,1,0)
    ChangeVariable(4279,4279,0,0,2)
    ShowMessageFace("e_scylla_fc1",0,0,2,2)
    ShowMessage("\\n<オーマ (Affection:\\V[3279])>これを使いなさい……")
    250(bytes(0x04,0x08,0x6f,0x3a,0x0c,0x52,0x50,0x47,0x3a,0x3a,0x53,0x45,0x08,0x3a,0x0a,0x40,0x6e,0x61,0x6d,0x65,0x49,0x22,0x0a,0x49,0x74,0x65,0x6d,0x31,0x06,0x3a,0x06,0x45,0x54,0x3a,0x0b,0x40,0x70,0x69,0x74,0x63,0x68,0x69,0x69,0x3a,0x0c,0x40,0x76,0x6f,0x6c,0x75,0x6d,0x65,0x69,0x55))
    ChangeInventoryArmor(1384,0,0,1,false)
    0()
   EndIf()
   0()
  EndIf()
  If(1,3279,0,2000,1)
   If(1,4279,0,2,0)
    ChangeVariable(4279,4279,0,0,3)
    ShowMessageFace("e_scylla_fc1",0,0,2,3)
    ShowMessage("\\n<オーマ (Affection:\\V[3279])>これを使いなさい……")
    250(bytes(0x04,0x08,0x6f,0x3a,0x0c,0x52,0x50,0x47,0x3a,0x3a,0x53,0x45,0x08,0x3a,0x0a,0x40,0x6e,0x61,0x6d,0x65,0x49,0x22,0x0a,0x49,0x74,0x65,0x6d,0x31,0x06,0x3a,0x06,0x45,0x54,0x3a,0x0b,0x40,0x70,0x69,0x74,0x63,0x68,0x69,0x69,0x3a,0x0c,0x40,0x76,0x6f,0x6c,0x75,0x6d,0x65,0x69,0x55))
    ChangeInventoryArmor(1470,0,0,1,false)
    0()
   EndIf()
   0()
  EndIf()
  If(1,3279,0,4000,1)
   If(1,4279,0,3,0)
    ChangeVariable(4279,4279,0,0,4)
    ShowMessageFace("e_scylla_fc1",0,0,2,4)
    ShowMessage("\\n<オーマ (Affection:\\V[3279])>これを使いなさい……")
    250(bytes(0x04,0x08,0x6f,0x3a,0x0c,0x52,0x50,0x47,0x3a,0x3a,0x53,0x45,0x08,0x3a,0x0a,0x40,0x6e,0x61,0x6d,0x65,0x49,0x22,0x0a,0x49,0x74,0x65,0x6d,0x31,0x06,0x3a,0x06,0x45,0x54,0x3a,0x0b,0x40,0x70,0x69,0x74,0x63,0x68,0x69,0x69,0x3a,0x0c,0x40,0x76,0x6f,0x6c,0x75,0x6d,0x65,0x69,0x55))
    ChangeInventoryArmor(1325,0,0,1,false)
    0()
   EndIf()
   0()
  EndIf()
  355("actor_label_jump")
  ShowMessageFace("e_scylla_fc1",0,0,2,5)
  ShowMessage("\\n<オーマ (Affection:\\V[3279])>私の通った床、ヌルヌルになってるんだけど……")
  ShowMessage("掃除しておいてくれない？")
  JumpToLabel("メニュー")
  DefineLabel("252")
  ShowMessageFace("scylla_fc1",0,0,2,6)
  ShowMessage("\\n<キューラ (Affection:\\V[3252])>あなたは、海棲タイプのスキュラなのね。")
  ShowMessageFace("e_scylla_fc1",0,0,2,7)
  ShowMessage("\\n<オーマ (Affection:\\V[3279])>そうよ……")
  ShowMessage("深海をこの触手で泳ぐの。")
  ShowMessageFace("scylla_fc1",0,0,2,8)
  ShowMessage("\\n<キューラ (Affection:\\V[3252])>でも、イカじゃないわね……")
  ShowMessageFace("e_scylla_fc1",0,0,2,9)
  ShowMessage("\\n<オーマ (Affection:\\V[3279])>ええ、イカじゃないわね……")
  ShowMessageFace("sonia_fc4",0,0,2,10)
  ShowMessage("\\n<Sonya>スキュラって、イカじゃないのにこだわるわね……")
  JumpToLabel("メニュー")
  DefineLabel("271")
  ShowMessageFace("scyllad_fc1",0,0,2,11)
  ShowMessage("\\n<ミリアム (Affection:\\V[3271])>あっ、深海タイプのスキュラですね！")
  ShowMessage("私も、海に潜ってみた事があるんですよ……")
  ShowMessageFace("e_scylla_fc1",0,0,2,12)
  ShowMessage("\\n<オーマ (Affection:\\V[3279])>へぇ……それでどうなったの？")
  ShowMessageFace("scyllad_fc1",2,0,2,13)
  ShowMessage("\\n<ミリアム (Affection:\\V[3271])>見事に溺れて、ゴルド海岸に半死半生で打ち上げられました……")
  ShowMessageFace("e_scylla_fc1",2,0,2,14)
  ShowMessage("\\n<オーマ (Affection:\\V[3279])>むぎゅっ……")
  JumpToLabel("メニュー")
  DefineLabel("351")
  ShowMessageFace("e_scylla_fc1",0,0,2,15)
  ShowMessage("\\n<オーマ (Affection:\\V[3279])>上位のスキュラのくせに、他者の下僕に甘んじるの……？")
  ShowMessageFace("scylla_s_fc1",0,0,2,16)
  ShowMessage("\\n<セシール (Affection:\\V[3351])>メイドは下僕ではありませんよ。")
  ShowMessage("それに腕がたくさんあるスキュラは、メイドと相性が良いのです。")
  ShowMessageFace("e_scylla_fc1",0,0,2,17)
  ShowMessage("\\n<オーマ (Affection:\\V[3279])>私には、理解できないわね。")
  ShowMessage("他の奴にこき使われるなんて……")
  ShowMessageFace("scylla_s_fc1",0,0,2,18)
  ShowMessage("\\n<セシール (Affection:\\V[3351])>尽くす悦びも、良いものですよ……")
  ShowMessage("最終的に、ご主人様が奉仕の虜になってしまうのも愉快です。")
  JumpToLabel("メニュー")
  DefineLabel("メニュー")
  StartLoop()
   355("unlimited_choices(11, [\"Give presents\",")
   655("\"Add to party\",")
   655("\"View present list\",\"Request\",")
   655("\"Never mind\"])")
   If(1,11,0,0,0)
    355("present_start(279)")
    0()
   EndIf()
   If(1,11,0,1,0)
    PictureClear(5)
    355("move_actor_ex(279)")
    EndEventProcessing()
    0()
   EndIf()
   If(1,11,0,2,0)
    ShowMessageFace("",0,0,2,19)
    ShowMessage("Affection       100:\\ia[1735]")
    ShowMessage("Affection       500:\\ia[1384]")
    ShowMessage("Affection     2000:\\ia[1470]")
    ShowMessage("Affection     4000:\\ia[1325]")
    0()
   EndIf()
   If(1,11,0,3,0)
    PictureClear(5)
    ShowMessageFace("",0,0,2,20)
    ShowMessage("Ask her for what? (Affection:\\V[3279])")
    ShowChoices(strings("Tentacle Blowjob(Affection:10)","Tentacle Caress(Affection:50)","Reverse Rape(Affection:100)","Never mind"),4)
    IfPlayerPicksChoice(0,null)
     If(1,3279,0,10,1)
      355("call_novel_scene(5206)")
      EndEventProcessing()
      0()
     Else()
      ShowMessageFace("e_scylla_fc1",0,0,2,21)
      ShowMessage("\\n<オーマ (Affection:\\V[3279])>まだダメよ……")
      0()
     EndIf()
     0()
    IfPlayerPicksChoice(1,null)
     If(1,3279,0,50,1)
      355("call_novel_scene(5207)")
      EndEventProcessing()
      0()
     Else()
      ShowMessageFace("e_scylla_fc1",0,0,2,22)
      ShowMessage("\\n<オーマ (Affection:\\V[3279])>まだダメよ……")
      0()
     EndIf()
     0()
    IfPlayerPicksChoice(2,null)
     If(1,3279,0,100,1)
      355("call_novel_scene(5208)")
      EndEventProcessing()
      0()
     Else()
      ShowMessageFace("e_scylla_fc1",0,0,2,23)
      ShowMessage("\\n<オーマ (Affection:\\V[3279])>まだダメよ……")
      0()
     EndIf()
     0()
    IfPlayerPicksChoice(3,null)
     0()
    404()
    0()
   EndIf()
   If(1,11,0,4,1)
    PictureClear(5)
    EndEventProcessing()
    0()
   EndIf()
   0()
  EndLoop()
  0()
 PAGE   2
  // condition: party contains actor #279
  0()



EVENT   22
 PAGE   1
  // condition: switch 1308 is ON
  PictureDisplay(5,"80_suiryu_st01",0,0,0,0,100,100,0,0)
  PictureMove(5,null,0,0,0,0,100,100,255,0,30,true)
  If(1,3308,0,500,1)
   If(1,4308,0,0,0)
    ChangeVariable(4308,4308,0,0,1)
    ShowMessageFace("suiryu_fc1",1,0,2,1)
    ShowMessage("\\n<みお (Affection:\\V[3308])>これをあげるのじゃ。")
    250(bytes(0x04,0x08,0x6f,0x3a,0x0c,0x52,0x50,0x47,0x3a,0x3a,0x53,0x45,0x08,0x3a,0x0a,0x40,0x6e,0x61,0x6d,0x65,0x49,0x22,0x0a,0x49,0x74,0x65,0x6d,0x31,0x06,0x3a,0x06,0x45,0x54,0x3a,0x0b,0x40,0x70,0x69,0x74,0x63,0x68,0x69,0x69,0x3a,0x0c,0x40,0x76,0x6f,0x6c,0x75,0x6d,0x65,0x69,0x55))
    ChangeInventoryArmor(1142,0,0,1,false)
    0()
   EndIf()
   0()
  EndIf()
  If(1,3308,0,2000,1)
   If(1,4308,0,1,0)
    ChangeVariable(4308,4308,0,0,2)
    ShowMessageFace("suiryu_fc1",1,0,2,2)
    ShowMessage("\\n<みお (Affection:\\V[3308])>これをあげるのじゃ。")
    250(bytes(0x04,0x08,0x6f,0x3a,0x0c,0x52,0x50,0x47,0x3a,0x3a,0x53,0x45,0x08,0x3a,0x0a,0x40,0x6e,0x61,0x6d,0x65,0x49,0x22,0x0a,0x49,0x74,0x65,0x6d,0x31,0x06,0x3a,0x06,0x45,0x54,0x3a,0x0b,0x40,0x70,0x69,0x74,0x63,0x68,0x69,0x69,0x3a,0x0c,0x40,0x76,0x6f,0x6c,0x75,0x6d,0x65,0x69,0x55))
    ChangeInventoryArmor(1204,0,0,1,false)
    0()
   EndIf()
   0()
  EndIf()
  If(1,3308,0,4000,1)
   If(1,4308,0,2,0)
    ChangeVariable(4308,4308,0,0,3)
    ShowMessageFace("suiryu_fc1",1,0,2,3)
    ShowMessage("\\n<みお (Affection:\\V[3308])>これをあげるのじゃ。")
    250(bytes(0x04,0x08,0x6f,0x3a,0x0c,0x52,0x50,0x47,0x3a,0x3a,0x53,0x45,0x08,0x3a,0x0a,0x40,0x6e,0x61,0x6d,0x65,0x49,0x22,0x0a,0x49,0x74,0x65,0x6d,0x31,0x06,0x3a,0x06,0x45,0x54,0x3a,0x0b,0x40,0x70,0x69,0x74,0x63,0x68,0x69,0x69,0x3a,0x0c,0x40,0x76,0x6f,0x6c,0x75,0x6d,0x65,0x69,0x55))
    ChangeInventoryArmor(1304,0,0,1,false)
    0()
   EndIf()
   0()
  EndIf()
  If(1,3308,0,6000,1)
   If(1,4308,0,3,0)
    ChangeVariable(4308,4308,0,0,4)
    ShowMessageFace("suiryu_fc1",1,0,2,4)
    ShowMessage("\\n<みお (Affection:\\V[3308])>これをあげるのじゃ。")
    250(bytes(0x04,0x08,0x6f,0x3a,0x0c,0x52,0x50,0x47,0x3a,0x3a,0x53,0x45,0x08,0x3a,0x0a,0x40,0x6e,0x61,0x6d,0x65,0x49,0x22,0x0a,0x49,0x74,0x65,0x6d,0x31,0x06,0x3a,0x06,0x45,0x54,0x3a,0x0b,0x40,0x70,0x69,0x74,0x63,0x68,0x69,0x69,0x3a,0x0c,0x40,0x76,0x6f,0x6c,0x75,0x6d,0x65,0x69,0x55))
    ChangeInventoryArmor(1260,0,0,1,false)
    0()
   EndIf()
   0()
  EndIf()
  355("actor_label_jump")
  ShowMessageFace("suiryu_fc1",0,0,2,5)
  ShowMessage("\\n<みお (Affection:\\V[3308])>これでもまだ、若輩の身……")
  ShowMessage("儂の力、天下万民に示したいのう。")
  JumpToLabel("メニュー")
  DefineLabel("203")
  ShowMessageFace("tatunoko_k_fc1",1,0,2,6)
  ShowMessage("\\n<Tatsuko (Affection:\\V[3203])>海のドラゴンなのです！")
  ShowMessage("格好良いのです！")
  ShowMessageFace("suiryu_fc1",1,0,2,7)
  ShowMessage("\\n<みお (Affection:\\V[3308])>くくく、龍の子か……")
  ShowMessage("海龍たる我を崇めるが良い。")
  ShowMessageFace("tatunoko_k_fc1",0,0,2,8)
  ShowMessage("\\n<Tatsuko (Affection:\\V[3203])>そんなに、年は変わりませんよね？")
  ShowMessageFace("suiryu_fc1",0,0,2,9)
  ShowMessage("\\n<みお (Affection:\\V[3308])>……バレた？")
  JumpToLabel("メニュー")
  DefineLabel("344")
  ShowMessageFace("suiryu_fc1",0,0,2,10)
  ShowMessage("\\n<みお (Affection:\\V[3308])>むっ、キリンか……")
  ShowMessageFace("kirin_fc1",0,0,2,11)
  ShowMessage("\\n<キリン (Affection:\\V[3344])>お主……若い癖に、なぜそんな喋り方なのじゃ？")
  ShowMessageFace("suiryu_fc1",0,0,2,12)
  ShowMessage("\\n<みお (Affection:\\V[3308])>儂は龍じゃからな。")
  ShowMessage("威厳がないと、なめられるのじゃ……")
  ShowMessageFace("kirin_fc1",0,0,2,13)
  ShowMessage("\\n<キリン (Affection:\\V[3344])>……変な奴じゃのう。")
  JumpToLabel("メニュー")
  DefineLabel("347")
  ShowMessageFace("suiryu_fc1",0,0,2,14)
  ShowMessage("\\n<みお (Affection:\\V[3308])>ほう、空のドラゴンか……")
  ShowMessage("儂は海を制する龍よ。")
  ShowMessageFace("wyvern_fc1",0,0,2,15)
  ShowMessage("\\n<ワーバイン (Affection:\\V[3347])>若い癖に、ずいぶんと変な喋り方をするな……")
  ShowMessageFace("suiryu_fc1",0,0,2,16)
  ShowMessage("\\n<みお (Affection:\\V[3308])>威厳あるかな……と思って。")
  ShowMessageFace("wyvern_fc1",0,0,2,17)
  ShowMessage("\\n<ワーバイン (Affection:\\V[3347])>ない。")
  JumpToLabel("メニュー")
  DefineLabel("メニュー")
  StartLoop()
   355("unlimited_choices(11, [\"Give presents\",")
   655("\"Add to party\",")
   655("\"View present list\",\"Request\",")
   655("\"Never mind\"])")
   If(1,11,0,0,0)
    355("present_start(308)")
    0()
   EndIf()
   If(1,11,0,1,0)
    PictureClear(5)
    355("move_actor_ex(308)")
    EndEventProcessing()
    0()
   EndIf()
   If(1,11,0,2,0)
    ShowMessageFace("",0,0,2,18)
    ShowMessage("Affection     500:\\ia[1142]")
    ShowMessage("Affection   2000:\\ia[1204]")
    ShowMessage("Affection   4000:\\ia[1304]")
    ShowMessage("Affection   6000:\\ia[1260]")
    0()
   EndIf()
   If(1,11,0,3,0)
    PictureClear(5)
    ShowMessageFace("",0,0,2,19)
    ShowMessage("Ask her for what? (Affection:\\V[3308])")
    ShowChoices(strings("Reverse Rape(Affection:10)","Never mind"),2)
    IfPlayerPicksChoice(0,null)
     If(1,3308,0,10,1)
      355("call_novel_scene(5356)")
      EndEventProcessing()
      0()
     Else()
      ShowMessageFace("suiryu_fc1",0,0,2,20)
      ShowMessage("\\n<みお (Affection:\\V[3308])>ま、また今度にしないかのう……")
      0()
     EndIf()
     0()
    IfPlayerPicksChoice(1,null)
     0()
    404()
    0()
   EndIf()
   If(1,11,0,4,1)
    PictureClear(5)
    EndEventProcessing()
    0()
   EndIf()
   0()
  EndLoop()
  0()
 PAGE   2
  // condition: party contains actor #308
  0()



EVENT   23
 PAGE   1
  // condition: switch 1307 is ON
  PictureDisplay(5,"80_seaanemone_st01",0,0,0,0,100,100,0,0)
  PictureMove(5,null,0,0,0,0,100,100,255,0,30,true)
  If(1,3307,0,500,1)
   If(1,4307,0,0,0)
    ChangeVariable(4307,4307,0,0,1)
    ShowMessageFace("seaanemone_fc1",0,0,2,1)
    ShowMessage("\\n<アネモ (Affection:\\V[3307])>ほら、受け取って……")
    250(bytes(0x04,0x08,0x6f,0x3a,0x0c,0x52,0x50,0x47,0x3a,0x3a,0x53,0x45,0x08,0x3a,0x0a,0x40,0x6e,0x61,0x6d,0x65,0x49,0x22,0x0a,0x49,0x74,0x65,0x6d,0x31,0x06,0x3a,0x06,0x45,0x54,0x3a,0x0b,0x40,0x70,0x69,0x74,0x63,0x68,0x69,0x69,0x3a,0x0c,0x40,0x76,0x6f,0x6c,0x75,0x6d,0x65,0x69,0x55))
    ChangeInventoryArmor(1580,0,0,1,false)
    0()
   EndIf()
   0()
  EndIf()
  If(1,3307,0,2000,1)
   If(1,4307,0,1,0)
    ChangeVariable(4307,4307,0,0,2)
    ShowMessageFace("seaanemone_fc1",0,0,2,2)
    ShowMessage("\\n<アネモ (Affection:\\V[3307])>ほら、受け取って……")
    250(bytes(0x04,0x08,0x6f,0x3a,0x0c,0x52,0x50,0x47,0x3a,0x3a,0x53,0x45,0x08,0x3a,0x0a,0x40,0x6e,0x61,0x6d,0x65,0x49,0x22,0x0a,0x49,0x74,0x65,0x6d,0x31,0x06,0x3a,0x06,0x45,0x54,0x3a,0x0b,0x40,0x70,0x69,0x74,0x63,0x68,0x69,0x69,0x3a,0x0c,0x40,0x76,0x6f,0x6c,0x75,0x6d,0x65,0x69,0x55))
    ChangeInventoryArmor(1476,0,0,1,false)
    0()
   EndIf()
   0()
  EndIf()
  If(1,3307,0,4000,1)
   If(1,4307,0,2,0)
    ChangeVariable(4307,4307,0,0,3)
    ShowMessageFace("seaanemone_fc1",0,0,2,3)
    ShowMessage("\\n<アネモ (Affection:\\V[3307])>ほら、受け取って……")
    250(bytes(0x04,0x08,0x6f,0x3a,0x0c,0x52,0x50,0x47,0x3a,0x3a,0x53,0x45,0x08,0x3a,0x0a,0x40,0x6e,0x61,0x6d,0x65,0x49,0x22,0x0a,0x49,0x74,0x65,0x6d,0x31,0x06,0x3a,0x06,0x45,0x54,0x3a,0x0b,0x40,0x70,0x69,0x74,0x63,0x68,0x69,0x69,0x3a,0x0c,0x40,0x76,0x6f,0x6c,0x75,0x6d,0x65,0x69,0x55))
    ChangeInventoryArmor(1217,0,0,1,false)
    0()
   EndIf()
   0()
  EndIf()
  If(1,3307,0,6000,1)
   If(1,4307,0,3,0)
    ChangeVariable(4307,4307,0,0,4)
    ShowMessageFace("seaanemone_fc1",0,0,2,4)
    ShowMessage("\\n<アネモ (Affection:\\V[3307])>ほら、受け取って……")
    250(bytes(0x04,0x08,0x6f,0x3a,0x0c,0x52,0x50,0x47,0x3a,0x3a,0x53,0x45,0x08,0x3a,0x0a,0x40,0x6e,0x61,0x6d,0x65,0x49,0x22,0x0a,0x49,0x74,0x65,0x6d,0x31,0x06,0x3a,0x06,0x45,0x54,0x3a,0x0b,0x40,0x70,0x69,0x74,0x63,0x68,0x69,0x69,0x3a,0x0c,0x40,0x76,0x6f,0x6c,0x75,0x6d,0x65,0x69,0x55))
    ChangeInventoryArmor(1638,0,0,1,false)
    0()
   EndIf()
   0()
  EndIf()
  355("actor_label_jump")
  ShowMessageFace("seaanemone_fc1",0,0,2,5)
  ShowMessage("\\n<アネモ (Affection:\\V[3307])>この体、床掃除に最適！")
  ShowMessage("……だと思った？　床も壁もヌルヌルのグチョグチョよ♪")
  JumpToLabel("メニュー")
  DefineLabel("116")
  ShowMessageFace("iso_fc1",0,0,2,6)
  ShowMessage("\\n<イザベル (Affection:\\V[3116])>あなたも、イソギンチャク……")
  ShowMessage("……なのかしら？")
  ShowMessageFace("seaanemone_fc1",0,0,2,7)
  ShowMessage("\\n<アネモ (Affection:\\V[3307])>そうだと思うわ……たぶん。")
  ShowMessageFace("iso_fc1",0,0,2,8)
  ShowMessage("\\n<イザベル (Affection:\\V[3116])>なんだか、変な生き物よね……")
  ShowMessageFace("seaanemone_fc1",0,0,2,9)
  ShowMessage("\\n<アネモ (Affection:\\V[3307])>自分でも不思議よ、なんなのかしら……")
  JumpToLabel("メニュー")
  DefineLabel("274")
  ShowMessageFace("seaanemone_fc1",0,0,2,10)
  ShowMessage("\\n<アネモ (Affection:\\V[3307])>あら、アスタ……")
  ShowMessage("調子は良いみたいね。")
  ShowMessageFace("hitode_fc1",2,0,2,11)
  ShowMessage("\\n<アスタ (Affection:\\V[3274])>前から思ってたんだけど……")
  ShowMessage("あなた、何の魔物なの？")
  ShowMessageFace("seaanemone_fc1",0,0,2,12)
  ShowMessage("\\n<アネモ (Affection:\\V[3307])>なんか、イソギンチャク……とか？")
  ShowMessageFace("hitode_fc1",2,0,2,13)
  ShowMessage("\\n<アスタ (Affection:\\V[3274])>とか！？")
  JumpToLabel("メニュー")
  DefineLabel("305")
  ShowMessageFace("seaanemone_fc1",0,0,2,14)
  ShowMessage("\\n<アネモ (Affection:\\V[3307])>（何かしらあれ、変な生物……）")
  ShowMessageFace("anfill_fc1",0,0,2,15)
  ShowMessage("\\n<アンフィル (Affection:\\V[3305])>（奇妙な生き物だ……）")
  ShowMessageFace("seaanemone_fc1",0,0,2,16)
  ShowMessage("\\n<アネモ (Affection:\\V[3307])>こんにちは、良い天気ね……")
  ShowMessageFace("anfill_fc1",0,0,2,17)
  ShowMessage("\\n<アンフィル (Affection:\\V[3305])>ええ、天気は良いものね……")
  ShowMessageFace("seaanemone_fc1",0,0,2,18)
  ShowMessage("\\n<アネモ (Affection:\\V[3307])>（変なの……）")
  ShowMessageFace("anfill_fc1",0,0,2,19)
  ShowMessage("\\n<アンフィル (Affection:\\V[3305])>（不気味だ……）")
  JumpToLabel("メニュー")
  DefineLabel("メニュー")
  StartLoop()
   355("unlimited_choices(11, [\"Give presents\",")
   655("\"Add to party\",")
   655("\"View present list\",\"Request\",")
   655("\"Never mind\"])")
   If(1,11,0,0,0)
    355("present_start(307)")
    0()
   EndIf()
   If(1,11,0,1,0)
    PictureClear(5)
    355("move_actor_ex(307)")
    EndEventProcessing()
    0()
   EndIf()
   If(1,11,0,2,0)
    ShowMessageFace("",0,0,2,20)
    ShowMessage("Affection     500:\\ia[1580]")
    ShowMessage("Affection   2000:\\ia[1476]")
    ShowMessage("Affection   4000:\\ia[1217]")
    ShowMessage("Affection   6000:\\ia[1638]")
    0()
   EndIf()
   If(1,11,0,3,0)
    PictureClear(5)
    ShowMessageFace("",0,0,2,21)
    ShowMessage("Ask her for what? (Affection:\\V[3307])")
    ShowChoices(strings("Semen Squeeze Movement(Affection:10)","Never mind"),2)
    IfPlayerPicksChoice(0,null)
     If(1,3307,0,10,1)
      355("call_novel_scene(5351)")
      EndEventProcessing()
      0()
     Else()
      ShowMessageFace("seaanemone_fc1",0,0,2,22)
      ShowMessage("\\n<アネモ (Affection:\\V[3307])>またにしない……？")
      0()
     EndIf()
     0()
    IfPlayerPicksChoice(1,null)
     0()
    404()
    0()
   EndIf()
   If(1,11,0,4,1)
    PictureClear(5)
    EndEventProcessing()
    0()
   EndIf()
   0()
  EndLoop()
  0()
 PAGE   2
  // condition: party contains actor #307
  0()



EVENT   24
 PAGE   1
  RunCommonEvent(120)
  0()



EVENT   25
 PAGE   1
  // condition: switch 1580 is ON
  PictureDisplay(5,"80_mob_ozyou_st01",0,0,0,0,100,100,0,0)
  PictureMove(5,null,0,0,0,0,100,100,255,0,30,true)
  355("actor_label_jump")
  ShowMessageFace("mob_ozyou_fc1",0,0,2,1)
  ShowMessage("\\n<アレリア (Affection:\\V[3580])>わたくしに御用でしょうか？")
  ShowMessage("連れ出させてくれるなら、嬉しいですわ……")
  JumpToLabel("メニュー")
  DefineLabel("メニュー")
  ShowChoices(strings("Add to party","Battle fuck","Never mind"),3)
  IfPlayerPicksChoice(0,null)
   PictureClear(5)
   355("move_actor_ex(580)")
   EndEventProcessing()
   0()
  IfPlayerPicksChoice(1,null)
   ChangeSwitch(2331,2331,0)
   RunCommonEvent(7301)
   ChangeSwitch(2331,2331,1)
   PictureClear(5)
   241(bytes(0x04,0x08,0x6f,0x3a,0x0d,0x52,0x50,0x47,0x3a,0x3a,0x42,0x47,0x4d,0x08,0x3a,0x0a,0x40,0x6e,0x61,0x6d,0x65,0x49,0x22,0x08,0x75,0x6d,0x69,0x06,0x3a,0x06,0x45,0x54,0x3a,0x0c,0x40,0x76,0x6f,0x6c,0x75,0x6d,0x65,0x69,0x69,0x3a,0x0b,0x40,0x70,0x69,0x74,0x63,0x68,0x69,0x69))
   EndEventProcessing()
   0()
  IfPlayerPicksChoice(2,null)
   PictureClear(5)
   241(bytes(0x04,0x08,0x6f,0x3a,0x0d,0x52,0x50,0x47,0x3a,0x3a,0x42,0x47,0x4d,0x08,0x3a,0x0a,0x40,0x6e,0x61,0x6d,0x65,0x49,0x22,0x08,0x75,0x6d,0x69,0x06,0x3a,0x06,0x45,0x54,0x3a,0x0c,0x40,0x76,0x6f,0x6c,0x75,0x6d,0x65,0x69,0x69,0x3a,0x0b,0x40,0x70,0x69,0x74,0x63,0x68,0x69,0x69))
   EndEventProcessing()
   0()
  404()
  0()
 PAGE   2
  // condition: party contains actor #580
  0()



EVENT   26
 PAGE   1
  // condition: switch 1583 is ON
  PictureDisplay(5,"80_mob_kaizoku1_st01",0,0,0,0,100,100,0,0)
  PictureMove(5,null,0,0,0,0,100,100,255,0,30,true)
  355("actor_label_jump")
  ShowMessageFace("mob_kaizoku1_fc1",0,0,2,1)
  ShowMessage("\\n<アリアドネ (Affection:\\V[3583])>さあ、行くぜ！")
  ShowMessage("次はどこを襲えばいいんだ？")
  JumpToLabel("メニュー")
  DefineLabel("メニュー")
  ShowChoices(strings("Add to party","Battle fuck","Never mind"),3)
  IfPlayerPicksChoice(0,null)
   PictureClear(5)
   355("move_actor_ex(583)")
   EndEventProcessing()
   0()
  IfPlayerPicksChoice(1,null)
   ChangeSwitch(2331,2331,0)
   RunCommonEvent(7331)
   ChangeSwitch(2331,2331,1)
   PictureClear(5)
   241(bytes(0x04,0x08,0x6f,0x3a,0x0d,0x52,0x50,0x47,0x3a,0x3a,0x42,0x47,0x4d,0x08,0x3a,0x0a,0x40,0x6e,0x61,0x6d,0x65,0x49,0x22,0x08,0x75,0x6d,0x69,0x06,0x3a,0x06,0x45,0x54,0x3a,0x0c,0x40,0x76,0x6f,0x6c,0x75,0x6d,0x65,0x69,0x69,0x3a,0x0b,0x40,0x70,0x69,0x74,0x63,0x68,0x69,0x69))
   EndEventProcessing()
   0()
  IfPlayerPicksChoice(2,null)
   PictureClear(5)
   241(bytes(0x04,0x08,0x6f,0x3a,0x0d,0x52,0x50,0x47,0x3a,0x3a,0x42,0x47,0x4d,0x08,0x3a,0x0a,0x40,0x6e,0x61,0x6d,0x65,0x49,0x22,0x08,0x75,0x6d,0x69,0x06,0x3a,0x06,0x45,0x54,0x3a,0x0c,0x40,0x76,0x6f,0x6c,0x75,0x6d,0x65,0x69,0x69,0x3a,0x0b,0x40,0x70,0x69,0x74,0x63,0x68,0x69,0x69))
   EndEventProcessing()
   0()
  404()
  0()
 PAGE   2
  // condition: party contains actor #583
  0()



EVENT   27
 PAGE   1
  // condition: switch 1585 is ON
  PictureDisplay(5,"80_mob_kaizoku3_st01",0,0,0,0,100,100,0,0)
  PictureMove(5,null,0,0,0,0,100,100,255,0,30,true)
  355("actor_label_jump")
  ShowMessageFace("mob_kaizoku3_fc1",1,0,2,1)
  ShowMessage("\\n<グロリア (Affection:\\V[3585])>酒の準備はしたかい？")
  ShowMessage("それじゃあ、いざ出発だよっ！")
  JumpToLabel("メニュー")
  DefineLabel("メニュー")
  ShowChoices(strings("Add to party","Battle fuck","Never mind"),3)
  IfPlayerPicksChoice(0,null)
   PictureClear(5)
   355("move_actor_ex(585)")
   EndEventProcessing()
   0()
  IfPlayerPicksChoice(1,null)
   ChangeSwitch(2331,2331,0)
   RunCommonEvent(7351)
   ChangeSwitch(2331,2331,1)
   PictureClear(5)
   241(bytes(0x04,0x08,0x6f,0x3a,0x0d,0x52,0x50,0x47,0x3a,0x3a,0x42,0x47,0x4d,0x08,0x3a,0x0a,0x40,0x6e,0x61,0x6d,0x65,0x49,0x22,0x08,0x75,0x6d,0x69,0x06,0x3a,0x06,0x45,0x54,0x3a,0x0c,0x40,0x76,0x6f,0x6c,0x75,0x6d,0x65,0x69,0x69,0x3a,0x0b,0x40,0x70,0x69,0x74,0x63,0x68,0x69,0x69))
   EndEventProcessing()
   0()
  IfPlayerPicksChoice(2,null)
   PictureClear(5)
   241(bytes(0x04,0x08,0x6f,0x3a,0x0d,0x52,0x50,0x47,0x3a,0x3a,0x42,0x47,0x4d,0x08,0x3a,0x0a,0x40,0x6e,0x61,0x6d,0x65,0x49,0x22,0x08,0x75,0x6d,0x69,0x06,0x3a,0x06,0x45,0x54,0x3a,0x0c,0x40,0x76,0x6f,0x6c,0x75,0x6d,0x65,0x69,0x69,0x3a,0x0b,0x40,0x70,0x69,0x74,0x63,0x68,0x69,0x69))
   EndEventProcessing()
   0()
  404()
  0()
 PAGE   2
  // condition: party contains actor #585
  0()



EVENT   28
 PAGE   1
  // condition: switch 1584 is ON
  PictureDisplay(5,"80_mob_kaizoku2_st01",0,0,0,0,100,100,0,0)
  PictureMove(5,null,0,0,0,0,100,100,255,0,30,true)
  355("actor_label_jump")
  ShowMessageFace("mob_kaizoku2_fc1",0,0,2,1)
  ShowMessage("\\n<クレスタ (Affection:\\V[3584])>あたしの銃は、百発百中！")
  ShowMessage("どんな敵でも、狙い撃ちだよ？")
  JumpToLabel("メニュー")
  DefineLabel("メニュー")
  ShowChoices(strings("Add to party","Battle fuck","Never mind"),3)
  IfPlayerPicksChoice(0,null)
   PictureClear(5)
   355("move_actor_ex(584)")
   EndEventProcessing()
   0()
  IfPlayerPicksChoice(1,null)
   ChangeSwitch(2331,2331,0)
   RunCommonEvent(7341)
   ChangeSwitch(2331,2331,1)
   PictureClear(5)
   241(bytes(0x04,0x08,0x6f,0x3a,0x0d,0x52,0x50,0x47,0x3a,0x3a,0x42,0x47,0x4d,0x08,0x3a,0x0a,0x40,0x6e,0x61,0x6d,0x65,0x49,0x22,0x08,0x75,0x6d,0x69,0x06,0x3a,0x06,0x45,0x54,0x3a,0x0c,0x40,0x76,0x6f,0x6c,0x75,0x6d,0x65,0x69,0x69,0x3a,0x0b,0x40,0x70,0x69,0x74,0x63,0x68,0x69,0x69))
   EndEventProcessing()
   0()
  IfPlayerPicksChoice(2,null)
   PictureClear(5)
   241(bytes(0x04,0x08,0x6f,0x3a,0x0d,0x52,0x50,0x47,0x3a,0x3a,0x42,0x47,0x4d,0x08,0x3a,0x0a,0x40,0x6e,0x61,0x6d,0x65,0x49,0x22,0x08,0x75,0x6d,0x69,0x06,0x3a,0x06,0x45,0x54,0x3a,0x0c,0x40,0x76,0x6f,0x6c,0x75,0x6d,0x65,0x69,0x69,0x3a,0x0b,0x40,0x70,0x69,0x74,0x63,0x68,0x69,0x69))
   EndEventProcessing()
   0()
  404()
  0()
 PAGE   2
  // condition: party contains actor #584
  0()
