


EVENT   1
 PAGE   1
  0()
 PAGE   2
  // condition: switch 35 is ON
  0()



EVENT   2
 PAGE   1
  0()
 PAGE   2
  // condition: switch 35 is ON
  0()



EVENT   3
 PAGE   1
  0()



EVENT   4
 PAGE   1
  0()



EVENT   5
 PAGE   1
  0()

EVENT   7
 PAGE   1
  0()
 PAGE   2
  // condition: switch 31 is ON
  0()



EVENT   8
 PAGE   1
  0()
 PAGE   2
  // condition: switch 33 is ON
  0()
 PAGE   3
  // condition: switch 34 is ON
  0()



EVENT   9
 PAGE   1
  0()



EVENT   10
 PAGE   1
  0()



EVENT   12
 PAGE   1
  ShowMessageFace("",0,0,2,1)
  ShowMessage("周囲の混沌が消散した！")
  ShowMessageFace("alice_fc6",0,0,2,2)
  ShowMessage("\\n<Alice>これは……カオスを中和しているだと！？")
  ShowMessageFace("astaroth_fc1",2,0,2,3)
  ShowMessage("\\n<アスタロト>侵蝕が……消えていく……")
  PictureDisplay(5,"80_adramelek_st28",0,0,0,0,100,100,0,0)
  PictureMove(5,null,0,0,0,0,100,100,255,0,30,true)
  ShowMessageFace("adramelek_fc2",7,0,2,4)
  ShowMessage("\\n<アドラメレク>■■■■■■■■……！！")
  PictureClear(5)
  Wait(60)
  212(4,561,false)
  Wait(60)
  ChangeSwitch(31,31,0)
  ShowMessageFace("",0,0,2,5)
  ShowMessage("アドラメレクは粒子となって消滅した……")
  PictureDisplay(5,"80_soniachaos_st04",0,0,0,0,100,100,0,0)
  PictureMove(5,null,0,0,0,0,100,100,255,0,30,true)
  ShowMessageFace("soniachaos_fc1",3,0,2,6)
  ShowMessage("\\n<ソニアカオス>■■■■■……")
  PictureClear(5)
  Wait(60)
  212(5,561,false)
  Wait(60)
  250(bytes(0x04,0x08,0x6f,0x3a,0x0c,0x52,0x50,0x47,0x3a,0x3a,0x53,0x45,0x08,0x3a,0x0a,0x40,0x6e,0x61,0x6d,0x65,0x49,0x22,0x0d,0x6d,0x6f,0x6e,0x5f,0x64,0x6f,0x77,0x6e,0x06,0x3a,0x06,0x45,0x54,0x3a,0x0b,0x40,0x70,0x69,0x74,0x63,0x68,0x69,0x69,0x3a,0x0c,0x40,0x76,0x6f,0x6c,0x75,0x6d,0x65,0x69,0x69))
  ChangeSwitch(32,32,0)
  ShowMessageFace("",0,0,2,7)
  ShowMessage("ソニアカオスの体が崩れ、中からソニアの姿が現れる！")
  ShowMessage("ソニアはその場に倒れ伏した――")
  ShowMessageFace("sonia_fc3",5,0,2,8)
  ShowMessage("\\n<Sonya>……………………")
  205(1,bytes(0x04,0x08,0x6f,0x3a,0x13,0x52,0x50,0x47,0x3a,0x3a,0x4d,0x6f,0x76,0x65,0x52,0x6f,0x75,0x74,0x65,0x09,0x3a,0x0c,0x40,0x72,0x65,0x70,0x65,0x61,0x74,0x46,0x3a,0x0f,0x40,0x73,0x6b,0x69,0x70,0x70,0x61,0x62,0x6c,0x65,0x46,0x3a,0x0a,0x40,0x77,0x61,0x69,0x74,0x46,0x3a,0x0a,0x40,0x6c,0x69,0x73,0x74,0x5b,0x07,0x6f,0x3a,0x15,0x52,0x50,0x47,0x3a,0x3a,0x4d,0x6f,0x76,0x65,0x43,0x6f,0x6d,0x6d,0x61,0x6e,0x64,0x07,0x3a,0x0a,0x40,0x63,0x6f,0x64,0x65,0x69,0x16,0x3a,0x10,0x40,0x70,0x61,0x72,0x61,0x6d,0x65,0x74,0x65,0x72,0x73,0x5b,0x00,0x6f,0x3b,0x0a,0x07,0x3b,0x0b,0x69,0x00,0x3b,0x0c,0x5b,0x00))
  205(2,bytes(0x04,0x08,0x6f,0x3a,0x13,0x52,0x50,0x47,0x3a,0x3a,0x4d,0x6f,0x76,0x65,0x52,0x6f,0x75,0x74,0x65,0x09,0x3a,0x0c,0x40,0x72,0x65,0x70,0x65,0x61,0x74,0x46,0x3a,0x0f,0x40,0x73,0x6b,0x69,0x70,0x70,0x61,0x62,0x6c,0x65,0x46,0x3a,0x0a,0x40,0x77,0x61,0x69,0x74,0x46,0x3a,0x0a,0x40,0x6c,0x69,0x73,0x74,0x5b,0x07,0x6f,0x3a,0x15,0x52,0x50,0x47,0x3a,0x3a,0x4d,0x6f,0x76,0x65,0x43,0x6f,0x6d,0x6d,0x61,0x6e,0x64,0x07,0x3a,0x0a,0x40,0x63,0x6f,0x64,0x65,0x69,0x16,0x3a,0x10,0x40,0x70,0x61,0x72,0x61,0x6d,0x65,0x74,0x65,0x72,0x73,0x5b,0x00,0x6f,0x3b,0x0a,0x07,0x3b,0x0b,0x69,0x00,0x3b,0x0c,0x5b,0x00))
  205(3,bytes(0x04,0x08,0x6f,0x3a,0x13,0x52,0x50,0x47,0x3a,0x3a,0x4d,0x6f,0x76,0x65,0x52,0x6f,0x75,0x74,0x65,0x09,0x3a,0x0c,0x40,0x72,0x65,0x70,0x65,0x61,0x74,0x46,0x3a,0x0f,0x40,0x73,0x6b,0x69,0x70,0x70,0x61,0x62,0x6c,0x65,0x46,0x3a,0x0a,0x40,0x77,0x61,0x69,0x74,0x46,0x3a,0x0a,0x40,0x6c,0x69,0x73,0x74,0x5b,0x07,0x6f,0x3a,0x15,0x52,0x50,0x47,0x3a,0x3a,0x4d,0x6f,0x76,0x65,0x43,0x6f,0x6d,0x6d,0x61,0x6e,0x64,0x07,0x3a,0x0a,0x40,0x63,0x6f,0x64,0x65,0x69,0x16,0x3a,0x10,0x40,0x70,0x61,0x72,0x61,0x6d,0x65,0x74,0x65,0x72,0x73,0x5b,0x00,0x6f,0x3b,0x0a,0x07,0x3b,0x0b,0x69,0x00,0x3b,0x0c,0x5b,0x00))
  205(9,bytes(0x04,0x08,0x6f,0x3a,0x13,0x52,0x50,0x47,0x3a,0x3a,0x4d,0x6f,0x76,0x65,0x52,0x6f,0x75,0x74,0x65,0x09,0x3a,0x0c,0x40,0x72,0x65,0x70,0x65,0x61,0x74,0x46,0x3a,0x0f,0x40,0x73,0x6b,0x69,0x70,0x70,0x61,0x62,0x6c,0x65,0x46,0x3a,0x0a,0x40,0x77,0x61,0x69,0x74,0x46,0x3a,0x0a,0x40,0x6c,0x69,0x73,0x74,0x5b,0x07,0x6f,0x3a,0x15,0x52,0x50,0x47,0x3a,0x3a,0x4d,0x6f,0x76,0x65,0x43,0x6f,0x6d,0x6d,0x61,0x6e,0x64,0x07,0x3a,0x0a,0x40,0x63,0x6f,0x64,0x65,0x69,0x09,0x3a,0x10,0x40,0x70,0x61,0x72,0x61,0x6d,0x65,0x74,0x65,0x72,0x73,0x5b,0x00,0x6f,0x3b,0x0a,0x07,0x3b,0x0b,0x69,0x00,0x3b,0x0c,0x5b,0x00))
  205(10,bytes(0x04,0x08,0x6f,0x3a,0x13,0x52,0x50,0x47,0x3a,0x3a,0x4d,0x6f,0x76,0x65,0x52,0x6f,0x75,0x74,0x65,0x09,0x3a,0x0c,0x40,0x72,0x65,0x70,0x65,0x61,0x74,0x46,0x3a,0x0f,0x40,0x73,0x6b,0x69,0x70,0x70,0x61,0x62,0x6c,0x65,0x46,0x3a,0x0a,0x40,0x77,0x61,0x69,0x74,0x54,0x3a,0x0a,0x40,0x6c,0x69,0x73,0x74,0x5b,0x07,0x6f,0x3a,0x15,0x52,0x50,0x47,0x3a,0x3a,0x4d,0x6f,0x76,0x65,0x43,0x6f,0x6d,0x6d,0x61,0x6e,0x64,0x07,0x3a,0x0a,0x40,0x63,0x6f,0x64,0x65,0x69,0x09,0x3a,0x10,0x40,0x70,0x61,0x72,0x61,0x6d,0x65,0x74,0x65,0x72,0x73,0x5b,0x00,0x6f,0x3b,0x0a,0x07,0x3b,0x0b,0x69,0x00,0x3b,0x0c,0x5b,0x00))
  ShowMessageFace("ruka_fc1",0,0,2,9)
  ShowMessage("\\n<Luka>ソニア！！")
  ShowMessageFace("alice_fc6",0,0,2,10)
  ShowMessage("\\n<Alice>意識を失っているが……命に別状はないようだな。")
  ShowMessage("精神面の影響は分からんが……")
  PictureDisplay(5,"80_nurukox_st08",0,0,0,0,100,100,0,0)
  PictureMove(5,null,0,0,0,0,100,100,255,0,60,true)
  ShowMessageFace("nurukox_fc1",7,0,2,11)
  ShowMessage("\\n<Nuruko>……………………")
  ShowMessageFace("",0,0,2,12)
  ShowMessage("ヌルコの体がしおれていく――")
  205(9,bytes(0x04,0x08,0x6f,0x3a,0x13,0x52,0x50,0x47,0x3a,0x3a,0x4d,0x6f,0x76,0x65,0x52,0x6f,0x75,0x74,0x65,0x09,0x3a,0x0c,0x40,0x72,0x65,0x70,0x65,0x61,0x74,0x46,0x3a,0x0f,0x40,0x73,0x6b,0x69,0x70,0x70,0x61,0x62,0x6c,0x65,0x46,0x3a,0x0a,0x40,0x77,0x61,0x69,0x74,0x46,0x3a,0x0a,0x40,0x6c,0x69,0x73,0x74,0x5b,0x07,0x6f,0x3a,0x15,0x52,0x50,0x47,0x3a,0x3a,0x4d,0x6f,0x76,0x65,0x43,0x6f,0x6d,0x6d,0x61,0x6e,0x64,0x07,0x3a,0x0a,0x40,0x63,0x6f,0x64,0x65,0x69,0x17,0x3a,0x10,0x40,0x70,0x61,0x72,0x61,0x6d,0x65,0x74,0x65,0x72,0x73,0x5b,0x00,0x6f,0x3b,0x0a,0x07,0x3b,0x0b,0x69,0x00,0x3b,0x0c,0x5b,0x00))
  205(10,bytes(0x04,0x08,0x6f,0x3a,0x13,0x52,0x50,0x47,0x3a,0x3a,0x4d,0x6f,0x76,0x65,0x52,0x6f,0x75,0x74,0x65,0x09,0x3a,0x0c,0x40,0x72,0x65,0x70,0x65,0x61,0x74,0x46,0x3a,0x0f,0x40,0x73,0x6b,0x69,0x70,0x70,0x61,0x62,0x6c,0x65,0x46,0x3a,0x0a,0x40,0x77,0x61,0x69,0x74,0x54,0x3a,0x0a,0x40,0x6c,0x69,0x73,0x74,0x5b,0x07,0x6f,0x3a,0x15,0x52,0x50,0x47,0x3a,0x3a,0x4d,0x6f,0x76,0x65,0x43,0x6f,0x6d,0x6d,0x61,0x6e,0x64,0x07,0x3a,0x0a,0x40,0x63,0x6f,0x64,0x65,0x69,0x17,0x3a,0x10,0x40,0x70,0x61,0x72,0x61,0x6d,0x65,0x74,0x65,0x72,0x73,0x5b,0x00,0x6f,0x3b,0x0a,0x07,0x3b,0x0b,0x69,0x00,0x3b,0x0c,0x5b,0x00))
  250(bytes(0x04,0x08,0x6f,0x3a,0x0c,0x52,0x50,0x47,0x3a,0x3a,0x53,0x45,0x08,0x3a,0x0a,0x40,0x6e,0x61,0x6d,0x65,0x49,0x22,0x0e,0x44,0x61,0x72,0x6b,0x6e,0x65,0x73,0x73,0x32,0x06,0x3a,0x06,0x45,0x54,0x3a,0x0b,0x40,0x70,0x69,0x74,0x63,0x68,0x69,0x69,0x3a,0x0c,0x40,0x76,0x6f,0x6c,0x75,0x6d,0x65,0x69,0x55))
  PictureDisplay(10,"sys_noise",0,0,0,0,100,100,0,0)
  PictureMove(10,null,0,0,0,0,100,100,255,0,60,true)
  Wait(30)
  ChangeSwitch(33,33,0)
  PictureDisplay(5,"80_nuruko_st03",0,0,0,0,100,100,255,0)
  PictureMove(10,null,0,0,0,0,100,100,0,0,60,true)
  PictureClear(10)
  ShowMessageFace("nuruko_fc1",2,0,2,13)
  ShowMessage("\\n<Nuruko>……………………")
  PictureDisplay(5,"80_nuruko_st01",0,0,0,0,100,100,255,0)
  ShowMessageFace("nuruko_fc1",0,0,2,14)
  ShowMessage("\\n<Nuruko>きゅっ！")
  PictureClear(5)
  205(8,bytes(0x04,0x08,0x6f,0x3a,0x13,0x52,0x50,0x47,0x3a,0x3a,0x4d,0x6f,0x76,0x65,0x52,0x6f,0x75,0x74,0x65,0x09,0x3a,0x0c,0x40,0x72,0x65,0x70,0x65,0x61,0x74,0x46,0x3a,0x0f,0x40,0x73,0x6b,0x69,0x70,0x70,0x61,0x62,0x6c,0x65,0x46,0x3a,0x0a,0x40,0x77,0x61,0x69,0x74,0x54,0x3a,0x0a,0x40,0x6c,0x69,0x73,0x74,0x5b,0x07,0x6f,0x3a,0x15,0x52,0x50,0x47,0x3a,0x3a,0x4d,0x6f,0x76,0x65,0x43,0x6f,0x6d,0x6d,0x61,0x6e,0x64,0x07,0x3a,0x0a,0x40,0x63,0x6f,0x64,0x65,0x69,0x07,0x3a,0x10,0x40,0x70,0x61,0x72,0x61,0x6d,0x65,0x74,0x65,0x72,0x73,0x5b,0x00,0x6f,0x3b,0x0a,0x07,0x3b,0x0b,0x69,0x00,0x3b,0x0c,0x5b,0x00))
  ChangeSwitch(34,34,0)
  ShowMessageFace("alice_fc6",0,0,2,15)
  ShowMessage("\\n<Alice>何か分からんが、我らを助けてくれたのか……？")
  ShowMessage("しかし、今の姿はいったい……")
  ShowMessageFace("ruka_fc1",0,0,2,16)
  ShowMessage("\\n<Luka>シルフ達は、混沌の精霊だって言ってたけど……")
  ShowMessageFace("",0,0,2,17)
  ShowMessage("ともかく、この世界を覆いつつあった混沌は完全に中和された。")
  ShowMessage("なんとか僕達は、破滅の危機を乗り切ったのだ――")
  Wait(90)
  241(bytes(0x04,0x08,0x6f,0x3a,0x0d,0x52,0x50,0x47,0x3a,0x3a,0x42,0x47,0x4d,0x08,0x3a,0x0a,0x40,0x6e,0x61,0x6d,0x65,0x49,0x22,0x14,0x73,0x63,0x65,0x6e,0x65,0x5f,0x65,0x70,0x69,0x6c,0x6f,0x67,0x75,0x65,0x31,0x06,0x3a,0x06,0x45,0x54,0x3a,0x0c,0x40,0x76,0x6f,0x6c,0x75,0x6d,0x65,0x69,0x69,0x3a,0x0b,0x40,0x70,0x69,0x74,0x63,0x68,0x69,0x69))
  PictureDisplay(5,"80_lilith2_st01b",0,0,0,0,100,100,0,0)
  PictureMove(5,null,0,0,0,0,100,100,255,0,30,true)
  ShowMessageFace("lilith2_fc1",0,0,2,18)
  ShowMessage("\\n<Lilith>……どうやら、危機は回避されたようですね。")
  ShowMessage("あなた達の奮戦に、礼を言わねばなりません。")
  PictureDisplay(5,"80_lilith2_st01b",0,0,-150,0,100,100,255,0)
  PictureDisplay(6,"80_morrigan_st01b",0,0,150,0,100,100,255,0)
  ShowMessageFace("morrigan_fc1",0,0,2,19)
  ShowMessage("\\n<Morrigan>アポトーシスやら混沌の精霊を仲間にしてるなんて、イカれてるな！")
  ShowMessage("お前等、本当に面白いぜ！")
  PictureDisplay(6,"80_astaroth_st03b",0,0,150,0,100,100,255,0)
  ShowMessageFace("astaroth_fc1",2,0,2,20)
  ShowMessage("\\n<アスタロト>でも、そのXX型アポトーシスはそのままには出来ないわね。")
  ShowMessage("後顧の憂いを断つためにも……")
  ShowMessageFace("ruka_fc1",0,0,2,21)
  ShowMessage("\\n<Luka>……そうはさせない。")
  ShowMessage("ソニアをどうにかしようって言うのなら、僕が相手になるよ。")
  ShowMessageFace("lilith2_fc1",0,0,2,22)
  ShowMessage("\\n<Lilith>やはり、そう来ますか……")
  ShowMessage("今はことさら、事を荒立てるつもりはありません。")
  ShowMessageFace("astaroth_fc1",2,0,2,23)
  ShowMessage("\\n<アスタロト>アドラメレクとの戦いで、私達のダメージも大きいわね……")
  ShowMessage("モリガン、体は大丈夫？")
  PictureDisplay(6,"80_morrigan_st03b",0,0,150,0,100,100,255,0)
  ShowMessageFace("morrigan_fc1",2,0,2,24)
  ShowMessage("\\n<Morrigan>大丈夫だ、って言いたいところだが……")
  ShowMessage("相当にパワーを吸われちまったな。")
  ShowMessageFace("lilith2_fc1",0,0,2,25)
  ShowMessage("\\n<Lilith>それでは、しばらく休養が必要ですね。")
  ShowMessage("ならば――")
  ShowMessageFace("lilith2_fc1",0,0,2,26)
  ShowMessage("\\n<Lilith>モリガン、あなたは別行動を取りなさい。")
  ShowMessage("勇者ルカに同行し、その行動を監視するのです。")
  PictureDisplay(6,"80_morrigan_st02b",0,0,150,0,100,100,255,0)
  ShowMessageFace("morrigan_fc1",1,0,2,27)
  ShowMessage("\\n<Morrigan>……仕方ないか、これじゃ姉貴達の足を引っ張っちまうもんな。")
  ShowMessage("そういうわけで勇者ども、あたしが面倒見てやるぜ。")
  ShowMessageFace("alice_fc5",6,0,2,28)
  ShowMessage("\\n<Alice>貴様が、我々の旅に同行するだと……？")
  ShowMessageFace("ruka_fc1",0,0,2,29)
  ShowMessage("\\n<Luka>ラダイト村で、何をしたか忘れたのか？")
  ShowMessage("そんな奴を仲間にするなんて……")
  ShowMessageFace("lilith2_fc1",0,0,2,30)
  ShowMessage("\\n<Lilith>さっき言った通り……")
  ShowMessage("それが、世界を救う唯一の手段なのです。")
  ShowMessageFace("lilith2_fc1",0,0,2,31)
  ShowMessage("\\n<Lilith>勇者ルカ、あなたに知ってもらいたいのですよ。")
  ShowMessage("私達は、嘘偽りなく世界を救うために動いていると……")
  ShowMessageFace("lilith2_fc1",0,0,2,32)
  ShowMessage("\\n<Lilith>……そのため、妹を側に置いて下さい。")
  ShowMessage("私達の事を、理解してもらいたいのです。")
  ShowMessageFace("alice_fc5",2,0,2,33)
  ShowMessage("\\n<Alice>……ソニアやヌルコを監視する意図もあるのだろう。")
  ShowMessage("何かあった場合、即座に手を下せるようにな……")
  PictureDisplay(6,"80_astaroth_st01b",0,0,150,0,100,100,255,0)
  ShowMessageFace("astaroth_fc1",0,0,2,34)
  ShowMessage("\\n<アスタロト>それも否定はしないけど……")
  ShowMessage("あなた達を仲間に引き込みたいことに、偽りはないわ。")
  ShowMessageFace("astaroth_fc1",0,0,2,35)
  ShowMessage("\\n<アスタロト>勇者ルカは、正史で大きな役割を果たした存在。")
  ShowMessage("私達の目的に同調してくれるならば、こんなに心強い事はないわ。")
  ShowMessageFace("lilith2_fc1",0,0,2,36)
  ShowMessage("\\n<Lilith>女神イリアス側の陣営は、恐ろしい計画を進めています。")
  ShowMessage("その阻止も含め、私達は手を組んで戦うべきなのですよ……")
  PictureClear(6)
  PictureDisplay(5,"80_morrigan_st01b",0,0,0,0,100,100,255,0)
  ShowMessageFace("morrigan_fc1",0,0,2,37)
  ShowMessage("\\n<Morrigan>まあ、決断の時はまだ先だ。")
  ShowMessage("その第一歩として、あたしを気前良く受け入れろよ。")
  ShowMessageFace("alice_fc5",0,0,2,38)
  ShowMessage("\\n<Alice>モリガンを側に置く事で、情報を引き出せるかもしれん……")
  ShowMessage("それに、戦力は少しでも多い方が良い……")
  ShowMessageFace("ruka_fc1",0,0,2,39)
  ShowMessage("\\n<Luka>……………………")
  ShowChoices(strings("モリガンを仲間にする","拒絶する"),2)
  IfPlayerPicksChoice(0,null)
   ShowMessageFace("morrigan_fc1",1,0,2,40)
   ShowMessage("\\n<Morrigan>それじゃあ、これからは仲間だな。")
   ShowMessage("仲良くしようぜ。")
   0()
  IfPlayerPicksChoice(1,null)
   ShowMessageFace("alice_fc5",0,0,2,41)
   ShowMessage("\\n<Alice>本当にいいのか……？")
   ShowMessage("我々の中に、事情に通じている者がいた方が良いのだが……")
   ShowMessageFace("morrigan_fc1",1,0,2,42)
   ShowMessage("\\n<Morrigan>そうそう、決して損はさせないぜ。")
   ShowMessage("仲間として、たっぷり気持ちいいことしてやるよ。")
   ShowMessageFace("ruka_fc1",0,0,2,43)
   ShowMessage("\\n<Luka>……………………")
   ShowChoices(strings("モリガンを仲間にする","拒絶する"),2)
   IfPlayerPicksChoice(0,null)
    ShowMessageFace("morrigan_fc1",1,0,2,44)
    ShowMessage("\\n<Morrigan>それじゃあ、これからは仲間だな。")
    ShowMessage("仲良くしようぜ。")
    0()
   IfPlayerPicksChoice(1,null)
    ShowMessageFace("morrigan_fc1",2,0,2,45)
    ShowMessage("\\n<Morrigan>なんで、そんなに強情を張るんだ……？")
    ShowMessage("だったら、ムリヤリにでもついて行くぜ！")
    0()
   404()
   0()
  404()
  PictureClear(5)
  205(3,bytes(0x04,0x08,0x6f,0x3a,0x13,0x52,0x50,0x47,0x3a,0x3a,0x4d,0x6f,0x76,0x65,0x52,0x6f,0x75,0x74,0x65,0x09,0x3a,0x0c,0x40,0x72,0x65,0x70,0x65,0x61,0x74,0x46,0x3a,0x0f,0x40,0x73,0x6b,0x69,0x70,0x70,0x61,0x62,0x6c,0x65,0x46,0x3a,0x0a,0x40,0x77,0x61,0x69,0x74,0x54,0x3a,0x0a,0x40,0x6c,0x69,0x73,0x74,0x5b,0x09,0x6f,0x3a,0x15,0x52,0x50,0x47,0x3a,0x3a,0x4d,0x6f,0x76,0x65,0x43,0x6f,0x6d,0x6d,0x61,0x6e,0x64,0x07,0x3a,0x0a,0x40,0x63,0x6f,0x64,0x65,0x69,0x07,0x3a,0x10,0x40,0x70,0x61,0x72,0x61,0x6d,0x65,0x74,0x65,0x72,0x73,0x5b,0x00,0x6f,0x3b,0x0a,0x07,0x3b,0x0b,0x69,0x07,0x3b,0x0c,0x5b,0x00,0x6f,0x3b,0x0a,0x07,0x3b,0x0b,0x69,0x09,0x3b,0x0c,0x5b,0x00,0x6f,0x3b,0x0a,0x07,0x3b,0x0b,0x69,0x00,0x3b,0x0c,0x5b,0x00))
  355("add_actor_ex(382)")
  249(bytes(0x04,0x08,0x6f,0x3a,0x0c,0x52,0x50,0x47,0x3a,0x3a,0x4d,0x45,0x08,0x3a,0x0a,0x40,0x6e,0x61,0x6d,0x65,0x49,0x22,0x0c,0x66,0x61,0x6e,0x66,0x61,0x6c,0x65,0x06,0x3a,0x06,0x45,0x54,0x3a,0x0b,0x40,0x70,0x69,0x74,0x63,0x68,0x69,0x69,0x3a,0x0c,0x40,0x76,0x6f,0x6c,0x75,0x6d,0x65,0x69,0x69))
  ShowMessageFace("",0,0,2,46)
  ShowMessage("モリガンが仲間に加わった！")
  Wait(60)
  205(3,bytes(0x04,0x08,0x6f,0x3a,0x13,0x52,0x50,0x47,0x3a,0x3a,0x4d,0x6f,0x76,0x65,0x52,0x6f,0x75,0x74,0x65,0x09,0x3a,0x0c,0x40,0x72,0x65,0x70,0x65,0x61,0x74,0x46,0x3a,0x0f,0x40,0x73,0x6b,0x69,0x70,0x70,0x61,0x62,0x6c,0x65,0x46,0x3a,0x0a,0x40,0x77,0x61,0x69,0x74,0x54,0x3a,0x0a,0x40,0x6c,0x69,0x73,0x74,0x5b,0x07,0x6f,0x3a,0x15,0x52,0x50,0x47,0x3a,0x3a,0x4d,0x6f,0x76,0x65,0x43,0x6f,0x6d,0x6d,0x61,0x6e,0x64,0x07,0x3a,0x0a,0x40,0x63,0x6f,0x64,0x65,0x69,0x17,0x3a,0x10,0x40,0x70,0x61,0x72,0x61,0x6d,0x65,0x74,0x65,0x72,0x73,0x5b,0x00,0x6f,0x3b,0x0a,0x07,0x3b,0x0b,0x69,0x00,0x3b,0x0c,0x5b,0x00))
  PictureDisplay(5,"80_lilith2_st01b",0,0,0,0,100,100,0,0)
  PictureMove(5,null,0,0,0,0,100,100,255,0,30,true)
  ShowMessageFace("lilith2_fc1",0,0,2,47)
  ShowMessage("\\n<Lilith>勇者ルカ……あなたには近く、決断の時が訪れるでしょう。")
  ShowMessage("その際、我々の側についてくれる事を期待しています。")
  ShowMessageFace("ruka_fc1",0,0,2,48)
  ShowMessage("\\n<Luka>決断の時って……？")
  PictureDisplay(5,"80_lilith2_st01b",0,0,-150,0,100,100,255,0)
  PictureDisplay(6,"80_astaroth_st01b",0,0,150,0,100,100,255,0)
  ShowMessageFace("astaroth_fc1",0,0,2,49)
  ShowMessage("\\n<アスタロト>あなたの行く先には、大いなる選択が待っている……")
  ShowMessage("それを忘れない事ね。")
  ShowMessageFace("lilith2_fc1",0,0,2,50)
  ShowMessage("\\n<Lilith>……それではモリガン、彼らは任せましたよ。")
  ShowMessageFace("astaroth_fc1",0,0,2,51)
  ShowMessage("\\n<アスタロト>勇者をうっかり搾り殺してしまわないようにしなさいね。")
  ShowMessage("……それじゃあ、また。")
  PictureClear(5)
  PictureClear(6)
  Wait(60)
  250(bytes(0x04,0x08,0x6f,0x3a,0x0c,0x52,0x50,0x47,0x3a,0x3a,0x53,0x45,0x08,0x3a,0x0a,0x40,0x6e,0x61,0x6d,0x65,0x49,0x22,0x0e,0x6d,0x6f,0x6e,0x5f,0x77,0x69,0x6e,0x64,0x31,0x06,0x3a,0x06,0x45,0x54,0x3a,0x0b,0x40,0x70,0x69,0x74,0x63,0x68,0x69,0x69,0x3a,0x0c,0x40,0x76,0x6f,0x6c,0x75,0x6d,0x65,0x69,0x55))
  ChangeSwitch(35,35,0)
  ShowMessageFace("morrigan_fc1",0,0,2,52)
  ShowMessage("\\n<Morrigan>過保護だよな、うちの姉貴達――")
  205(3,bytes(0x04,0x08,0x6f,0x3a,0x13,0x52,0x50,0x47,0x3a,0x3a,0x4d,0x6f,0x76,0x65,0x52,0x6f,0x75,0x74,0x65,0x09,0x3a,0x0c,0x40,0x72,0x65,0x70,0x65,0x61,0x74,0x46,0x3a,0x0f,0x40,0x73,0x6b,0x69,0x70,0x70,0x61,0x62,0x6c,0x65,0x46,0x3a,0x0a,0x40,0x77,0x61,0x69,0x74,0x54,0x3a,0x0a,0x40,0x6c,0x69,0x73,0x74,0x5b,0x07,0x6f,0x3a,0x15,0x52,0x50,0x47,0x3a,0x3a,0x4d,0x6f,0x76,0x65,0x43,0x6f,0x6d,0x6d,0x61,0x6e,0x64,0x07,0x3a,0x0a,0x40,0x63,0x6f,0x64,0x65,0x69,0x18,0x3a,0x10,0x40,0x70,0x61,0x72,0x61,0x6d,0x65,0x74,0x65,0x72,0x73,0x5b,0x00,0x6f,0x3b,0x0a,0x07,0x3b,0x0b,0x69,0x00,0x3b,0x0c,0x5b,0x00))
  205(9,bytes(0x04,0x08,0x6f,0x3a,0x13,0x52,0x50,0x47,0x3a,0x3a,0x4d,0x6f,0x76,0x65,0x52,0x6f,0x75,0x74,0x65,0x09,0x3a,0x0c,0x40,0x72,0x65,0x70,0x65,0x61,0x74,0x46,0x3a,0x0f,0x40,0x73,0x6b,0x69,0x70,0x70,0x61,0x62,0x6c,0x65,0x46,0x3a,0x0a,0x40,0x77,0x61,0x69,0x74,0x46,0x3a,0x0a,0x40,0x6c,0x69,0x73,0x74,0x5b,0x07,0x6f,0x3a,0x15,0x52,0x50,0x47,0x3a,0x3a,0x4d,0x6f,0x76,0x65,0x43,0x6f,0x6d,0x6d,0x61,0x6e,0x64,0x07,0x3a,0x0a,0x40,0x63,0x6f,0x64,0x65,0x69,0x18,0x3a,0x10,0x40,0x70,0x61,0x72,0x61,0x6d,0x65,0x74,0x65,0x72,0x73,0x5b,0x00,0x6f,0x3b,0x0a,0x07,0x3b,0x0b,0x69,0x00,0x3b,0x0c,0x5b,0x00))
  205(10,bytes(0x04,0x08,0x6f,0x3a,0x13,0x52,0x50,0x47,0x3a,0x3a,0x4d,0x6f,0x76,0x65,0x52,0x6f,0x75,0x74,0x65,0x09,0x3a,0x0c,0x40,0x72,0x65,0x70,0x65,0x61,0x74,0x46,0x3a,0x0f,0x40,0x73,0x6b,0x69,0x70,0x70,0x61,0x62,0x6c,0x65,0x46,0x3a,0x0a,0x40,0x77,0x61,0x69,0x74,0x54,0x3a,0x0a,0x40,0x6c,0x69,0x73,0x74,0x5b,0x07,0x6f,0x3a,0x15,0x52,0x50,0x47,0x3a,0x3a,0x4d,0x6f,0x76,0x65,0x43,0x6f,0x6d,0x6d,0x61,0x6e,0x64,0x07,0x3a,0x0a,0x40,0x63,0x6f,0x64,0x65,0x69,0x18,0x3a,0x10,0x40,0x70,0x61,0x72,0x61,0x6d,0x65,0x74,0x65,0x72,0x73,0x5b,0x00,0x6f,0x3b,0x0a,0x07,0x3b,0x0b,0x69,0x00,0x3b,0x0c,0x5b,0x00))
  241(bytes(0x04,0x08,0x6f,0x3a,0x0d,0x52,0x50,0x47,0x3a,0x3a,0x42,0x47,0x4d,0x08,0x3a,0x0a,0x40,0x6e,0x61,0x6d,0x65,0x49,0x22,0x0a,0x6b,0x69,0x6b,0x69,0x32,0x06,0x3a,0x06,0x45,0x54,0x3a,0x0c,0x40,0x76,0x6f,0x6c,0x75,0x6d,0x65,0x69,0x69,0x3a,0x0b,0x40,0x70,0x69,0x74,0x63,0x68,0x69,0x69))
  ShowMessageFace("morrigan_fc1",2,0,2,53)
  ShowMessage("\\n<Morrigan>――おい！　アポトーシスが目を覚ますぞ！")
  Wait(30)
  ChangeSwitch(36,36,0)
  Wait(60)
  PictureDisplay(5,"80_sonia_m1_st11",0,0,0,0,100,100,0,0)
  PictureMove(5,null,0,0,0,0,100,100,255,0,60,true)
  ShowMessageFace("sonia_fc2",2,0,2,54)
  ShowMessage("\\n<Sonya>う～ん……あれ？　私、いったい……")
  ShowMessageFace("morrigan_fc1",2,0,2,55)
  ShowMessage("\\n<Morrigan>動くな！　そこから一歩でも動いたら殺す！")
  205(9,bytes(0x04,0x08,0x6f,0x3a,0x13,0x52,0x50,0x47,0x3a,0x3a,0x4d,0x6f,0x76,0x65,0x52,0x6f,0x75,0x74,0x65,0x09,0x3a,0x0c,0x40,0x72,0x65,0x70,0x65,0x61,0x74,0x46,0x3a,0x0f,0x40,0x73,0x6b,0x69,0x70,0x70,0x61,0x62,0x6c,0x65,0x46,0x3a,0x0a,0x40,0x77,0x61,0x69,0x74,0x46,0x3a,0x0a,0x40,0x6c,0x69,0x73,0x74,0x5b,0x07,0x6f,0x3a,0x15,0x52,0x50,0x47,0x3a,0x3a,0x4d,0x6f,0x76,0x65,0x43,0x6f,0x6d,0x6d,0x61,0x6e,0x64,0x07,0x3a,0x0a,0x40,0x63,0x6f,0x64,0x65,0x69,0x15,0x3a,0x10,0x40,0x70,0x61,0x72,0x61,0x6d,0x65,0x74,0x65,0x72,0x73,0x5b,0x00,0x6f,0x3b,0x0a,0x07,0x3b,0x0b,0x69,0x00,0x3b,0x0c,0x5b,0x00))
  205(10,bytes(0x04,0x08,0x6f,0x3a,0x13,0x52,0x50,0x47,0x3a,0x3a,0x4d,0x6f,0x76,0x65,0x52,0x6f,0x75,0x74,0x65,0x09,0x3a,0x0c,0x40,0x72,0x65,0x70,0x65,0x61,0x74,0x46,0x3a,0x0f,0x40,0x73,0x6b,0x69,0x70,0x70,0x61,0x62,0x6c,0x65,0x46,0x3a,0x0a,0x40,0x77,0x61,0x69,0x74,0x54,0x3a,0x0a,0x40,0x6c,0x69,0x73,0x74,0x5b,0x07,0x6f,0x3a,0x15,0x52,0x50,0x47,0x3a,0x3a,0x4d,0x6f,0x76,0x65,0x43,0x6f,0x6d,0x6d,0x61,0x6e,0x64,0x07,0x3a,0x0a,0x40,0x63,0x6f,0x64,0x65,0x69,0x17,0x3a,0x10,0x40,0x70,0x61,0x72,0x61,0x6d,0x65,0x74,0x65,0x72,0x73,0x5b,0x00,0x6f,0x3b,0x0a,0x07,0x3b,0x0b,0x69,0x00,0x3b,0x0c,0x5b,0x00))
  ShowMessageFace("ruka_fc1",0,0,2,56)
  ShowMessage("\\n<Luka>こっちのセリフだ！")
  ShowMessage("ソニアに手を出したら、絶対に許さない！")
  ShowMessageFace("alice_fc6",1,0,2,57)
  ShowMessage("\\n<Alice>落ち着け、二人とも！！")
  PictureDisplay(5,"80_sonia_m1_st19",0,0,0,0,100,100,255,0)
  ShowMessageFace("sonia_fc3",2,0,2,58)
  ShowMessage("\\n<Sonya>えっ、ちょっと……！！")
  ShowMessage("そのサキュバス、例のリリス三姉妹じゃない！")
  ShowMessageFace("sonia_fc3",2,0,2,59)
  ShowMessage("\\n<Sonya>なんで、モリガンがパーティにいるの！？")
  ShowMessage("それに、イリアス様はどこに……！？")
  205(9,bytes(0x04,0x08,0x6f,0x3a,0x13,0x52,0x50,0x47,0x3a,0x3a,0x4d,0x6f,0x76,0x65,0x52,0x6f,0x75,0x74,0x65,0x09,0x3a,0x0c,0x40,0x72,0x65,0x70,0x65,0x61,0x74,0x46,0x3a,0x0f,0x40,0x73,0x6b,0x69,0x70,0x70,0x61,0x62,0x6c,0x65,0x46,0x3a,0x0a,0x40,0x77,0x61,0x69,0x74,0x46,0x3a,0x0a,0x40,0x6c,0x69,0x73,0x74,0x5b,0x07,0x6f,0x3a,0x15,0x52,0x50,0x47,0x3a,0x3a,0x4d,0x6f,0x76,0x65,0x43,0x6f,0x6d,0x6d,0x61,0x6e,0x64,0x07,0x3a,0x0a,0x40,0x63,0x6f,0x64,0x65,0x69,0x18,0x3a,0x10,0x40,0x70,0x61,0x72,0x61,0x6d,0x65,0x74,0x65,0x72,0x73,0x5b,0x00,0x6f,0x3b,0x0a,0x07,0x3b,0x0b,0x69,0x00,0x3b,0x0c,0x5b,0x00))
  205(10,bytes(0x04,0x08,0x6f,0x3a,0x13,0x52,0x50,0x47,0x3a,0x3a,0x4d,0x6f,0x76,0x65,0x52,0x6f,0x75,0x74,0x65,0x09,0x3a,0x0c,0x40,0x72,0x65,0x70,0x65,0x61,0x74,0x46,0x3a,0x0f,0x40,0x73,0x6b,0x69,0x70,0x70,0x61,0x62,0x6c,0x65,0x46,0x3a,0x0a,0x40,0x77,0x61,0x69,0x74,0x54,0x3a,0x0a,0x40,0x6c,0x69,0x73,0x74,0x5b,0x07,0x6f,0x3a,0x15,0x52,0x50,0x47,0x3a,0x3a,0x4d,0x6f,0x76,0x65,0x43,0x6f,0x6d,0x6d,0x61,0x6e,0x64,0x07,0x3a,0x0a,0x40,0x63,0x6f,0x64,0x65,0x69,0x18,0x3a,0x10,0x40,0x70,0x61,0x72,0x61,0x6d,0x65,0x74,0x65,0x72,0x73,0x5b,0x00,0x6f,0x3b,0x0a,0x07,0x3b,0x0b,0x69,0x00,0x3b,0x0c,0x5b,0x00))
  ShowMessageFace("ruka_fc1",0,0,2,60)
  ShowMessage("\\n<Luka>まさか……覚えてないのか？")
  PictureDisplay(5,"80_sonia_m1_st11",0,0,0,0,100,100,255,0)
  ShowMessageFace("sonia_fc2",2,0,2,61)
  ShowMessage("\\n<Sonya>イリアス様の話を聞いてる最中に、意識が途切れちゃって……")
  ShowMessage("過去のレミナ研究所から戻ってきた直後くらいかな。")
  ShowMessageFace("ruka_fc1",0,0,2,62)
  ShowMessage("\\n<Luka>……………………")
  ShowMessageFace("alice_fc5",3,0,2,63)
  ShowMessage("\\n<Alice>……………………")
  ShowMessageFace("morrigan_fc1",2,0,2,64)
  ShowMessage("\\n<Morrigan>……………………")
  PictureDisplay(5,"80_sonia_m1_st12",0,0,0,0,100,100,255,0)
  ShowMessageFace("sonia_fc2",3,0,2,65)
  ShowMessage("\\n<Sonya>ちょっと、なんで黙り込むの？")
  ShowMessage("私、ひょっとして何かやらかしちゃった……？")
  ShowMessageFace("ruka_fc1",0,0,2,66)
  ShowMessage("\\n<Luka>何かって言うか……")
  ShowMessageFace("morrigan_fc1",2,0,2,67)
  ShowMessage("\\n<Morrigan>いいか！　お前は、アポ――")
  ShowMessageFace("alice_fc5",2,0,2,68)
  ShowMessage("\\n<Alice>……言うな、モリガン。")
  ShowMessage("黙っていろ。")
  PictureDisplay(5,"80_sonia_m1_st09",0,0,0,0,100,100,255,0)
  ShowMessageFace("sonia_fc2",0,0,2,69)
  ShowMessage("\\n<Sonya>い、言えない事ってなに……！？")
  ShowMessage("まさか、変な寝言でも言っちゃった……！？")
  ShowMessageFace("morrigan_fc1",2,0,2,70)
  ShowMessage("\\n<Morrigan>……分かった、お前等がそのつもりなら口を挟む気はないよ。")
  ShowMessageFace("morrigan_fc1",2,0,2,71)
  ShowMessage("\\n<Morrigan>でも、覚えておけよ。この問題は、まったく解決してないんだぜ。")
  ShowMessage("お前達は……いや、この世界は爆弾を抱えたままなのさ。")
  ShowMessageFace("ruka_fc1",0,0,2,72)
  ShowMessage("\\n<Luka>ああ、分かってるさ……")
  ShowMessageFace("",0,0,2,73)
  ShowMessage("ソニアの正体はアポトーシスで――")
  ShowMessage("そして、自身はそれを覚えていない。")
  ShowMessageFace("",0,0,2,74)
  ShowMessage("今はヌルコが一時的に中和しただけで、今後どうなるか分からないのだ。")
  ShowMessage("根本的な解決法は何なのか、そもそもそんなものがあるのか――")
  PictureDisplay(5,"80_sonia_m1_st11",0,0,0,0,100,100,255,0)
  ShowMessageFace("sonia_fc2",2,0,2,75)
  ShowMessage("\\n<Sonya>なんだか、変な空気……")
  ShowMessage("私、何をやらかしちゃったの……？")
  ShowMessageFace("alice_fc5",2,0,2,76)
  ShowMessage("\\n<Alice>気にするな、貴様が悪いわけではない。")
  PictureClear(5)
  241(bytes(0x04,0x08,0x6f,0x3a,0x0d,0x52,0x50,0x47,0x3a,0x3a,0x42,0x47,0x4d,0x08,0x3a,0x0a,0x40,0x6e,0x61,0x6d,0x65,0x49,0x22,0x14,0x73,0x63,0x65,0x6e,0x65,0x5f,0x65,0x70,0x69,0x6c,0x6f,0x67,0x75,0x65,0x31,0x06,0x3a,0x06,0x45,0x54,0x3a,0x0c,0x40,0x76,0x6f,0x6c,0x75,0x6d,0x65,0x69,0x69,0x3a,0x0b,0x40,0x70,0x69,0x74,0x63,0x68,0x69,0x69))
  ShowMessageFace("nuruko_fc1",0,0,2,77)
  ShowMessage("\\n<Nuruko>きゅ～……")
  ShowMessageFace("morrigan_fc1",2,0,2,78)
  ShowMessage("\\n<Morrigan>こいつもこいつで、いったい何なんだ？")
  ShowMessage("混沌の精霊っての、どこで拾ってきた？")
  ShowMessageFace("sonia_fc3",7,0,2,79)
  ShowMessage("\\n<Sonya>ヌルコ、混沌の精霊だったの！？")
  ShowMessageFace("ruka_fc1",0,0,2,80)
  ShowMessage("\\n<Luka>ヌルコは、タルタロスの中にいたんだ……")
  ShowMessage("なぜそこにいたのか、どこから来たのかは分からない。")
  ShowMessageFace("morrigan_fc1",2,0,2,81)
  ShowMessage("\\n<Morrigan>タルタロスで拾ったいきものを、平気で連れ回してたのか！")
  ShowMessage("お前等、マジでイカれてるな！")
  ShowMessageFace("alice_fc5",0,0,2,82)
  ShowMessage("\\n<Alice>だが、それゆえに窮地を免れたのだ。")
  ShowMessage("我々はヌルコに感謝せねばならん。")
  ShowMessageFace("sonia_fc1",0,0,2,83)
  ShowMessage("\\n<Sonya>なんだか知らないけど、ヌルコががんばったのね。")
  ShowMessage("……えらいえらい。")
  ShowMessageFace("nuruko_fc1",1,0,2,84)
  ShowMessage("\\n<Nuruko>きゅっ♪　きゅっ♪")
  ShowMessageFace("morrigan_fc1",0,0,2,85)
  ShowMessage("\\n<Morrigan>……まあいいや、楽しくいこうぜ。")
  ShowMessage("それで、これからどうするんだ？")
  ShowMessageFace("alice_fc5",0,0,2,86)
  ShowMessage("\\n<Alice>我々は本来、神鳥を復活させるためここに来た。")
  ShowMessage("マナの流れを乱す原因、というのを探りにな。")
  ShowMessageFace("morrigan_fc1",0,0,2,87)
  ShowMessage("\\n<Morrigan>そりゃ、カオスに侵蝕されたイリアスの事だな。")
  ShowMessage("あたし達がさっくり消してやったぜ。")
  ShowMessageFace("ruka_fc1",0,0,2,88)
  ShowMessage("\\n<Luka>それじゃあ、今度こそ神鳥が復活できるね。")
  ShowMessage("その背に乗って、魔王城に向かう――")
  ShowMessageFace("alice_fc5",0,0,2,89)
  ShowMessage("\\n<Alice>モリガン達に多くの話を聞き、母上の目的は見えてきたが……")
  ShowMessage("やはり本人に直接問いたださなければな。")
  ShowMessageFace("alice_fc5",2,0,2,90)
  ShowMessage("\\n<Alice>それで納得できねば、戦うことにもなろう……")
  ShowMessage("よって次の目的地は、魔王城だ。")
  ShowMessageFace("morrigan_fc1",0,0,2,91)
  ShowMessage("\\n<Morrigan>それじゃあ、あたしもサポートしてやるぜ。")
  ShowMessage("正史の勇者ルカも、魔王退治に魔王城まで行ったんだしな。")
  ShowMessageFace("morrigan_fc1",1,0,2,92)
  ShowMessage("\\n<Morrigan>それに、そこでたぶん姉貴達も……")
  ShowMessage("お前の決断、期待してるぜ！")
  ShowMessageFace("ruka_fc1",0,0,2,93)
  ShowMessage("\\n<Luka>それじゃあまずは、神鳥のほこらに――")
  205(9,bytes(0x04,0x08,0x6f,0x3a,0x13,0x52,0x50,0x47,0x3a,0x3a,0x4d,0x6f,0x76,0x65,0x52,0x6f,0x75,0x74,0x65,0x09,0x3a,0x0c,0x40,0x72,0x65,0x70,0x65,0x61,0x74,0x46,0x3a,0x0f,0x40,0x73,0x6b,0x69,0x70,0x70,0x61,0x62,0x6c,0x65,0x46,0x3a,0x0a,0x40,0x77,0x61,0x69,0x74,0x46,0x3a,0x0a,0x40,0x6c,0x69,0x73,0x74,0x5b,0x07,0x6f,0x3a,0x15,0x52,0x50,0x47,0x3a,0x3a,0x4d,0x6f,0x76,0x65,0x43,0x6f,0x6d,0x6d,0x61,0x6e,0x64,0x07,0x3a,0x0a,0x40,0x63,0x6f,0x64,0x65,0x69,0x15,0x3a,0x10,0x40,0x70,0x61,0x72,0x61,0x6d,0x65,0x74,0x65,0x72,0x73,0x5b,0x00,0x6f,0x3b,0x0a,0x07,0x3b,0x0b,0x69,0x00,0x3b,0x0c,0x5b,0x00))
  205(10,bytes(0x04,0x08,0x6f,0x3a,0x13,0x52,0x50,0x47,0x3a,0x3a,0x4d,0x6f,0x76,0x65,0x52,0x6f,0x75,0x74,0x65,0x09,0x3a,0x0c,0x40,0x72,0x65,0x70,0x65,0x61,0x74,0x46,0x3a,0x0f,0x40,0x73,0x6b,0x69,0x70,0x70,0x61,0x62,0x6c,0x65,0x46,0x3a,0x0a,0x40,0x77,0x61,0x69,0x74,0x54,0x3a,0x0a,0x40,0x6c,0x69,0x73,0x74,0x5b,0x07,0x6f,0x3a,0x15,0x52,0x50,0x47,0x3a,0x3a,0x4d,0x6f,0x76,0x65,0x43,0x6f,0x6d,0x6d,0x61,0x6e,0x64,0x07,0x3a,0x0a,0x40,0x63,0x6f,0x64,0x65,0x69,0x15,0x3a,0x10,0x40,0x70,0x61,0x72,0x61,0x6d,0x65,0x74,0x65,0x72,0x73,0x5b,0x00,0x6f,0x3b,0x0a,0x07,0x3b,0x0b,0x69,0x00,0x3b,0x0c,0x5b,0x00))
  242(1)
  ShowMessageFace("morrigan_fc1",2,0,2,94)
  ShowMessage("\\n<Morrigan>……いや、待て。")
  ShowMessage("姉貴から今、念話で緊急通信が入った。")
  ShowMessageFace("morrigan_fc1",2,0,2,95)
  ShowMessage("\\n<Morrigan>……なんだと！")
  ShowMessage("まさか、そんな……！")
  ShowMessageFace("alice_fc5",0,0,2,96)
  ShowMessage("\\n<Alice>いったい、何事なのだ……？")
  241(bytes(0x04,0x08,0x6f,0x3a,0x0d,0x52,0x50,0x47,0x3a,0x3a,0x42,0x47,0x4d,0x08,0x3a,0x0a,0x40,0x6e,0x61,0x6d,0x65,0x49,0x22,0x0a,0x6b,0x69,0x6b,0x69,0x32,0x06,0x3a,0x06,0x45,0x54,0x3a,0x0c,0x40,0x76,0x6f,0x6c,0x75,0x6d,0x65,0x69,0x69,0x3a,0x0b,0x40,0x70,0x69,0x74,0x63,0x68,0x69,0x69))
  ShowMessageFace("morrigan_fc1",2,0,2,97)
  ShowMessage("\\n<Morrigan>……アリスフィーズ15世が、勇者に討たれたそうだ。")
  ShowMessageFace("alice_fc6",0,0,2,98)
  ShowMessage("\\n<Alice>なんだと……！？")
  ShowMessage("勇者ルカは、目の前にいるぞ！！")
  ShowMessageFace("ruka_fc1",0,0,2,99)
  ShowMessage("\\n<Luka>勇者って、いったい誰が――")
  241(bytes(0x04,0x08,0x6f,0x3a,0x0d,0x52,0x50,0x47,0x3a,0x3a,0x42,0x47,0x4d,0x08,0x3a,0x0a,0x40,0x6e,0x61,0x6d,0x65,0x49,0x22,0x0c,0x62,0x6f,0x73,0x73,0x30,0x2d,0x33,0x06,0x3a,0x06,0x45,0x54,0x3a,0x0c,0x40,0x76,0x6f,0x6c,0x75,0x6d,0x65,0x69,0x69,0x3a,0x0b,0x40,0x70,0x69,0x74,0x63,0x68,0x69,0x69))
  PictureDisplay(5,"iv_marcellus3",0,0,0,0,100,100,0,0)
  PictureMove(5,null,0,0,0,0,100,100,255,0,60,false)
  ShowMessageFace("morrigan_fc1",2,0,2,100)
  ShowMessage("\\n<Morrigan>……勇者マルケルスだ。")
  ShowMessageFace("morrigan_fc1",2,0,2,101)
  ShowMessage("\\n<Morrigan>マルケルスが、アリスフィーズ15世を殺った――")
  ShowMessageFace("ruka_fc1",0,0,2,102)
  ShowMessage("\\n<Luka>父さんが！？")
  ShowMessageFace("alice_fc6",0,0,2,103)
  ShowMessage("\\n<Alice>母上を――")
  Wait(60)
  355("gain_medal(63)")
  ShowMessageFace("",0,0,2,104)
  ShowMessage("動き出した運命、紡がれていく歴史。")
  ShowMessage("僕の追う父が、アリスの追う母を討つ。")
  ShowMessageFace("",0,0,2,105)
  ShowMessage("いずれ訪れる、光と闇の選択。")
  ShowMessage("僕達の道は重なるのか、それとも交差するのか。")
  ShowMessageFace("",0,0,2,106)
  ShowMessage("この冒険はどこに行き着き、その果てに何をもたらすのか――")
  ShowMessage("疑惑と戸惑いを抱え、僕達は選択の時へと歩み出すのだった。")
  ChangeSwitch(1525,1525,0)
  355("set_class_level(525, 351, 1, false, false)")
  355("add_stand_actor(525)")
  355("set_class_level(79, 214, 10, false, false)")
  ChangeVariable(1001,1001,0,0,34)
  ChangeVariable(1076,1076,0,0,7)
  ChangeSwitch(100,100,1)
  221()
  PictureClear(5)
  Wait(120)
  ChangeSwitch(31,31,1)
  ChangeSwitch(32,32,1)
  ChangeSwitch(33,33,1)
  ChangeSwitch(34,34,1)
  ChangeSwitch(35,35,1)
  ChangeSwitch(36,36,1)
  TeleportPlayer(0,620,0,1,0,2)
  241(bytes(0x04,0x08,0x6f,0x3a,0x0d,0x52,0x50,0x47,0x3a,0x3a,0x42,0x47,0x4d,0x08,0x3a,0x0a,0x40,0x6e,0x61,0x6d,0x65,0x49,0x22,0x0b,0x66,0x69,0x65,0x6c,0x64,0x33,0x06,0x3a,0x06,0x45,0x54,0x3a,0x0c,0x40,0x76,0x6f,0x6c,0x75,0x6d,0x65,0x69,0x69,0x3a,0x0b,0x40,0x70,0x69,0x74,0x63,0x68,0x69,0x69))
  222()
  0()



EVENT   14
 PAGE   1
  0()
 PAGE   2
  // condition: switch 32 is ON
  0()
 PAGE   3
  // condition: switch 36 is ON
  0()


