// EVENT 0065
Name "Skill: Play 251-260"

ChangeVariable(11,11,0,2,1,5)
If(1,100,0,251,0)
 If(1,11,0,1,0)
  ShowMessageFace("paizuridoll_fc1",0,0,2,1)
  ShowMessage("【パイン】")
  ShowMessage("……………………")
  ShowMessageFace("",0,0,2,2)
  ShowMessage("パインはぴょこぴょこ飛び跳ねている！")
  EndEventProcessing()
  0()
 EndIf()
 If(1,11,0,2,0)
  ShowMessageFace("paizuridoll_fc1",2,0,2,3)
  ShowMessage("【パイン】")
  ShowMessage("……………………")
  ShowMessageFace("",0,0,2,4)
  ShowMessage("パインはおびえている……")
  EndEventProcessing()
  0()
 EndIf()
 If(1,11,0,3,0)
  ShowMessageFace("paizuridoll_fc1",0,0,2,5)
  ShowMessage("【パイン】")
  ShowMessage("……………………")
  355("interrupt_skill(3307)")
  EndEventProcessing()
  0()
 EndIf()
 If(1,11,0,4,0)
  ShowMessageFace("paizuridoll_fc1",0,0,2,6)
  ShowMessage("【パイン】")
  ShowMessage("……………………")
  ShowMessageFace("",0,0,2,7)
  ShowMessage("パインからの差し入れだ！")
  250(bytes(0x04,0x08,0x6f,0x3a,0x0c,0x52,0x50,0x47,0x3a,0x3a,0x53,0x45,0x08,0x3a,0x0a,0x40,0x6e,0x61,0x6d,0x65,0x49,0x22,0x0a,0x49,0x74,0x65,0x6d,0x31,0x06,0x3a,0x06,0x45,0x54,0x3a,0x0b,0x40,0x70,0x69,0x74,0x63,0x68,0x69,0x69,0x3a,0x0c,0x40,0x76,0x6f,0x6c,0x75,0x6d,0x65,0x69,0x55))
  ChangeInventory_Item(405,0,0,1)
  ShowMessageFace("",0,0,2,8)
  ShowMessage("「肉まん」を手に入れた！")
  EndEventProcessing()
  0()
 EndIf()
 If(1,11,0,5,0)
  ShowMessageFace("paizuridoll_fc1",2,0,2,9)
  ShowMessage("【パイン】")
  ShowMessage("…………！？")
  355("interrupt_skill(3293)")
  EndEventProcessing()
  0()
 EndIf()
 0()
EndIf()
If(1,100,0,252,0)
 If(1,11,0,1,0)
  ShowMessageFace("scylla_fc1",2,0,2,10)
  ShowMessage("【キューラ】")
  ShowMessage("油断していたら、触手が絡まったわ……")
  ShowMessageFace("",0,0,2,11)
  ShowMessage("キューラの触手同士が絡まり、身動きが取れなくなった！")
  EndEventProcessing()
  0()
 EndIf()
 If(1,11,0,2,0)
  ShowMessageFace("scylla_fc1",0,0,2,12)
  ShowMessage("【キューラ】")
  ShowMessage("さあ、楽しむわよ！")
  ShowMessageFace("",0,0,2,13)
  ShowMessage("キューラはクラッカーを鳴らした！")
  ShowMessage("しかし誰も相手にしない……")
  EndEventProcessing()
  0()
 EndIf()
 If(1,11,0,3,0)
  ShowMessageFace("scylla_fc1",0,0,2,14)
  ShowMessage("【キューラ】")
  ShowMessage("ほら、がんばりなさい！")
  ShowMessageFace("",0,0,2,15)
  ShowMessage("キューラはみんなを応援した！")
  ShowMessage("しかし誰も聞いていない……")
  EndEventProcessing()
  0()
 EndIf()
 If(1,11,0,4,0)
  ShowMessageFace("scylla_fc1",0,0,2,16)
  ShowMessage("【キューラ】")
  ShowMessage("私はイカじゃないわ、これがイカよ！")
  ShowMessageFace("",0,0,2,17)
  ShowMessage("キューラからの差し入れだ！")
  250(bytes(0x04,0x08,0x6f,0x3a,0x0c,0x52,0x50,0x47,0x3a,0x3a,0x53,0x45,0x08,0x3a,0x0a,0x40,0x6e,0x61,0x6d,0x65,0x49,0x22,0x0a,0x49,0x74,0x65,0x6d,0x31,0x06,0x3a,0x06,0x45,0x54,0x3a,0x0b,0x40,0x70,0x69,0x74,0x63,0x68,0x69,0x69,0x3a,0x0c,0x40,0x76,0x6f,0x6c,0x75,0x6d,0x65,0x69,0x55))
  ChangeInventory_Item(325,0,0,1)
  ShowMessageFace("",0,0,2,18)
  ShowMessage("「イカ」を手に入れた！")
  EndEventProcessing()
  0()
 EndIf()
 If(1,11,0,5,0)
  ShowMessageFace("scylla_fc1",0,0,2,19)
  ShowMessage("【キューラ】")
  ShowMessage("やぁぁぁっ！！")
  355("interrupt_skill(2776)")
  EndEventProcessing()
  0()
 EndIf()
 0()
EndIf()
If(1,100,0,253,0)
 If(1,11,0,1,0)
  ShowMessageFace("medusa_fc1",0,0,2,20)
  ShowMessage("【デューサ】")
  ShowMessage("こんなの、うんざりよ……！！")
  ShowMessageFace("",0,0,2,21)
  ShowMessage("デューサは逃げ出した！")
  ShowMessage("しかし道が分からず、すぐ戻ってきた……")
  EndEventProcessing()
  0()
 EndIf()
 If(1,11,0,2,0)
  ShowMessageFace("medusa_fc1",1,0,2,22)
  ShowMessage("【デューサ】")
  ShowMessage("私なりの……キラッ☆")
  355("interrupt_skill(2556)")
  EndEventProcessing()
  0()
 EndIf()
 If(1,11,0,3,0)
  ShowMessageFace("medusa_fc1",0,0,2,23)
  ShowMessage("【デューサ】")
  ShowMessage("ふふふ……うふふ……")
  355("interrupt_skill(3295)")
  EndEventProcessing()
  0()
 EndIf()
 If(1,11,0,4,0)
  ShowMessageFace("medusa_fc1",1,0,2,24)
  ShowMessage("【デューサ】")
  ShowMessage("これ、あげるわ……")
  ShowMessageFace("",0,0,2,25)
  ShowMessage("デューサからの差し入れだ！")
  250(bytes(0x04,0x08,0x6f,0x3a,0x0c,0x52,0x50,0x47,0x3a,0x3a,0x53,0x45,0x08,0x3a,0x0a,0x40,0x6e,0x61,0x6d,0x65,0x49,0x22,0x0a,0x49,0x74,0x65,0x6d,0x31,0x06,0x3a,0x06,0x45,0x54,0x3a,0x0b,0x40,0x70,0x69,0x74,0x63,0x68,0x69,0x69,0x3a,0x0c,0x40,0x76,0x6f,0x6c,0x75,0x6d,0x65,0x69,0x55))
  ChangeInventory_Item(379,0,0,1)
  ShowMessageFace("",0,0,2,26)
  ShowMessage("「コロッケ」を手に入れた！")
  EndEventProcessing()
  0()
 EndIf()
 If(1,11,0,5,0)
  ShowMessageFace("medusa_fc1",1,0,2,27)
  ShowMessage("【デューサ】")
  ShowMessage("ふふふっ……")
  355("interrupt_skill(3296)")
  EndEventProcessing()
  0()
 EndIf()
 0()
EndIf()
If(1,100,0,254,0)
 If(1,11,0,1,0)
  ShowMessageFace("ageha_fc1",0,0,2,28)
  ShowMessage("【あげは】")
  ShowMessage("ひらひらひら～♪")
  ShowMessageFace("",0,0,2,29)
  ShowMessage("あげはは羽根をぱたぱたさせている……")
  EndEventProcessing()
  0()
 EndIf()
 If(1,11,0,2,0)
  ShowMessageFace("ageha_fc1",0,0,2,30)
  ShowMessage("【あげは】")
  ShowMessage("皆さん、がんばってくださ～い♪")
  355("interrupt_skill(3300)")
  EndEventProcessing()
  0()
 EndIf()
 If(1,11,0,3,0)
  ShowMessageFace("ageha_fc1",2,0,2,31)
  ShowMessage("【あげは】")
  ShowMessage("うぇ～ん！")
  ShowMessageFace("",0,0,2,32)
  ShowMessage("あげはは嘘泣きをした！")
  ShowMessage("しかし、誰も聞いていない……")
  EndEventProcessing()
  0()
 EndIf()
 If(1,11,0,4,0)
  ShowMessageFace("ageha_fc1",0,0,2,33)
  ShowMessage("【あげは】")
  ShowMessage("これ、どうぞ♪")
  ShowMessageFace("",0,0,2,34)
  ShowMessage("あげはからの差し入れだ！")
  250(bytes(0x04,0x08,0x6f,0x3a,0x0c,0x52,0x50,0x47,0x3a,0x3a,0x53,0x45,0x08,0x3a,0x0a,0x40,0x6e,0x61,0x6d,0x65,0x49,0x22,0x0a,0x49,0x74,0x65,0x6d,0x31,0x06,0x3a,0x06,0x45,0x54,0x3a,0x0b,0x40,0x70,0x69,0x74,0x63,0x68,0x69,0x69,0x3a,0x0c,0x40,0x76,0x6f,0x6c,0x75,0x6d,0x65,0x69,0x55))
  ChangeInventory_Item(404,0,0,1)
  ShowMessageFace("",0,0,2,35)
  ShowMessage("「たいやき」を手に入れた！")
  EndEventProcessing()
  0()
 EndIf()
 If(1,11,0,5,0)
  ShowMessageFace("ageha_fc1",0,0,2,36)
  ShowMessage("【あげは】")
  ShowMessage("鱗粉、ひらひら～♪")
  355("interrupt_skill(2890)")
  EndEventProcessing()
  0()
 EndIf()
 0()
EndIf()
If(1,100,0,255,0)
 If(1,11,0,1,0)
  ShowMessageFace("blom_fc1",0,0,2,37)
  ShowMessage("【ブルーム】")
  ShowMessage("ほら、がんばりなさいよ！")
  ShowMessageFace("",0,0,2,38)
  ShowMessage("ブルームはみんなを応援した！")
  ShowMessage("しかし誰も聞いていない……")
  EndEventProcessing()
  0()
 EndIf()
 If(1,11,0,2,0)
  ShowMessageFace("blom_fc1",0,0,2,39)
  ShowMessage("【ブルーム】")
  ShowMessage("どくどくどく～！")
  ShowMessageFace("",0,0,2,40)
  ShowMessage("ブルームは毒粘液を撒き散らした！")
  ShowMessage("敵味方が逃げ惑い、パニックになる！")
  EndEventProcessing()
  0()
 EndIf()
 If(1,11,0,3,0)
  ShowMessageFace("blom_fc1",0,0,2,41)
  ShowMessage("【ブルーム】")
  ShowMessage("私の毒でも飲んで、落ち着きなさい！")
  ShowMessageFace("",0,0,2,42)
  ShowMessage("ブルームは仲裁に入った！")
  ShowMessage("しかし誰も聞いていない……")
  EndEventProcessing()
  0()
 EndIf()
 If(1,11,0,4,0)
  ShowMessageFace("blom_fc1",0,0,2,43)
  ShowMessage("【ブルーム】")
  ShowMessage("これ、とっても美味しいよ！")
  ShowMessageFace("",0,0,2,44)
  ShowMessage("ブルームからの差し入れだ！")
  250(bytes(0x04,0x08,0x6f,0x3a,0x0c,0x52,0x50,0x47,0x3a,0x3a,0x53,0x45,0x08,0x3a,0x0a,0x40,0x6e,0x61,0x6d,0x65,0x49,0x22,0x0a,0x49,0x74,0x65,0x6d,0x31,0x06,0x3a,0x06,0x45,0x54,0x3a,0x0b,0x40,0x70,0x69,0x74,0x63,0x68,0x69,0x69,0x3a,0x0c,0x40,0x76,0x6f,0x6c,0x75,0x6d,0x65,0x69,0x55))
  ChangeInventory_Item(443,0,0,1)
  ShowMessageFace("",0,0,2,45)
  ShowMessage("「毒キノコ」を手に入れた！")
  EndEventProcessing()
  0()
 EndIf()
 If(1,11,0,5,0)
  ShowMessageFace("blom_fc1",2,0,2,46)
  ShowMessage("【ブルーム】")
  ShowMessage("ごほごほ……ちょっとカゼ引いちゃった。")
  355("interrupt_skill(3304)")
  EndEventProcessing()
  0()
 EndIf()
 0()
EndIf()
If(1,100,0,256,0)
 If(1,11,0,1,0)
  ShowMessageFace("warmer_fc1",2,0,2,47)
  ShowMessage("【エルマ】")
  ShowMessage("……びくっ！")
  ShowMessageFace("",0,0,2,48)
  ShowMessage("エルマはおびえている……")
  EndEventProcessing()
  0()
 EndIf()
 If(1,11,0,2,0)
  ShowMessageFace("warmer_fc1",0,0,2,49)
  ShowMessage("【エルマ】")
  ShowMessage("ららら～♪")
  ShowMessageFace("",0,0,2,50)
  ShowMessage("エルマは陽気に歌って踊っている……")
  EndEventProcessing()
  0()
 EndIf()
 If(1,11,0,3,0)
  ShowMessageFace("warmer_fc1",0,0,2,51)
  ShowMessage("【エルマ】")
  ShowMessage("えいっ！")
  355("interrupt_skill(3301)")
  EndEventProcessing()
  0()
 EndIf()
 If(1,11,0,4,0)
  ShowMessageFace("warmer_fc1",0,0,2,52)
  ShowMessage("【エルマ】")
  ShowMessage("あげる……")
  ShowMessageFace("",0,0,2,53)
  ShowMessage("エルマからの差し入れだ！")
  250(bytes(0x04,0x08,0x6f,0x3a,0x0c,0x52,0x50,0x47,0x3a,0x3a,0x53,0x45,0x08,0x3a,0x0a,0x40,0x6e,0x61,0x6d,0x65,0x49,0x22,0x0a,0x49,0x74,0x65,0x6d,0x31,0x06,0x3a,0x06,0x45,0x54,0x3a,0x0b,0x40,0x70,0x69,0x74,0x63,0x68,0x69,0x69,0x3a,0x0c,0x40,0x76,0x6f,0x6c,0x75,0x6d,0x65,0x69,0x55))
  ChangeInventory_Item(432,0,0,1)
  ShowMessageFace("",0,0,2,54)
  ShowMessage("「ほしにく」を手に入れた！")
  EndEventProcessing()
  0()
 EndIf()
 If(1,11,0,5,0)
  ShowMessageFace("warmer_fc1",0,0,2,55)
  ShowMessage("【エルマ】")
  ShowMessage("すー……はぁぁ……")
  355("interrupt_skill(3304)")
  EndEventProcessing()
  0()
 EndIf()
 0()
EndIf()
If(1,100,0,257,0)
 If(1,11,0,1,0)
  ShowMessageFace("gool_fc1",3,0,2,56)
  ShowMessage("【グールズ】")
  ShowMessage("ぉ……ぉぉ……")
  ShowMessageFace("",0,0,2,57)
  ShowMessage("グールズはぼんやりしている……")
  EndEventProcessing()
  0()
 EndIf()
 If(1,11,0,2,0)
  ShowMessageFace("gool_fc1",3,0,2,58)
  ShowMessage("【グールズ】")
  ShowMessage("がじ、がじ……")
  ShowMessageFace("",0,0,2,59)
  ShowMessage("グールズは互いの体をかじり合っている……")
  EndEventProcessing()
  0()
 EndIf()
 If(1,11,0,3,0)
  ShowMessageFace("gool_fc1",3,0,2,60)
  ShowMessage("【グールズ】")
  ShowMessage("むしゃ……むしゃむしゃ……")
  ShowMessageFace("",0,0,2,61)
  ShowMessage("グールズは食料を盗み食いしている……")
  EndEventProcessing()
  0()
 EndIf()
 If(1,11,0,4,0)
  ShowMessageFace("gool_fc1",3,0,2,62)
  ShowMessage("【グールズ】")
  ShowMessage("あ……げる……")
  ShowMessageFace("",0,0,2,63)
  ShowMessage("グールズからの差し入れだ！")
  250(bytes(0x04,0x08,0x6f,0x3a,0x0c,0x52,0x50,0x47,0x3a,0x3a,0x53,0x45,0x08,0x3a,0x0a,0x40,0x6e,0x61,0x6d,0x65,0x49,0x22,0x0a,0x49,0x74,0x65,0x6d,0x31,0x06,0x3a,0x06,0x45,0x54,0x3a,0x0b,0x40,0x70,0x69,0x74,0x63,0x68,0x69,0x69,0x3a,0x0c,0x40,0x76,0x6f,0x6c,0x75,0x6d,0x65,0x69,0x55))
  ChangeInventory_Item(444,0,0,1)
  ShowMessageFace("",0,0,2,64)
  ShowMessage("「ドクロ」を手に入れた！")
  EndEventProcessing()
  0()
 EndIf()
 If(1,11,0,5,0)
  ShowMessageFace("gool_fc1",3,0,2,65)
  ShowMessage("【グールズ】")
  ShowMessage("らら……ら……")
  355("interrupt_skill(2033)")
  EndEventProcessing()
  0()
 EndIf()
 0()
EndIf()
If(1,100,0,258,0)
 If(1,11,0,1,0)
  ShowMessageFace("fakejelly_fc1",0,0,2,66)
  ShowMessage("【アルネ】")
  ShowMessage("今日はいい天気ですねぇ……")
  ShowMessageFace("",0,0,2,67)
  ShowMessage("アルネは地面に寝そべって日光浴している……")
  EndEventProcessing()
  0()
 EndIf()
 If(1,11,0,2,0)
  ShowMessageFace("fakejelly_fc1",0,0,2,68)
  ShowMessage("【アルネ】")
  ShowMessage("ぷる♪　ぷる、ぷるん♪")
  ShowMessageFace("",0,0,2,69)
  ShowMessage("アルネはぷるぷるしている……")
  EndEventProcessing()
  0()
 EndIf()
 If(1,11,0,3,0)
  ShowMessageFace("fakejelly_fc1",0,0,2,70)
  ShowMessage("【アルネ】")
  ShowMessage("私は電気クラゲ！")
  ShowMessage("自家発電しますよ～！")
  313(0,258,0,15)
  ShowMessageFace("",0,0,2,71)
  ShowMessage("アルネは電撃を放った！")
  ShowMessage("自分の電気で自分が痺れてしまう！")
  EndEventProcessing()
  0()
 EndIf()
 If(1,11,0,4,0)
  ShowMessageFace("fakejelly_fc1",0,0,2,72)
  ShowMessage("【アルネ】")
  ShowMessage("ファイト！　ファイト！")
  355("interrupt_skill(3300)")
  EndEventProcessing()
  0()
 EndIf()
 If(1,11,0,5,0)
  ShowMessageFace("fakejelly_fc1",0,0,2,73)
  ShowMessage("【アルネ】")
  ShowMessage("ハッスルしますよー♪")
  355("interrupt_skill(2047)")
  EndEventProcessing()
  0()
 EndIf()
 0()
EndIf()
If(1,100,0,259,0)
 If(1,11,0,1,0)
  ShowMessageFace("w_hapy_fc1",0,0,2,74)
  ShowMessage("【つばさ】")
  ShowMessage("……………………")
  ShowMessageFace("",0,0,2,75)
  ShowMessage("つばさは考え事をしている……")
  EndEventProcessing()
  0()
 EndIf()
 If(1,11,0,2,0)
  ShowMessageFace("w_hapy_fc1",0,0,2,76)
  ShowMessage("【つばさ】")
  ShowMessage("……………………")
  ShowMessageFace("",0,0,2,77)
  ShowMessage("つばさは流し目を送った……")
  ShowMessage("しかし、睨んでいるようにしか見えない！")
  EndEventProcessing()
  0()
 EndIf()
 If(1,11,0,3,0)
  ShowMessageFace("w_hapy_fc1",0,0,2,78)
  ShowMessage("【つばさ】")
  ShowMessage("少し寝るわ……")
  313(0,259,0,11)
  ShowMessageFace("",0,0,2,79)
  ShowMessage("つばさは居眠りしている……")
  EndEventProcessing()
  0()
 EndIf()
 If(1,11,0,4,0)
  ShowMessageFace("w_hapy_fc1",0,0,2,80)
  ShowMessage("【つばさ】")
  ShowMessage("これ、食べて……")
  ShowMessageFace("",0,0,2,81)
  ShowMessage("つばさからの差し入れだ！")
  250(bytes(0x04,0x08,0x6f,0x3a,0x0c,0x52,0x50,0x47,0x3a,0x3a,0x53,0x45,0x08,0x3a,0x0a,0x40,0x6e,0x61,0x6d,0x65,0x49,0x22,0x0a,0x49,0x74,0x65,0x6d,0x31,0x06,0x3a,0x06,0x45,0x54,0x3a,0x0b,0x40,0x70,0x69,0x74,0x63,0x68,0x69,0x69,0x3a,0x0c,0x40,0x76,0x6f,0x6c,0x75,0x6d,0x65,0x69,0x55))
  ChangeInventory_Item(305,0,0,1)
  ShowMessageFace("",0,0,2,82)
  ShowMessage("「バナナ」を手に入れた！")
  EndEventProcessing()
  0()
 EndIf()
 If(1,11,0,5,0)
  ShowMessageFace("w_hapy_fc1",0,0,2,83)
  ShowMessage("【つばさ】")
  ShowMessage("ハーピーの踊りよ……")
  355("interrupt_skill(2056)")
  EndEventProcessing()
  0()
 EndIf()
 0()
EndIf()
If(1,100,0,260,0)
 If(1,11,0,1,0)
  ShowMessageFace("k_hapy_fc1",0,0,2,84)
  ShowMessage("【クリス】")
  ShowMessage("行くぞっ！！")
  355("interrupt_skill(3294)")
  EndEventProcessing()
  0()
 EndIf()
 If(1,11,0,2,0)
  ShowMessageFace("k_hapy_fc1",0,0,2,85)
  ShowMessage("【クリス】")
  ShowMessage("さあ、舞うぞ……！")
  355("interrupt_skill(2059)")
  EndEventProcessing()
  0()
 EndIf()
 If(1,11,0,3,0)
  ShowMessageFace("k_hapy_fc1",2,0,2,86)
  ShowMessage("【クリス】")
  ShowMessage("これは……霊障か！？")
  313(0,260,0,12)
  ShowMessageFace("",0,0,2,87)
  ShowMessage("クリスは金縛りにあった！")
  EndEventProcessing()
  0()
 EndIf()
 If(1,11,0,4,0)
  ShowMessageFace("k_hapy_fc1",0,0,2,88)
  ShowMessage("【クリス】")
  ShowMessage("これを食べて、気合いを入れろ！")
  ShowMessageFace("",0,0,2,89)
  ShowMessage("クリスからの差し入れだ！")
  250(bytes(0x04,0x08,0x6f,0x3a,0x0c,0x52,0x50,0x47,0x3a,0x3a,0x53,0x45,0x08,0x3a,0x0a,0x40,0x6e,0x61,0x6d,0x65,0x49,0x22,0x0a,0x49,0x74,0x65,0x6d,0x31,0x06,0x3a,0x06,0x45,0x54,0x3a,0x0b,0x40,0x70,0x69,0x74,0x63,0x68,0x69,0x69,0x3a,0x0c,0x40,0x76,0x6f,0x6c,0x75,0x6d,0x65,0x69,0x55))
  ChangeInventory_Item(321,0,0,1)
  ShowMessageFace("",0,0,2,90)
  ShowMessage("「とうがらし」を手に入れた！")
  EndEventProcessing()
  0()
 EndIf()
 If(1,11,0,5,0)
  ShowMessageFace("k_hapy_fc1",0,0,2,91)
  ShowMessage("【クリス】")
  ShowMessage("はぁぁぁぁっ！！")
  355("interrupt_skill(3292)")
  EndEventProcessing()
  0()
 EndIf()
 0()
EndIf()
0()
