// EVENT 7214
Name "Milio: Victory"

PictureDisplay(5,"80_mob_kaihei_st01",0,0,0,0,100,100,255,0)
PictureClear(6)
ShowMessageFace("mob_kaihei_fc1",0,0,2,1)
ShowMessage("\\n<Milio>Woooow! You didn't come!")
ShowMessage("You're the winner!")
250(bytes(0x04,0x08,0x6f,0x3a,0x0c,0x52,0x50,0x47,0x3a,0x3a,0x53,0x45,0x08,0x3a,0x0a,0x40,0x6e,0x61,0x6d,0x65,0x49,0x22,0x0d,0x6d,0x6f,0x6e,0x5f,0x6c,0x76,0x75,0x70,0x06,0x3a,0x06,0x45,0x54,0x3a,0x0b,0x40,0x70,0x69,0x74,0x63,0x68,0x69,0x69,0x3a,0x0c,0x40,0x76,0x6f,0x6c,0x75,0x6d,0x65,0x69,0x69))
ChangeSwitch(98,98,1)
ChangeSwitch(96,96,1)
ShowMessageFace("",0,0,2,2)
ShowMessage("Luka won the Battle Fuck!")
If(1,822,0,2,1)
 ShowMessageFace("mob_kaihei_fc1",0,0,2,3)
 ShowMessage("\\n<Milio>There's no prize left.")
 ShowMessage("I mean, you already won once, remember?")
 0()
Else()
 ShowMessageFace("mob_kaihei_fc1",0,0,2,4)
 ShowMessage("\\n<Milio>Then you win the prize.")
 ShowMessage("You'll be happy you have this when you're in a pinch!♪")
 250(bytes(0x04,0x08,0x6f,0x3a,0x0c,0x52,0x50,0x47,0x3a,0x3a,0x53,0x45,0x08,0x3a,0x0a,0x40,0x6e,0x61,0x6d,0x65,0x49,0x22,0x0a,0x49,0x74,0x65,0x6d,0x31,0x06,0x3a,0x06,0x45,0x54,0x3a,0x0b,0x40,0x70,0x69,0x74,0x63,0x68,0x69,0x69,0x3a,0x0c,0x40,0x76,0x6f,0x6c,0x75,0x6d,0x65,0x69,0x55))
 ChangeInventoryArmor(1105,0,0,1,false)
 ChangeVariable(822,822,0,0,2)
 RunCommonEvent(6999)
 0()
EndIf()
ShowMessageFace("mob_kaihei_fc1",0,0,2,5)
ShowMessage("\\n<Milio>I want to get more experience!")
ShowMessage("You have to challenge me again sometime~♪")
If(0,2331,1)
 PictureClear(5)
 If(0,2149,0)
  241(bytes(0x04,0x08,0x6f,0x3a,0x0d,0x52,0x50,0x47,0x3a,0x3a,0x42,0x47,0x4d,0x08,0x3a,0x0a,0x40,0x6e,0x61,0x6d,0x65,0x49,0x22,0x0a,0x6b,0x69,0x6b,0x69,0x34,0x06,0x3a,0x06,0x45,0x54,0x3a,0x0c,0x40,0x76,0x6f,0x6c,0x75,0x6d,0x65,0x69,0x69,0x3a,0x0b,0x40,0x70,0x69,0x74,0x63,0x68,0x69,0x69))
  0()
 Else()
  241(bytes(0x04,0x08,0x6f,0x3a,0x0d,0x52,0x50,0x47,0x3a,0x3a,0x42,0x47,0x4d,0x08,0x3a,0x0a,0x40,0x6e,0x61,0x6d,0x65,0x49,0x22,0x16,0x64,0x75,0x6e,0x67,0x65,0x6f,0x6e,0x5f,0x63,0x6f,0x6c,0x6f,0x73,0x73,0x65,0x75,0x6d,0x06,0x3a,0x06,0x45,0x54,0x3a,0x0c,0x40,0x76,0x6f,0x6c,0x75,0x6d,0x65,0x69,0x69,0x3a,0x0b,0x40,0x70,0x69,0x74,0x63,0x68,0x69,0x69))
  0()
 EndIf()
 216(0)
 0()
EndIf()
EndEventProcessing()
0()
